gen;sp;singles;sim
0;1;0;5
1;1;0;5
2;1;0;5
3;1;0;5
4;1;0;5
5;1;0;5
6;1;0;5
7;1;0;5
8;1;0;5
9;1;0;5
10;1;0;5
11;1;0;5
12;1;0;5
13;1;0;5
14;1;0;5
15;1;0;5
16;1;0;5
17;1;0;5
18;1;0;5
19;1;0;5
20;1;0;5
21;1;0;5
22;1;0;5
23;1;0;5
24;1;0;5
25;1;0;5
26;1;0;5
27;1;0;5
28;1;0;5
29;1;0;5
30;1;0;5
31;1;0;5
32;1;0;5
33;1;0;5
34;1;0;5
35;1;0;5
36;1;0;5
37;1;0;5
38;1;0;5
39;1;0;5
40;1;0;5
41;1;0;5
42;1;0;5
43;1;0;5
44;1;0;5
45;1;0;5
46;1;0;5
47;1;0;5
48;1;0;5
49;1;0;5
50;1;0;5
51;1;0;5
52;1;0;5
53;1;0;5
54;1;0;5
55;1;0;5
56;1;0;5
57;1;0;5
58;1;0;5
59;1;0;5
60;1;0;5
61;1;0;5
62;1;0;5
63;1;0;5
64;1;0;5
65;1;0;5
66;1;0;5
67;1;0;5
68;1;0;5
69;1;0;5
70;1;0;5
71;1;0;5
72;1;0;5
73;1;0;5
74;1;0;5
75;1;0;5
76;1;0;5
77;1;0;5
78;1;0;5
79;1;0;5
80;1;0;5
81;1;0;5
82;1;0;5
83;1;0;5
84;1;0;5
85;1;0;5
86;1;0;5
87;1;0;5
88;1;0;5
89;1;0;5
90;1;0;5
91;1;0;5
92;1;0;5
93;1;0;5
94;1;0;5
95;1;0;5
96;1;0;5
97;1;0;5
98;1;0;5
99;1;0;5
100;1;0;5
101;1;0;5
102;1;0;5
103;1;0;5
104;1;0;5
105;1;0;5
106;1;0;5
107;1;0;5
108;1;0;5
109;1;0;5
110;1;0;5
111;1;0;5
112;1;0;5
113;1;0;5
114;1;0;5
115;1;0;5
116;1;0;5
117;1;0;5
118;1;0;5
119;1;0;5
120;1;0;5
121;1;0;5
122;1;0;5
123;1;0;5
124;1;0;5
125;1;0;5
126;1;0;5
127;1;0;5
128;1;0;5
129;1;0;5
130;1;0;5
131;1;0;5
132;1;0;5
133;1;0;5
134;1;0;5
135;1;0;5
136;1;0;5
137;1;0;5
138;1;0;5
139;1;0;5
140;1;0;5
141;1;0;5
142;1;0;5
143;1;0;5
144;1;0;5
145;1;0;5
146;1;0;5
147;1;0;5
148;1;0;5
149;1;0;5
150;1;0;5
151;1;0;5
152;1;0;5
153;1;0;5
154;1;0;5
155;1;0;5
156;1;0;5
157;1;0;5
158;1;0;5
159;1;0;5
160;1;0;5
161;1;0;5
162;1;0;5
163;1;0;5
164;1;0;5
165;1;0;5
166;1;0;5
167;1;0;5
168;1;0;5
169;1;0;5
170;1;0;5
171;1;0;5
172;1;0;5
173;1;0;5
174;1;0;5
175;1;0;5
176;1;0;5
177;1;0;5
178;1;0;5
179;1;0;5
180;1;0;5
181;1;0;5
182;1;0;5
183;1;0;5
184;1;0;5
185;1;0;5
186;1;0;5
187;1;0;5
188;1;0;5
189;1;0;5
190;1;0;5
191;1;0;5
192;1;0;5
193;1;0;5
194;1;0;5
195;1;0;5
196;1;0;5
197;1;0;5
198;1;0;5
199;1;0;5
200;1;0;5
201;1;0;5
202;1;0;5
203;1;0;5
204;1;0;5
205;1;0;5
206;1;0;5
207;1;0;5
208;1;0;5
209;1;0;5
210;1;0;5
211;1;0;5
212;1;0;5
213;1;0;5
214;1;0;5
215;1;0;5
216;1;0;5
217;1;0;5
218;1;0;5
219;1;0;5
220;1;0;5
221;1;0;5
222;1;0;5
223;1;0;5
224;1;0;5
225;1;0;5
226;1;0;5
227;1;0;5
228;1;0;5
229;1;0;5
230;1;0;5
231;1;0;5
232;1;0;5
233;1;0;5
234;1;0;5
235;1;0;5
236;1;0;5
237;1;0;5
238;1;0;5
239;1;0;5
240;1;0;5
241;1;0;5
242;1;0;5
243;1;0;5
244;1;0;5
245;1;0;5
246;1;0;5
247;1;0;5
248;1;0;5
249;1;0;5
250;1;0;5
251;1;0;5
252;1;0;5
253;1;0;5
254;1;0;5
255;1;0;5
256;1;0;5
257;1;0;5
258;1;0;5
259;1;0;5
260;1;0;5
261;1;0;5
262;1;0;5
263;1;0;5
264;1;0;5
265;1;0;5
266;1;0;5
267;1;0;5
268;1;0;5
269;1;0;5
270;1;0;5
271;1;0;5
272;1;0;5
273;1;0;5
274;1;0;5
275;1;0;5
276;1;0;5
277;1;0;5
278;1;0;5
279;1;0;5
280;1;0;5
281;1;0;5
282;1;0;5
283;1;0;5
284;1;0;5
285;1;0;5
286;1;0;5
287;1;0;5
288;1;0;5
289;1;0;5
290;1;0;5
291;1;0;5
292;1;0;5
293;1;0;5
294;1;0;5
295;1;0;5
296;1;0;5
297;1;0;5
298;1;0;5
299;1;0;5
300;1;0;5
301;1;0;5
302;1;0;5
303;1;0;5
304;1;0;5
305;1;0;5
306;2;0;5
307;1;0;5
308;1;0;5
309;1;0;5
310;1;0;5
311;1;0;5
312;1;0;5
313;1;0;5
314;1;0;5
315;2;0;5
316;1;0;5
317;2;0;5
318;2;0;5
319;2;0;5
320;1;0;5
321;2;0;5
322;1;0;5
323;2;0;5
324;2;0;5
325;3;0;5
326;2;0;5
327;2;0;5
328;1;0;5
329;1;0;5
330;2;0;5
331;1;0;5
332;2;0;5
333;2;0;5
334;1;0;5
335;1;0;5
336;1;0;5
337;2;0;5
338;3;0;5
339;3;0;5
340;3;0;5
341;3;0;5
342;2;0;5
343;2;0;5
344;2;0;5
345;2;0;5
346;2;0;5
347;2;0;5
348;1;0;5
349;2;0;5
350;3;0;5
351;3;0;5
352;3;0;5
353;2;0;5
354;3;0;5
355;3;0;5
356;3;0;5
357;3;0;5
358;2;0;5
359;3;0;5
360;3;0;5
361;4;0;5
362;3;0;5
363;3;0;5
364;4;0;5
365;3;0;5
366;3;0;5
367;3;0;5
368;4;0;5
369;3;0;5
370;3;0;5
371;4;0;5
372;4;0;5
373;4;0;5
374;4;0;5
375;4;0;5
376;4;0;5
377;4;0;5
378;4;0;5
379;4;0;5
380;4;0;5
381;4;0;5
382;4;0;5
383;4;0;5
384;4;0;5
385;4;0;5
386;4;0;5
387;4;0;5
388;4;0;5
389;3;0;5
390;5;0;5
391;5;0;5
392;4;0;5
393;4;0;5
394;4;0;5
395;5;0;5
396;4;0;5
397;5;0;5
398;6;0;5
399;6;0;5
400;6;0;5
401;5;0;5
402;4;0;5
403;5;0;5
404;5;0;5
405;5;0;5
406;5;0;5
407;5;0;5
408;5;0;5
409;5;0;5
410;5;0;5
411;5;0;5
412;5;0;5
413;5;0;5
414;5;0;5
415;5;0;5
416;5;0;5
417;5;0;5
418;5;0;5
419;5;0;5
420;5;0;5
421;5;0;5
422;5;0;5
423;5;0;5
424;5;0;5
425;5;0;5
426;5;0;5
427;5;0;5
428;5;0;5
429;4;0;5
430;5;0;5
431;5;0;5
432;5;0;5
433;5;0;5
434;6;0;5
435;5;0;5
436;6;0;5
437;6;0;5
438;5;0;5
439;6;0;5
440;5;0;5
441;5;0;5
442;5;0;5
443;5;0;5
444;5;0;5
445;5;0;5
446;5;0;5
447;6;0;5
448;6;0;5
449;6;0;5
450;5;0;5
451;5;0;5
452;6;0;5
453;6;0;5
454;6;0;5
455;7;0;5
456;7;0;5
457;7;0;5
458;6;0;5
459;6;0;5
460;7;0;5
461;7;0;5
462;6;0;5
463;6;0;5
464;7;0;5
465;7;0;5
466;8;0;5
467;7;0;5
468;7;0;5
469;7;0;5
470;6;0;5
471;6;0;5
472;7;0;5
473;7;0;5
474;7;0;5
475;8;0;5
476;7;0;5
477;8;0;5
478;8;0;5
479;8;0;5
480;8;0;5
481;8;0;5
482;8;0;5
483;8;0;5
484;8;0;5
485;8;0;5
486;7;0;5
487;7;0;5
488;8;0;5
489;8;0;5
490;8;0;5
491;7;0;5
492;7;0;5
493;8;0;5
494;8;0;5
495;8;0;5
496;8;0;5
497;8;0;5
498;8;0;5
499;7;0;5
500;8;0;5
501;8;0;5
502;8;0;5
503;8;0;5
504;7;0;5
505;8;0;5
506;8;0;5
507;8;0;5
508;8;0;5
509;8;0;5
510;8;0;5
511;8;0;5
512;8;0;5
513;8;0;5
514;8;0;5
515;8;0;5
516;8;0;5
517;8;0;5
518;8;0;5
519;8;0;5
520;8;0;5
521;8;0;5
522;8;0;5
523;7;0;5
524;8;0;5
525;8;0;5
526;8;0;5
527;8;0;5
528;7;0;5
529;7;0;5
530;7;0;5
531;7;0;5
532;7;0;5
533;7;0;5
534;7;0;5
535;7;0;5
536;8;0;5
537;8;0;5
538;8;0;5
539;8;0;5
540;8;0;5
541;8;0;5
542;8;0;5
543;8;0;5
544;7;0;5
545;8;0;5
546;8;0;5
547;8;0;5
548;8;0;5
549;7;0;5
550;7;0;5
551;8;0;5
552;7;0;5
553;7;0;5
554;7;0;5
555;7;0;5
556;8;0;5
557;7;0;5
558;8;0;5
559;7;0;5
560;7;0;5
561;7;0;5
562;7;0;5
563;7;0;5
564;7;0;5
565;7;0;5
566;7;0;5
567;7;0;5
568;7;0;5
569;7;0;5
570;7;0;5
571;7;0;5
572;7;0;5
573;7;0;5
574;7;0;5
575;7;0;5
576;7;0;5
577;7;0;5
578;7;0;5
579;7;0;5
580;7;0;5
581;7;0;5
582;6;0;5
583;6;0;5
584;6;0;5
585;7;0;5
586;6;0;5
587;7;0;5
588;7;0;5
589;7;0;5
590;7;0;5
591;7;0;5
592;7;0;5
593;7;0;5
594;7;0;5
595;7;0;5
596;7;0;5
597;7;0;5
598;7;0;5
599;7;0;5
600;7;0;5
601;7;0;5
602;7;0;5
603;7;0;5
604;7;0;5
605;7;0;5
606;7;0;5
607;7;0;5
608;7;0;5
609;7;0;5
610;7;0;5
611;7;0;5
612;7;0;5
613;7;0;5
614;7;0;5
615;7;0;5
616;7;0;5
617;7;0;5
618;7;0;5
619;7;0;5
620;7;0;5
621;7;0;5
622;7;0;5
623;8;0;5
624;7;0;5
625;7;0;5
626;8;0;5
627;8;0;5
628;7;0;5
629;7;0;5
630;7;0;5
631;7;0;5
632;7;0;5
633;7;0;5
634;7;0;5
635;8;0;5
636;8;0;5
637;8;0;5
638;7;0;5
639;8;0;5
640;8;0;5
641;7;0;5
642;7;0;5
643;7;0;5
644;7;0;5
645;7;0;5
646;7;0;5
647;8;0;5
648;7;0;5
649;8;0;5
650;8;0;5
651;8;0;5
652;8;0;5
653;8;0;5
654;8;0;5
655;8;0;5
656;8;0;5
657;8;0;5
658;8;0;5
659;8;0;5
660;8;0;5
661;8;0;5
662;8;0;5
663;8;0;5
664;8;0;5
665;8;0;5
666;8;0;5
667;8;0;5
668;8;0;5
669;8;0;5
670;8;0;5
671;8;0;5
672;8;0;5
673;8;0;5
674;8;0;5
675;8;0;5
676;8;0;5
677;8;0;5
678;8;0;5
679;8;0;5
680;8;0;5
681;8;0;5
682;8;0;5
683;8;0;5
684;8;0;5
685;8;0;5
686;8;0;5
687;8;0;5
688;8;0;5
689;8;0;5
690;8;0;5
691;8;0;5
692;8;0;5
693;8;0;5
694;8;0;5
695;8;0;5
696;8;0;5
697;7;0;5
698;7;0;5
699;6;0;5
700;6;0;5
701;6;0;5
702;6;0;5
703;6;0;5
704;6;0;5
705;6;0;5
706;6;0;5
707;6;0;5
708;6;0;5
709;6;0;5
710;6;0;5
711;6;0;5
712;6;0;5
713;6;0;5
714;6;0;5
715;6;0;5
716;6;0;5
717;6;0;5
718;6;0;5
719;6;0;5
720;6;0;5
721;6;0;5
722;6;0;5
723;6;0;5
724;6;0;5
725;6;0;5
726;6;0;5
727;6;0;5
728;6;0;5
729;6;0;5
730;6;0;5
731;6;0;5
732;6;0;5
733;6;0;5
734;6;0;5
735;6;0;5
736;6;0;5
737;6;0;5
738;6;0;5
739;6;0;5
740;6;0;5
741;6;0;5
742;6;0;5
743;6;0;5
744;6;0;5
745;6;0;5
746;6;0;5
747;6;0;5
748;6;0;5
749;6;0;5
750;6;0;5
751;6;0;5
752;6;0;5
753;6;0;5
754;6;0;5
755;6;0;5
756;6;0;5
757;6;0;5
758;6;0;5
759;6;0;5
760;6;0;5
761;6;0;5
762;6;0;5
763;6;0;5
764;6;0;5
765;6;0;5
766;6;0;5
767;6;0;5
768;6;0;5
769;6;0;5
770;6;0;5
771;6;0;5
772;6;0;5
773;6;0;5
774;6;0;5
775;6;0;5
776;6;0;5
777;6;0;5
778;6;0;5
779;6;0;5
780;6;0;5
781;6;0;5
782;6;0;5
783;6;0;5
784;6;0;5
785;5;0;5
786;6;0;5
787;5;0;5
788;5;0;5
789;5;0;5
790;5;0;5
791;5;0;5
792;5;0;5
793;5;0;5
794;5;0;5
795;5;0;5
796;5;0;5
797;5;0;5
798;5;0;5
799;5;0;5
800;5;0;5
801;5;0;5
802;5;0;5
803;5;0;5
804;6;0;5
805;6;0;5
806;6;0;5
807;5;0;5
808;6;0;5
809;6;0;5
810;7;0;5
811;6;0;5
812;5;0;5
813;6;0;5
814;5;0;5
815;6;0;5
816;6;0;5
817;5;0;5
818;5;0;5
819;5;0;5
820;5;0;5
821;6;0;5
822;7;0;5
823;7;0;5
824;7;0;5
825;8;0;5
826;7;0;5
827;7;0;5
828;7;0;5
829;10;0;5
830;10;0;5
831;9;0;5
832;10;0;5
833;9;0;5
834;9;0;5
835;9;0;5
836;10;0;5
837;8;0;5
838;8;0;5
839;8;0;5
840;8;0;5
841;8;0;5
842;8;0;5
843;7;0;5
844;8;0;5
845;9;0;5
846;10;0;5
847;9;0;5
848;10;0;5
849;10;0;5
850;9;0;5
851;10;0;5
852;10;0;5
853;10;0;5
854;10;0;5
855;9;0;5
856;10;0;5
857;9;0;5
858;9;0;5
859;9;0;5
860;10;0;5
861;9;0;5
862;10;0;5
863;9;0;5
864;10;0;5
865;10;0;5
866;10;0;5
867;10;0;5
868;10;0;5
869;11;0;5
870;11;0;5
871;11;0;5
872;11;0;5
873;10;0;5
874;11;0;5
875;12;0;5
876;10;0;5
877;12;0;5
878;12;0;5
879;12;0;5
880;12;0;5
881;12;0;5
882;11;0;5
883;11;0;5
884;10;0;5
885;11;0;5
886;12;0;5
887;10;0;5
888;11;0;5
889;11;0;5
890;11;0;5
891;11;0;5
892;12;0;5
893;11;0;5
894;12;0;5
895;12;0;5
896;12;0;5
897;13;0;5
898;11;0;5
899;12;0;5
900;12;0;5
901;12;0;5
902;12;0;5
903;12;0;5
904;12;0;5
905;12;0;5
906;12;0;5
907;12;0;5
908;12;0;5
909;12;0;5
910;12;0;5
911;12;0;5
912;13;0;5
913;12;0;5
914;13;0;5
915;12;0;5
916;12;0;5
917;12;0;5
918;13;0;5
919;13;0;5
920;13;0;5
921;12;0;5
922;13;0;5
923;13;0;5
924;13;0;5
925;12;0;5
926;12;0;5
927;12;0;5
928;13;0;5
929;13;0;5
930;12;0;5
931;13;0;5
932;14;0;5
933;13;0;5
934;15;0;5
935;14;0;5
936;14;0;5
937;14;0;5
938;14;0;5
939;14;0;5
940;15;0;5
941;14;0;5
942;13;0;5
943;13;0;5
944;14;0;5
945;14;0;5
946;14;0;5
947;14;0;5
948;13;0;5
949;13;0;5
950;14;0;5
951;14;0;5
952;14;0;5
953;14;0;5
954;14;0;5
955;14;0;5
956;14;0;5
957;15;0;5
958;14;0;5
959;13;0;5
960;14;0;5
961;13;0;5
962;14;0;5
963;13;0;5
964;13;0;5
965;13;0;5
966;13;0;5
967;13;0;5
968;14;0;5
969;15;0;5
970;15;0;5
971;14;0;5
972;15;0;5
973;14;0;5
974;14;0;5
975;14;0;5
976;14;0;5
977;14;0;5
978;14;0;5
979;15;0;5
980;14;0;5
981;15;0;5
982;14;0;5
983;14;0;5
984;13;0;5
985;14;0;5
986;14;0;5
987;14;0;5
988;14;0;5
989;14;0;5
990;14;0;5
991;14;0;5
992;14;0;5
993;14;0;5
994;14;0;5
995;14;0;5
996;14;0;5
997;15;0;5
998;15;0;5
999;15;0;5
1000;15;0;5
1001;15;0;5
1002;15;0;5
1003;15;0;5
1004;15;0;5
1005;15;0;5
1006;15;0;5
1007;15;0;5
1008;15;0;5
1009;15;0;5
1010;15;0;5
1011;15;0;5
1012;15;0;5
1013;15;0;5
1014;15;0;5
1015;15;0;5
1016;16;0;5
1017;15;0;5
1018;15;0;5
1019;16;0;5
1020;16;0;5
1021;16;0;5
1022;15;0;5
1023;17;0;5
1024;17;0;5
1025;17;0;5
1026;16;0;5
1027;16;0;5
1028;17;0;5
1029;17;0;5
1030;17;0;5
1031;17;0;5
1032;17;0;5
1033;15;0;5
1034;16;0;5
1035;18;0;5
1036;17;0;5
1037;17;0;5
1038;17;0;5
1039;17;0;5
1040;17;0;5
1041;17;0;5
1042;18;0;5
1043;17;0;5
1044;17;0;5
1045;17;0;5
1046;18;0;5
1047;18;0;5
1048;17;0;5
1049;18;0;5
1050;18;0;5
1051;19;0;5
1052;18;0;5
1053;18;0;5
1054;18;0;5
1055;18;0;5
1056;18;0;5
1057;18;0;5
1058;18;0;5
1059;18;0;5
1060;18;0;5
1061;18;0;5
1062;18;0;5
1063;18;0;5
1064;18;0;5
1065;19;0;5
1066;18;0;5
1067;19;0;5
1068;19;0;5
1069;18;0;5
1070;18;0;5
1071;20;0;5
1072;19;0;5
1073;18;0;5
1074;20;0;5
1075;20;0;5
1076;19;0;5
1077;19;0;5
1078;20;0;5
1079;20;0;5
1080;19;0;5
1081;19;0;5
1082;19;0;5
1083;20;0;5
1084;20;0;5
1085;20;0;5
1086;20;0;5
1087;20;0;5
1088;20;0;5
1089;19;0;5
1090;19;0;5
1091;19;0;5
1092;20;0;5
1093;20;0;5
1094;20;0;5
1095;20;0;5
1096;20;0;5
1097;20;0;5
1098;20;0;5
1099;20;0;5
1100;19;0;5
1101;20;0;5
1102;20;0;5
1103;20;0;5
1104;20;0;5
1105;20;0;5
1106;20;0;5
1107;20;0;5
1108;20;0;5
1109;20;0;5
1110;20;0;5
1111;20;0;5
1112;20;0;5
1113;19;0;5
1114;20;0;5
1115;19;0;5
1116;20;0;5
1117;20;0;5
1118;18;0;5
1119;19;0;5
1120;20;0;5
1121;20;0;5
1122;20;0;5
1123;19;0;5
1124;19;0;5
1125;19;0;5
1126;18;0;5
1127;19;0;5
1128;19;0;5
1129;19;0;5
1130;18;0;5
1131;19;0;5
1132;20;0;5
1133;19;0;5
1134;20;0;5
1135;20;0;5
1136;19;0;5
1137;20;0;5
1138;20;0;5
1139;20;0;5
1140;20;0;5
1141;19;0;5
1142;20;0;5
1143;20;0;5
1144;20;0;5
1145;20;0;5
1146;20;0;5
1147;19;0;5
1148;20;0;5
1149;21;0;5
1150;20;0;5
1151;20;0;5
1152;20;0;5
1153;20;0;5
1154;20;0;5
1155;20;0;5
1156;20;0;5
1157;19;0;5
1158;21;0;5
1159;21;0;5
1160;21;0;5
1161;21;0;5
1162;20;0;5
1163;21;0;5
1164;21;0;5
1165;20;0;5
1166;20;0;5
1167;20;0;5
1168;20;0;5
1169;20;0;5
1170;19;0;5
1171;20;0;5
1172;20;0;5
1173;20;0;5
1174;20;0;5
1175;20;0;5
1176;20;0;5
1177;20;0;5
1178;20;0;5
1179;20;0;5
1180;20;0;5
1181;20;0;5
1182;19;0;5
1183;20;0;5
1184;20;0;5
1185;19;0;5
1186;19;0;5
1187;19;0;5
1188;19;0;5
1189;19;0;5
1190;20;0;5
1191;20;0;5
1192;19;0;5
1193;20;0;5
1194;20;0;5
1195;19;0;5
1196;20;0;5
1197;20;0;5
1198;20;0;5
1199;20;0;5
1200;20;0;5
1201;20;0;5
1202;20;0;5
1203;21;0;5
1204;20;0;5
1205;20;0;5
1206;20;0;5
1207;20;0;5
1208;20;0;5
1209;20;0;5
1210;20;0;5
1211;20;0;5
1212;20;0;5
1213;20;0;5
1214;20;0;5
1215;20;0;5
1216;20;0;5
1217;20;0;5
1218;20;0;5
1219;19;0;5
1220;19;0;5
1221;19;0;5
1222;19;0;5
1223;19;0;5
1224;19;0;5
1225;19;0;5
1226;19;0;5
1227;19;0;5
1228;19;0;5
1229;19;0;5
1230;20;0;5
1231;19;0;5
1232;19;0;5
1233;19;0;5
1234;19;0;5
1235;19;0;5
1236;19;0;5
1237;19;0;5
1238;19;0;5
1239;19;0;5
1240;20;0;5
1241;20;0;5
1242;21;0;5
1243;19;0;5
1244;21;0;5
1245;20;0;5
1246;19;0;5
1247;20;0;5
1248;20;0;5
1249;20;0;5
1250;20;0;5
1251;21;0;5
1252;21;0;5
1253;21;0;5
1254;21;0;5
1255;21;0;5
1256;21;0;5
1257;20;0;5
1258;21;0;5
1259;22;0;5
1260;21;0;5
1261;21;0;5
1262;21;0;5
1263;21;0;5
1264;21;0;5
1265;22;0;5
1266;21;0;5
1267;21;0;5
1268;21;0;5
1269;21;0;5
1270;21;0;5
1271;21;0;5
1272;22;0;5
1273;21;0;5
1274;21;0;5
1275;22;0;5
1276;21;0;5
1277;21;0;5
1278;21;0;5
1279;21;0;5
1280;21;0;5
1281;22;0;5
1282;22;0;5
1283;22;0;5
1284;22;0;5
1285;22;0;5
1286;22;0;5
1287;22;0;5
1288;22;0;5
1289;22;0;5
1290;22;0;5
1291;21;0;5
1292;22;0;5
1293;22;0;5
1294;21;0;5
1295;22;0;5
1296;22;0;5
1297;22;0;5
1298;22;0;5
1299;22;0;5
1300;22;0;5
1301;22;0;5
1302;22;0;5
1303;22;0;5
1304;22;0;5
1305;22;0;5
1306;22;0;5
1307;21;0;5
1308;22;0;5
1309;22;0;5
1310;22;0;5
1311;22;0;5
1312;22;0;5
1313;22;0;5
1314;22;0;5
1315;22;0;5
1316;22;0;5
1317;21;0;5
1318;22;0;5
1319;22;0;5
1320;22;0;5
1321;22;0;5
1322;22;0;5
1323;22;0;5
1324;22;0;5
1325;22;0;5
1326;22;0;5
1327;22;0;5
1328;22;0;5
1329;22;0;5
1330;22;0;5
1331;22;0;5
1332;22;0;5
1333;22;0;5
1334;22;0;5
1335;22;0;5
1336;22;0;5
1337;22;0;5
1338;22;0;5
1339;22;0;5
1340;22;0;5
1341;22;0;5
1342;23;0;5
1343;23;0;5
1344;24;0;5
1345;23;0;5
1346;23;0;5
1347;24;0;5
1348;23;0;5
1349;23;0;5
1350;24;0;5
1351;23;0;5
1352;24;0;5
1353;25;0;5
1354;25;0;5
1355;25;0;5
1356;25;0;5
1357;25;0;5
1358;25;0;5
1359;23;0;5
1360;24;0;5
1361;25;0;5
1362;25;0;5
1363;25;0;5
1364;26;0;5
1365;25;0;5
1366;24;0;5
1367;25;0;5
1368;25;0;5
1369;26;0;5
1370;26;0;5
1371;26;0;5
1372;26;0;5
1373;26;0;5
1374;26;0;5
1375;26;0;5
1376;26;0;5
1377;25;0;5
1378;26;0;5
1379;26;0;5
1380;26;0;5
1381;26;0;5
1382;26;0;5
1383;26;0;5
1384;26;0;5
1385;26;0;5
1386;26;0;5
1387;25;0;5
1388;25;0;5
1389;25;0;5
1390;25;0;5
1391;25;0;5
1392;25;0;5
1393;25;0;5
1394;25;0;5
1395;25;0;5
1396;25;0;5
1397;25;0;5
1398;24;0;5
1399;25;0;5
1400;24;0;5
1401;24;0;5
1402;24;0;5
1403;24;0;5
1404;25;0;5
1405;25;0;5
1406;25;0;5
1407;25;0;5
1408;24;0;5
1409;24;0;5
1410;24;0;5
1411;24;0;5
1412;25;0;5
1413;25;0;5
1414;25;0;5
1415;25;0;5
1416;25;0;5
1417;24;0;5
1418;24;0;5
1419;24;0;5
1420;24;0;5
1421;24;0;5
1422;24;0;5
1423;24;0;5
1424;24;0;5
1425;24;0;5
1426;24;0;5
1427;24;0;5
1428;24;0;5
1429;24;0;5
1430;24;0;5
1431;24;0;5
1432;24;0;5
1433;24;0;5
1434;24;0;5
1435;24;0;5
1436;24;0;5
1437;24;0;5
1438;24;0;5
1439;24;0;5
1440;24;0;5
1441;24;0;5
1442;26;0;5
1443;25;0;5
1444;25;0;5
1445;25;0;5
1446;25;0;5
1447;25;0;5
1448;25;0;5
1449;25;0;5
1450;25;0;5
1451;25;0;5
1452;26;0;5
1453;26;0;5
1454;26;0;5
1455;26;0;5
1456;27;0;5
1457;27;0;5
1458;25;0;5
1459;25;0;5
1460;25;0;5
1461;25;0;5
1462;27;0;5
1463;26;0;5
1464;26;0;5
1465;26;0;5
1466;26;0;5
1467;26;0;5
1468;26;0;5
1469;27;0;5
1470;26;0;5
1471;27;0;5
1472;26;0;5
1473;26;0;5
1474;26;0;5
1475;26;0;5
1476;27;0;5
1477;26;0;5
1478;26;0;5
1479;26;0;5
1480;28;0;5
1481;27;0;5
1482;28;0;5
1483;28;0;5
1484;27;0;5
1485;28;0;5
1486;28;0;5
1487;28;0;5
1488;27;0;5
1489;27;0;5
1490;28;0;5
1491;27;0;5
1492;27;0;5
1493;28;0;5
1494;28;0;5
1495;28;0;5
1496;28;0;5
1497;28;0;5
1498;28;0;5
1499;28;0;5
1500;28;0;5
1501;28;0;5
1502;28;0;5
1503;29;0;5
1504;29;0;5
1505;29;0;5
1506;29;0;5
1507;29;0;5
1508;29;0;5
1509;28;0;5
1510;29;0;5
1511;29;0;5
1512;29;0;5
1513;29;0;5
1514;28;0;5
1515;28;0;5
1516;30;0;5
1517;29;0;5
1518;29;0;5
1519;29;0;5
1520;29;0;5
1521;29;0;5
1522;29;0;5
1523;29;0;5
1524;29;0;5
1525;29;0;5
1526;30;0;5
1527;29;0;5
1528;30;0;5
1529;30;0;5
1530;31;0;5
1531;30;0;5
1532;30;0;5
1533;31;0;5
1534;31;0;5
1535;31;0;5
1536;31;0;5
1537;31;0;5
1538;31;0;5
1539;31;0;5
1540;30;0;5
1541;30;0;5
1542;31;0;5
1543;31;0;5
1544;31;0;5
1545;30;0;5
1546;30;0;5
1547;30;0;5
1548;30;0;5
1549;30;0;5
1550;30;0;5
1551;31;0;5
1552;30;0;5
1553;30;0;5
1554;32;0;5
1555;32;0;5
1556;31;0;5
1557;31;0;5
1558;31;0;5
1559;31;0;5
1560;31;0;5
1561;31;0;5
1562;31;0;5
1563;31;0;5
1564;31;0;5
1565;31;0;5
1566;31;0;5
1567;31;0;5
1568;31;0;5
1569;31;0;5
1570;31;0;5
1571;32;0;5
1572;32;0;5
1573;32;0;5
1574;31;0;5
1575;32;0;5
1576;32;0;5
1577;32;0;5
1578;31;0;5
1579;31;0;5
1580;32;0;5
1581;32;0;5
1582;31;0;5
1583;32;0;5
1584;32;0;5
1585;32;0;5
1586;32;0;5
1587;32;0;5
1588;32;0;5
1589;31;0;5
1590;31;0;5
1591;31;0;5
1592;31;0;5
1593;31;0;5
1594;30;0;5
1595;30;0;5
1596;30;0;5
1597;30;0;5
1598;30;0;5
1599;29;0;5
1600;29;0;5
1601;29;0;5
1602;29;0;5
1603;29;0;5
1604;29;0;5
1605;29;0;5
1606;29;0;5
1607;29;0;5
1608;30;0;5
1609;30;0;5
1610;30;0;5
1611;30;0;5
1612;30;0;5
1613;30;0;5
1614;30;0;5
1615;29;0;5
1616;29;0;5
1617;30;0;5
1618;30;0;5
1619;30;0;5
1620;29;0;5
1621;30;0;5
1622;30;0;5
1623;29;0;5
1624;30;0;5
1625;29;0;5
1626;30;0;5
1627;30;0;5
1628;30;0;5
1629;30;0;5
1630;30;0;5
1631;30;0;5
1632;30;0;5
1633;30;0;5
1634;30;0;5
1635;30;0;5
1636;30;0;5
1637;30;0;5
1638;30;0;5
1639;30;0;5
1640;30;0;5
1641;30;0;5
1642;29;0;5
1643;30;0;5
1644;30;0;5
1645;30;0;5
1646;30;0;5
1647;30;0;5
1648;30;0;5
1649;30;0;5
1650;30;0;5
1651;30;0;5
1652;30;0;5
1653;30;0;5
1654;30;0;5
1655;29;0;5
1656;28;0;5
1657;28;0;5
1658;28;0;5
1659;28;0;5
1660;28;0;5
1661;28;0;5
1662;28;0;5
1663;27;0;5
1664;27;0;5
1665;27;0;5
1666;27;0;5
1667;27;0;5
1668;27;0;5
1669;27;0;5
1670;27;0;5
1671;27;0;5
1672;27;0;5
1673;27;0;5
1674;27;0;5
1675;27;0;5
1676;27;0;5
1677;27;0;5
1678;27;0;5
1679;27;0;5
1680;27;0;5
1681;27;0;5
1682;27;0;5
1683;27;0;5
1684;27;0;5
1685;27;0;5
1686;27;0;5
1687;27;0;5
1688;27;0;5
1689;27;0;5
1690;27;0;5
1691;27;0;5
1692;28;0;5
1693;28;0;5
1694;28;0;5
1695;28;0;5
1696;28;0;5
1697;28;0;5
1698;28;0;5
1699;28;0;5
1700;28;0;5
1701;28;0;5
1702;28;0;5
1703;28;0;5
1704;28;0;5
1705;28;0;5
1706;28;0;5
1707;28;0;5
1708;28;0;5
1709;28;0;5
1710;28;0;5
1711;28;0;5
1712;28;0;5
1713;28;0;5
1714;28;0;5
1715;28;0;5
1716;28;0;5
1717;28;0;5
1718;28;0;5
1719;28;0;5
1720;28;0;5
1721;28;0;5
1722;28;0;5
1723;28;0;5
1724;28;0;5
1725;28;0;5
1726;28;0;5
1727;28;0;5
1728;28;0;5
1729;28;0;5
1730;28;0;5
1731;28;0;5
1732;28;0;5
1733;27;0;5
1734;27;0;5
1735;27;0;5
1736;28;0;5
1737;28;0;5
1738;27;0;5
1739;28;0;5
1740;28;0;5
1741;28;0;5
1742;28;0;5
1743;28;0;5
1744;28;0;5
1745;28;0;5
1746;28;0;5
1747;28;0;5
1748;28;0;5
1749;28;0;5
1750;28;0;5
1751;28;0;5
1752;28;0;5
1753;28;0;5
1754;28;0;5
1755;28;0;5
1756;28;0;5
1757;28;0;5
1758;28;0;5
1759;28;0;5
1760;28;0;5
1761;28;0;5
1762;28;0;5
1763;28;0;5
1764;28;0;5
1765;28;0;5
1766;28;0;5
1767;28;0;5
1768;28;0;5
1769;28;0;5
1770;28;0;5
1771;28;0;5
1772;28;0;5
1773;28;0;5
1774;28;0;5
1775;28;0;5
1776;28;0;5
1777;28;0;5
1778;28;0;5
1779;28;0;5
1780;28;0;5
1781;28;0;5
1782;28;0;5
1783;29;0;5
1784;29;0;5
1785;29;0;5
1786;28;0;5
1787;29;0;5
1788;28;0;5
1789;30;0;5
1790;29;0;5
1791;28;0;5
1792;28;0;5
1793;28;0;5
1794;29;0;5
1795;29;0;5
1796;29;0;5
1797;29;0;5
1798;30;0;5
1799;29;0;5
1800;29;0;5
1801;29;0;5
1802;30;0;5
1803;30;0;5
1804;30;0;5
1805;30;0;5
1806;29;0;5
1807;29;0;5
1808;30;0;5
1809;30;0;5
1810;29;0;5
1811;28;0;5
1812;28;0;5
1813;30;0;5
1814;29;0;5
1815;30;0;5
1816;29;0;5
1817;30;0;5
1818;29;0;5
1819;30;0;5
1820;31;0;5
1821;30;0;5
1822;30;0;5
1823;31;0;5
1824;31;0;5
1825;30;0;5
1826;29;0;5
1827;30;0;5
1828;29;0;5
1829;29;0;5
1830;30;0;5
1831;29;0;5
1832;30;0;5
1833;29;0;5
1834;31;0;5
1835;30;0;5
1836;29;0;5
1837;30;0;5
1838;31;0;5
1839;31;0;5
1840;30;0;5
1841;30;0;5
1842;31;0;5
1843;31;0;5
1844;31;0;5
1845;30;0;5
1846;30;0;5
1847;31;0;5
1848;30;0;5
1849;30;0;5
1850;29;0;5
1851;31;0;5
1852;30;0;5
1853;29;0;5
1854;30;0;5
1855;30;0;5
1856;30;0;5
1857;30;0;5
1858;30;0;5
1859;30;0;5
1860;31;0;5
1861;31;0;5
1862;30;0;5
1863;30;0;5
1864;30;0;5
1865;30;0;5
1866;31;0;5
1867;31;0;5
1868;31;0;5
1869;31;0;5
1870;31;0;5
1871;31;0;5
1872;31;0;5
1873;32;0;5
1874;31;0;5
1875;31;0;5
1876;31;0;5
1877;30;0;5
1878;29;0;5
1879;31;0;5
1880;31;0;5
1881;31;0;5
1882;31;0;5
1883;31;0;5
1884;31;0;5
1885;31;0;5
1886;31;0;5
1887;31;0;5
1888;31;0;5
1889;31;0;5
1890;31;0;5
1891;30;0;5
1892;31;0;5
1893;31;0;5
1894;31;0;5
1895;30;0;5
1896;31;0;5
1897;31;0;5
1898;31;0;5
1899;31;0;5
1900;31;0;5
1901;31;0;5
1902;31;0;5
1903;31;0;5
1904;30;0;5
1905;31;0;5
1906;31;0;5
1907;31;0;5
1908;31;0;5
1909;31;0;5
1910;31;0;5
1911;31;0;5
1912;31;0;5
1913;31;0;5
1914;31;0;5
1915;30;0;5
1916;31;0;5
1917;31;0;5
1918;31;0;5
1919;31;0;5
1920;31;0;5
1921;31;0;5
1922;31;0;5
1923;31;0;5
1924;31;0;5
1925;31;0;5
1926;31;0;5
1927;31;0;5
1928;31;0;5
1929;31;0;5
1930;31;0;5
1931;32;0;5
1932;32;0;5
1933;31;0;5
1934;30;0;5
1935;31;0;5
1936;31;0;5
1937;31;0;5
1938;31;0;5
1939;32;0;5
1940;31;0;5
1941;32;0;5
1942;31;0;5
1943;32;0;5
1944;32;0;5
1945;32;0;5
1946;32;0;5
1947;32;0;5
1948;32;0;5
1949;32;0;5
1950;31;0;5
1951;32;0;5
1952;32;0;5
1953;32;0;5
1954;32;0;5
1955;31;0;5
1956;32;0;5
1957;31;0;5
1958;31;0;5
1959;31;0;5
1960;32;0;5
1961;32;0;5
1962;32;0;5
1963;32;0;5
1964;31;0;5
1965;32;0;5
1966;33;0;5
1967;32;0;5
1968;33;0;5
1969;33;0;5
1970;33;0;5
1971;33;0;5
1972;33;0;5
1973;33;0;5
1974;33;0;5
1975;33;0;5
1976;33;0;5
1977;33;0;5
1978;33;0;5
1979;33;0;5
1980;33;0;5
1981;33;0;5
1982;33;0;5
1983;33;0;5
1984;33;0;5
1985;32;0;5
1986;32;0;5
1987;32;0;5
1988;32;0;5
1989;32;0;5
1990;32;0;5
1991;31;0;5
1992;31;0;5
1993;31;0;5
1994;31;0;5
1995;31;0;5
1996;31;0;5
1997;31;0;5
1998;31;0;5
1999;31;0;5
2000;31;0;5
2001;31;0;5
2002;31;0;5
2003;31;0;5
2004;31;0;5
2005;31;0;5
2006;31;0;5
2007;31;0;5
2008;31;0;5
2009;31;0;5
2010;30;0;5
2011;30;0;5
2012;30;0;5
2013;30;0;5
2014;30;0;5
2015;30;0;5
2016;30;0;5
2017;30;0;5
2018;30;0;5
2019;30;0;5
2020;30;0;5
2021;30;0;5
2022;30;0;5
2023;30;0;5
2024;30;0;5
2025;30;0;5
2026;30;0;5
2027;31;0;5
2028;31;0;5
2029;31;0;5
2030;31;0;5
2031;31;0;5
2032;31;0;5
2033;31;0;5
2034;31;0;5
2035;31;0;5
2036;31;0;5
2037;31;0;5
2038;31;0;5
2039;32;0;5
2040;32;0;5
2041;32;0;5
2042;32;0;5
2043;31;0;5
2044;31;0;5
2045;32;0;5
2046;32;0;5
2047;32;0;5
2048;32;0;5
2049;32;0;5
2050;32;0;5
2051;31;0;5
2052;32;0;5
2053;31;0;5
2054;32;0;5
2055;32;0;5
2056;31;0;5
2057;31;0;5
2058;31;0;5
2059;31;0;5
2060;31;0;5
2061;31;0;5
2062;31;0;5
2063;31;0;5
2064;31;0;5
2065;31;0;5
2066;32;0;5
2067;32;0;5
2068;32;0;5
2069;32;0;5
2070;32;0;5
2071;32;0;5
2072;32;0;5
2073;32;0;5
2074;32;0;5
2075;32;0;5
2076;32;0;5
2077;32;0;5
2078;32;0;5
2079;32;0;5
2080;32;0;5
2081;32;0;5
2082;32;0;5
2083;32;0;5
2084;32;0;5
2085;32;0;5
2086;32;0;5
2087;32;0;5
2088;32;0;5
2089;32;0;5
2090;32;0;5
2091;32;0;5
2092;32;0;5
2093;32;0;5
2094;32;0;5
2095;32;0;5
2096;32;0;5
2097;32;0;5
2098;32;0;5
2099;32;0;5
2100;32;0;5
2101;32;0;5
2102;32;0;5
2103;32;0;5
2104;32;0;5
2105;32;0;5
2106;32;0;5
2107;32;0;5
2108;32;0;5
2109;32;0;5
2110;32;0;5
2111;32;0;5
2112;32;0;5
2113;32;0;5
2114;32;0;5
2115;32;0;5
2116;32;0;5
2117;32;0;5
2118;33;0;5
2119;32;0;5
2120;32;0;5
2121;32;0;5
2122;32;0;5
2123;32;0;5
2124;32;0;5
2125;32;0;5
2126;32;0;5
2127;32;0;5
2128;32;0;5
2129;32;0;5
2130;32;0;5
2131;32;0;5
2132;32;0;5
2133;32;0;5
2134;32;0;5
2135;33;0;5
2136;33;0;5
2137;32;0;5
2138;32;0;5
2139;32;0;5
2140;31;0;5
2141;31;0;5
2142;31;0;5
2143;31;0;5
2144;31;0;5
2145;31;0;5
2146;32;0;5
2147;32;0;5
2148;32;0;5
2149;32;0;5
2150;32;0;5
2151;31;0;5
2152;31;0;5
2153;31;0;5
2154;32;0;5
2155;31;0;5
2156;31;0;5
2157;31;0;5
2158;31;0;5
2159;31;0;5
2160;31;0;5
2161;32;0;5
2162;31;0;5
2163;31;0;5
2164;32;0;5
2165;31;0;5
2166;31;0;5
2167;31;0;5
2168;31;0;5
2169;31;0;5
2170;31;0;5
2171;31;0;5
2172;32;0;5
2173;31;0;5
2174;32;0;5
2175;32;0;5
2176;32;0;5
2177;32;0;5
2178;32;0;5
2179;32;0;5
2180;32;0;5
2181;32;0;5
2182;32;0;5
2183;32;0;5
2184;32;0;5
2185;32;0;5
2186;32;0;5
2187;32;0;5
2188;32;0;5
2189;32;0;5
2190;32;0;5
2191;32;0;5
2192;32;0;5
2193;32;0;5
2194;32;0;5
2195;32;0;5
2196;32;0;5
2197;32;0;5
2198;32;0;5
2199;32;0;5
2200;32;0;5
2201;32;0;5
2202;32;0;5
2203;32;0;5
2204;32;0;5
2205;32;0;5
2206;32;0;5
2207;32;0;5
2208;32;0;5
2209;32;0;5
2210;32;0;5
2211;32;0;5
2212;32;0;5
2213;32;0;5
2214;32;0;5
2215;32;0;5
2216;32;0;5
2217;32;0;5
2218;32;0;5
2219;32;0;5
2220;32;0;5
2221;32;0;5
2222;32;0;5
2223;32;0;5
2224;32;0;5
2225;32;0;5
2226;32;0;5
2227;32;0;5
2228;32;0;5
2229;32;0;5
2230;32;0;5
2231;32;0;5
2232;32;0;5
2233;32;0;5
2234;32;0;5
2235;32;0;5
2236;31;0;5
2237;31;0;5
2238;31;0;5
2239;31;0;5
2240;31;0;5
2241;31;0;5
2242;31;0;5
2243;31;0;5
2244;31;0;5
2245;31;0;5
2246;31;0;5
2247;31;0;5
2248;31;0;5
2249;31;0;5
2250;31;0;5
2251;31;0;5
2252;31;0;5
2253;31;0;5
2254;31;0;5
2255;31;0;5
2256;31;0;5
2257;31;0;5
2258;31;0;5
2259;31;0;5
2260;31;0;5
2261;31;0;5
2262;31;0;5
2263;31;0;5
2264;31;0;5
2265;31;0;5
2266;31;0;5
2267;31;0;5
2268;31;0;5
2269;31;0;5
2270;31;0;5
2271;31;0;5
2272;31;0;5
2273;31;0;5
2274;31;0;5
2275;31;0;5
2276;31;0;5
2277;31;0;5
2278;31;0;5
2279;31;0;5
2280;31;0;5
2281;31;0;5
2282;31;0;5
2283;31;0;5
2284;31;0;5
2285;31;0;5
2286;31;0;5
2287;31;0;5
2288;31;0;5
2289;31;0;5
2290;31;0;5
2291;31;0;5
2292;31;0;5
2293;31;0;5
2294;31;0;5
2295;31;0;5
2296;31;0;5
2297;31;0;5
2298;31;0;5
2299;31;0;5
2300;31;0;5
2301;32;0;5
2302;31;0;5
2303;31;0;5
2304;31;0;5
2305;32;0;5
2306;33;0;5
2307;33;0;5
2308;33;0;5
2309;33;0;5
2310;33;0;5
2311;33;0;5
2312;33;0;5
2313;33;0;5
2314;33;0;5
2315;33;0;5
2316;33;0;5
2317;33;0;5
2318;33;0;5
2319;33;0;5
2320;32;0;5
2321;33;0;5
2322;33;0;5
2323;33;0;5
2324;33;0;5
2325;33;0;5
2326;33;0;5
2327;33;0;5
2328;33;0;5
2329;33;0;5
2330;33;0;5
2331;33;0;5
2332;33;0;5
2333;33;0;5
2334;33;0;5
2335;33;0;5
2336;33;0;5
2337;33;0;5
2338;33;0;5
2339;33;0;5
2340;33;0;5
2341;33;0;5
2342;33;0;5
2343;33;0;5
2344;33;0;5
2345;33;0;5
2346;33;0;5
2347;33;0;5
2348;33;0;5
2349;33;0;5
2350;33;0;5
2351;33;0;5
2352;33;0;5
2353;33;0;5
2354;33;0;5
2355;33;0;5
2356;33;0;5
2357;33;0;5
2358;33;0;5
2359;34;0;5
2360;34;0;5
2361;34;0;5
2362;34;0;5
2363;34;0;5
2364;34;0;5
2365;35;0;5
2366;35;0;5
2367;34;0;5
2368;34;0;5
2369;34;0;5
2370;35;0;5
2371;34;0;5
2372;35;0;5
2373;34;0;5
2374;35;0;5
2375;35;0;5
2376;35;0;5
2377;35;0;5
2378;35;0;5
2379;35;0;5
2380;36;0;5
2381;36;0;5
2382;36;0;5
2383;36;0;5
2384;36;0;5
2385;36;0;5
2386;36;0;5
2387;36;0;5
2388;37;0;5
2389;37;0;5
2390;37;0;5
2391;37;0;5
2392;37;0;5
2393;37;0;5
2394;37;0;5
2395;37;0;5
2396;36;0;5
2397;36;0;5
2398;36;0;5
2399;36;0;5
2400;36;0;5
2401;36;0;5
2402;36;0;5
2403;36;0;5
2404;36;0;5
2405;36;0;5
2406;36;0;5
2407;36;0;5
2408;36;0;5
2409;36;0;5
2410;36;0;5
2411;36;0;5
2412;36;0;5
2413;37;0;5
2414;37;0;5
2415;37;0;5
2416;36;0;5
2417;36;0;5
2418;36;0;5
2419;36;0;5
2420;36;0;5
2421;36;0;5
2422;36;0;5
2423;36;0;5
2424;36;0;5
2425;36;0;5
2426;36;0;5
2427;36;0;5
2428;36;0;5
2429;36;0;5
2430;36;0;5
2431;36;0;5
2432;36;0;5
2433;36;0;5
2434;36;0;5
2435;36;0;5
2436;36;0;5
2437;36;0;5
2438;36;0;5
2439;36;0;5
2440;36;0;5
2441;36;0;5
2442;36;0;5
2443;36;0;5
2444;36;0;5
2445;36;0;5
2446;35;0;5
2447;35;0;5
2448;35;0;5
2449;35;0;5
2450;35;0;5
2451;35;0;5
2452;35;0;5
2453;35;0;5
2454;35;0;5
2455;35;0;5
2456;35;0;5
2457;35;0;5
2458;35;0;5
2459;35;0;5
2460;35;0;5
2461;35;0;5
2462;35;0;5
2463;35;0;5
2464;35;0;5
2465;35;0;5
2466;35;0;5
2467;35;0;5
2468;35;0;5
2469;35;0;5
2470;35;0;5
2471;35;0;5
2472;36;0;5
2473;36;0;5
2474;36;0;5
2475;36;0;5
2476;35;0;5
2477;35;0;5
2478;36;0;5
2479;36;1;5
2480;36;0;5
2481;36;0;5
2482;36;0;5
2483;35;0;5
2484;35;0;5
2485;36;0;5
2486;35;0;5
2487;36;0;5
2488;35;0;5
2489;35;0;5
2490;36;0;5
2491;35;0;5
2492;35;0;5
2493;36;0;5
2494;35;0;5
2495;36;0;5
2496;36;0;5
2497;36;0;5
2498;36;0;5
2499;36;0;5
2500;35;0;5
2501;35;0;5
2502;35;0;5
2503;35;0;5
2504;35;0;5
2505;35;0;5
2506;35;0;5
2507;36;0;5
2508;36;0;5
2509;36;0;5
2510;36;0;5
2511;36;0;5
2512;36;0;5
2513;36;0;5
2514;37;0;5
2515;37;0;5
2516;37;0;5
2517;36;0;5
2518;37;0;5
2519;37;0;5
2520;37;0;5
2521;37;0;5
2522;37;0;5
2523;37;0;5
2524;37;0;5
2525;37;0;5
2526;37;0;5
2527;37;0;5
2528;37;0;5
2529;37;0;5
2530;37;0;5
2531;37;0;5
2532;37;0;5
2533;37;0;5
2534;37;0;5
2535;37;0;5
2536;37;0;5
2537;37;0;5
2538;37;0;5
2539;37;0;5
2540;37;0;5
2541;37;0;5
2542;37;0;5
2543;36;0;5
2544;36;0;5
2545;36;0;5
2546;36;0;5
2547;36;0;5
2548;36;0;5
2549;36;0;5
2550;36;0;5
2551;36;0;5
2552;36;0;5
2553;36;0;5
2554;37;0;5
2555;38;0;5
2556;37;0;5
2557;39;0;5
2558;38;0;5
2559;39;0;5
2560;39;0;5
2561;39;0;5
2562;39;0;5
2563;39;0;5
2564;38;0;5
2565;39;0;5
2566;39;0;5
2567;39;0;5
2568;39;0;5
2569;39;0;5
2570;39;0;5
2571;38;0;5
2572;39;0;5
2573;39;0;5
2574;39;0;5
2575;39;0;5
2576;39;0;5
2577;38;0;5
2578;39;0;5
2579;39;0;5
2580;38;0;5
2581;38;0;5
2582;38;0;5
2583;37;0;5
2584;38;0;5
2585;38;0;5
2586;38;0;5
2587;38;0;5
2588;38;0;5
2589;38;0;5
2590;38;0;5
2591;38;0;5
2592;38;0;5
2593;38;0;5
2594;38;0;5
2595;38;0;5
2596;38;0;5
2597;38;0;5
2598;37;0;5
2599;37;0;5
2600;37;0;5
2601;37;0;5
2602;37;0;5
2603;38;0;5
2604;38;0;5
2605;38;0;5
2606;38;0;5
2607;38;0;5
2608;38;0;5
2609;38;0;5
2610;38;0;5
2611;38;0;5
2612;38;0;5
2613;38;0;5
2614;38;0;5
2615;38;0;5
2616;38;0;5
2617;38;0;5
2618;38;0;5
2619;37;0;5
2620;37;0;5
2621;37;0;5
2622;37;0;5
2623;37;0;5
2624;37;0;5
2625;37;0;5
2626;37;0;5
2627;37;0;5
2628;37;0;5
2629;37;0;5
2630;37;0;5
2631;37;0;5
2632;37;0;5
2633;37;0;5
2634;37;0;5
2635;36;0;5
2636;36;0;5
2637;36;0;5
2638;36;0;5
2639;36;0;5
2640;36;0;5
2641;36;0;5
2642;36;0;5
2643;36;0;5
2644;36;0;5
2645;36;0;5
2646;36;0;5
2647;36;0;5
2648;36;0;5
2649;36;0;5
2650;36;0;5
2651;36;0;5
2652;35;0;5
2653;35;0;5
2654;36;0;5
2655;36;0;5
2656;36;0;5
2657;36;0;5
2658;36;0;5
2659;36;0;5
2660;36;0;5
2661;36;0;5
2662;36;0;5
2663;36;0;5
2664;36;0;5
2665;36;0;5
2666;36;0;5
2667;36;0;5
2668;36;0;5
2669;36;0;5
2670;36;0;5
2671;36;0;5
2672;36;0;5
2673;36;0;5
2674;36;0;5
2675;36;0;5
2676;36;0;5
2677;36;0;5
2678;36;0;5
2679;36;0;5
2680;37;0;5
2681;36;0;5
2682;36;0;5
2683;37;0;5
2684;37;0;5
2685;37;0;5
2686;37;0;5
2687;37;0;5
2688;37;0;5
2689;37;0;5
2690;37;0;5
2691;37;0;5
2692;37;0;5
2693;37;0;5
2694;37;0;5
2695;37;0;5
2696;37;0;5
2697;37;0;5
2698;37;0;5
2699;37;0;5
2700;37;0;5
2701;37;0;5
2702;37;0;5
2703;37;0;5
2704;37;0;5
2705;37;0;5
2706;37;0;5
2707;37;0;5
2708;37;0;5
2709;37;0;5
2710;37;0;5
2711;37;0;5
2712;37;0;5
2713;37;0;5
2714;36;0;5
2715;36;0;5
2716;36;0;5
2717;36;0;5
2718;36;0;5
2719;36;0;5
2720;36;0;5
2721;36;0;5
2722;36;0;5
2723;36;0;5
2724;36;0;5
2725;36;0;5
2726;36;0;5
2727;36;0;5
2728;36;0;5
2729;36;0;5
2730;36;0;5
2731;36;0;5
2732;36;0;5
2733;36;0;5
2734;36;0;5
2735;36;0;5
2736;36;0;5
2737;36;0;5
2738;36;0;5
2739;36;0;5
2740;36;0;5
2741;36;0;5
2742;36;0;5
2743;36;0;5
2744;36;0;5
2745;36;0;5
2746;36;0;5
2747;36;0;5
2748;35;0;5
2749;35;0;5
2750;35;0;5
2751;35;0;5
2752;35;0;5
2753;35;0;5
2754;35;0;5
2755;36;0;5
2756;36;0;5
2757;36;0;5
2758;36;0;5
2759;36;0;5
2760;36;0;5
2761;36;0;5
2762;35;0;5
2763;36;0;5
2764;36;0;5
2765;36;0;5
2766;36;0;5
2767;36;0;5
2768;36;0;5
2769;36;0;5
2770;36;0;5
2771;35;0;5
2772;35;0;5
2773;36;0;5
2774;36;0;5
2775;36;0;5
2776;36;0;5
2777;36;0;5
2778;36;0;5
2779;35;0;5
2780;35;0;5
2781;35;0;5
2782;35;0;5
2783;35;0;5
2784;35;0;5
2785;35;0;5
2786;35;0;5
2787;35;0;5
2788;35;0;5
2789;35;0;5
2790;35;0;5
2791;35;0;5
2792;35;0;5
2793;35;0;5
2794;35;0;5
2795;35;0;5
2796;35;0;5
2797;35;0;5
2798;35;0;5
2799;35;0;5
2800;35;0;5
2801;34;0;5
2802;34;0;5
2803;34;0;5
2804;34;0;5
2805;34;0;5
2806;34;0;5
2807;34;0;5
2808;34;0;5
2809;34;0;5
2810;34;0;5
2811;34;0;5
2812;34;0;5
2813;34;0;5
2814;34;0;5
2815;34;0;5
2816;35;0;5
2817;34;0;5
2818;35;0;5
2819;34;0;5
2820;35;0;5
2821;35;0;5
2822;35;0;5
2823;35;0;5
2824;35;0;5
2825;35;0;5
2826;35;0;5
2827;35;0;5
2828;35;0;5
2829;35;0;5
2830;35;0;5
2831;35;0;5
2832;35;0;5
2833;35;0;5
2834;35;0;5
2835;35;0;5
2836;35;0;5
2837;35;0;5
2838;35;0;5
2839;35;0;5
2840;35;0;5
2841;35;0;5
2842;35;0;5
2843;35;0;5
2844;35;0;5
2845;35;0;5
2846;35;0;5
2847;35;0;5
2848;35;0;5
2849;35;0;5
2850;35;0;5
2851;35;0;5
2852;35;0;5
2853;35;0;5
2854;35;0;5
2855;35;0;5
2856;35;0;5
2857;35;0;5
2858;35;0;5
2859;35;0;5
2860;35;0;5
2861;35;0;5
2862;35;0;5
2863;35;0;5
2864;35;0;5
2865;35;0;5
2866;35;0;5
2867;35;0;5
2868;35;0;5
2869;35;0;5
2870;35;0;5
2871;35;0;5
2872;35;0;5
2873;35;0;5
2874;35;0;5
2875;35;0;5
2876;35;0;5
2877;35;0;5
2878;35;0;5
2879;35;0;5
2880;35;0;5
2881;35;0;5
2882;35;0;5
2883;35;0;5
2884;35;0;5
2885;35;0;5
2886;36;0;5
2887;35;0;5
2888;35;0;5
2889;35;0;5
2890;35;0;5
2891;35;0;5
2892;35;0;5
2893;35;0;5
2894;35;0;5
2895;35;0;5
2896;35;0;5
2897;35;0;5
2898;35;0;5
2899;35;0;5
2900;35;0;5
2901;35;0;5
2902;35;0;5
2903;35;0;5
2904;35;0;5
2905;35;0;5
2906;35;0;5
2907;35;0;5
2908;35;0;5
2909;35;0;5
2910;36;0;5
2911;36;0;5
2912;36;0;5
2913;36;0;5
2914;36;0;5
2915;36;0;5
2916;36;0;5
2917;36;0;5
2918;35;0;5
2919;35;0;5
2920;36;0;5
2921;35;0;5
2922;36;0;5
2923;36;0;5
2924;36;0;5
2925;36;0;5
2926;36;0;5
2927;36;0;5
2928;36;0;5
2929;37;0;5
2930;37;0;5
2931;37;0;5
2932;37;0;5
2933;37;0;5
2934;37;0;5
2935;36;0;5
2936;37;0;5
2937;37;0;5
2938;37;0;5
2939;37;0;5
2940;37;0;5
2941;37;0;5
2942;37;0;5
2943;37;0;5
2944;37;0;5
2945;37;0;5
2946;37;0;5
2947;37;0;5
2948;37;0;5
2949;37;0;5
2950;37;0;5
2951;37;0;5
2952;37;0;5
2953;37;0;5
2954;37;0;5
2955;37;0;5
2956;37;0;5
2957;37;0;5
2958;37;0;5
2959;37;0;5
2960;37;0;5
2961;37;0;5
2962;37;0;5
2963;37;0;5
2964;37;0;5
2965;37;0;5
2966;37;0;5
2967;37;0;5
2968;37;0;5
2969;38;0;5
2970;38;0;5
2971;38;0;5
2972;38;0;5
2973;38;0;5
2974;38;0;5
2975;38;0;5
2976;38;0;5
2977;38;0;5
2978;38;0;5
2979;38;0;5
2980;38;0;5
2981;38;0;5
2982;38;0;5
2983;38;0;5
2984;38;0;5
2985;37;0;5
2986;37;0;5
2987;37;0;5
2988;38;0;5
2989;37;0;5
2990;38;0;5
2991;38;0;5
2992;38;0;5
2993;37;0;5
2994;38;0;5
2995;38;0;5
2996;38;0;5
2997;38;0;5
2998;38;0;5
2999;39;0;5
3000;39;0;5
3001;39;0;5
3002;39;0;5
3003;39;0;5
3004;39;0;5
3005;39;0;5
3006;38;0;5
3007;38;0;5
3008;38;0;5
3009;38;0;5
3010;38;0;5
3011;38;0;5
3012;38;0;5
3013;38;0;5
3014;38;0;5
3015;38;0;5
3016;38;0;5
3017;38;0;5
3018;38;0;5
3019;38;0;5
3020;38;0;5
3021;38;0;5
3022;38;0;5
3023;38;0;5
3024;38;0;5
3025;38;0;5
3026;38;0;5
3027;38;0;5
3028;38;0;5
3029;38;0;5
3030;38;0;5
3031;38;0;5
3032;38;0;5
3033;38;0;5
3034;38;0;5
3035;38;0;5
3036;37;0;5
3037;37;0;5
3038;37;0;5
3039;37;0;5
3040;38;0;5
3041;38;0;5
3042;38;0;5
3043;38;0;5
3044;38;0;5
3045;38;0;5
3046;38;0;5
3047;38;0;5
3048;38;0;5
3049;38;0;5
3050;38;0;5
3051;38;0;5
3052;38;0;5
3053;38;0;5
3054;38;0;5
3055;38;0;5
3056;38;0;5
3057;38;0;5
3058;39;0;5
3059;39;0;5
3060;39;0;5
3061;39;0;5
3062;39;0;5
3063;38;0;5
3064;39;0;5
3065;39;0;5
3066;39;0;5
3067;39;0;5
3068;39;0;5
3069;38;0;5
3070;39;0;5
3071;39;0;5
3072;39;0;5
3073;39;0;5
3074;39;0;5
3075;39;0;5
3076;39;0;5
3077;39;0;5
3078;39;0;5
3079;39;0;5
3080;39;0;5
3081;39;0;5
3082;39;0;5
3083;39;0;5
3084;38;0;5
3085;38;0;5
3086;38;0;5
3087;38;0;5
3088;38;0;5
3089;38;0;5
3090;38;0;5
3091;38;0;5
3092;38;0;5
3093;38;0;5
3094;38;0;5
3095;38;0;5
3096;38;0;5
3097;38;0;5
3098;38;0;5
3099;38;0;5
3100;38;0;5
3101;38;0;5
3102;38;0;5
3103;38;0;5
3104;38;0;5
3105;38;0;5
3106;38;0;5
3107;38;0;5
3108;38;0;5
3109;38;0;5
3110;38;0;5
3111;38;0;5
3112;38;0;5
3113;37;0;5
3114;37;0;5
3115;37;0;5
3116;37;0;5
3117;37;0;5
3118;37;0;5
3119;37;0;5
3120;37;0;5
3121;37;0;5
3122;36;0;5
3123;36;0;5
3124;36;0;5
3125;36;0;5
3126;36;0;5
3127;36;0;5
3128;36;0;5
3129;36;0;5
3130;36;0;5
3131;36;0;5
3132;36;0;5
3133;36;0;5
3134;36;0;5
3135;36;0;5
3136;36;0;5
3137;36;0;5
3138;36;0;5
3139;36;0;5
3140;36;0;5
3141;36;0;5
3142;36;0;5
3143;36;0;5
3144;36;0;5
3145;36;0;5
3146;36;0;5
3147;36;0;5
3148;36;0;5
3149;36;0;5
3150;36;0;5
3151;36;0;5
3152;36;0;5
3153;36;0;5
3154;36;0;5
3155;36;0;5
3156;36;0;5
3157;36;0;5
3158;36;0;5
3159;36;0;5
3160;36;0;5
3161;36;0;5
3162;36;0;5
3163;36;0;5
3164;36;0;5
3165;36;0;5
3166;36;0;5
3167;36;0;5
3168;36;0;5
3169;36;0;5
3170;36;0;5
3171;36;0;5
3172;36;0;5
3173;36;0;5
3174;36;0;5
3175;36;0;5
3176;36;0;5
3177;36;0;5
3178;36;0;5
3179;36;0;5
3180;36;0;5
3181;36;0;5
3182;36;0;5
3183;36;0;5
3184;36;0;5
3185;36;0;5
3186;36;0;5
3187;36;0;5
3188;36;0;5
3189;37;0;5
3190;37;0;5
3191;36;0;5
3192;36;0;5
3193;36;0;5
3194;36;0;5
3195;37;0;5
3196;36;0;5
3197;37;0;5
3198;37;0;5
3199;37;0;5
3200;37;0;5
3201;37;0;5
3202;37;0;5
3203;37;0;5
3204;37;0;5
3205;37;0;5
3206;37;0;5
3207;37;0;5
3208;37;0;5
3209;37;0;5
3210;37;0;5
3211;37;0;5
3212;37;0;5
3213;37;0;5
3214;37;0;5
3215;37;0;5
3216;37;0;5
3217;37;0;5
3218;37;0;5
3219;37;0;5
3220;37;0;5
3221;37;0;5
3222;37;0;5
3223;37;0;5
3224;37;0;5
3225;37;0;5
3226;37;0;5
3227;37;0;5
3228;37;0;5
3229;37;0;5
3230;37;0;5
3231;37;0;5
3232;37;0;5
3233;37;0;5
3234;37;0;5
3235;37;0;5
3236;37;0;5
3237;37;0;5
3238;37;0;5
3239;37;0;5
3240;37;0;5
3241;37;0;5
3242;37;0;5
3243;37;0;5
3244;37;0;5
3245;37;0;5
3246;37;0;5
3247;37;0;5
3248;37;0;5
3249;37;0;5
3250;37;0;5
3251;37;0;5
3252;37;0;5
3253;37;0;5
3254;37;0;5
3255;37;0;5
3256;37;0;5
3257;36;0;5
3258;36;0;5
3259;36;0;5
3260;36;0;5
3261;36;0;5
3262;36;0;5
3263;36;0;5
3264;36;0;5
3265;36;0;5
3266;36;0;5
3267;36;0;5
3268;36;0;5
3269;36;0;5
3270;36;0;5
3271;36;0;5
3272;36;0;5
3273;36;0;5
3274;36;0;5
3275;36;0;5
3276;36;0;5
3277;36;0;5
3278;36;0;5
3279;36;0;5
3280;36;0;5
3281;36;0;5
3282;36;0;5
3283;36;0;5
3284;36;0;5
3285;36;0;5
3286;36;0;5
3287;37;0;5
3288;37;0;5
3289;37;0;5
3290;37;0;5
3291;37;0;5
3292;37;0;5
3293;37;0;5
3294;37;0;5
3295;37;0;5
3296;37;0;5
3297;37;0;5
3298;37;0;5
3299;37;0;5
3300;37;0;5
3301;37;0;5
3302;37;0;5
3303;37;0;5
3304;37;0;5
3305;37;0;5
3306;37;0;5
3307;37;0;5
3308;37;0;5
3309;37;0;5
3310;37;0;5
3311;37;0;5
3312;37;0;5
3313;37;0;5
3314;37;0;5
3315;37;0;5
3316;36;0;5
3317;36;0;5
3318;36;0;5
3319;36;0;5
3320;36;0;5
3321;36;0;5
3322;36;0;5
3323;36;0;5
3324;36;0;5
3325;36;0;5
3326;36;0;5
3327;36;0;5
3328;36;0;5
3329;36;0;5
3330;36;0;5
3331;36;0;5
3332;36;0;5
3333;37;0;5
3334;37;0;5
3335;37;0;5
3336;37;0;5
3337;36;0;5
3338;36;0;5
3339;36;0;5
3340;36;0;5
3341;36;0;5
3342;36;0;5
3343;36;0;5
3344;36;0;5
3345;36;0;5
3346;36;0;5
3347;36;0;5
3348;36;0;5
3349;36;0;5
3350;36;0;5
3351;36;0;5
3352;36;0;5
3353;35;0;5
3354;35;0;5
3355;35;0;5
3356;35;0;5
3357;35;0;5
3358;35;0;5
3359;35;0;5
3360;35;0;5
3361;35;0;5
3362;35;0;5
3363;35;0;5
3364;35;0;5
3365;35;0;5
3366;35;0;5
3367;35;0;5
3368;35;0;5
3369;35;0;5
3370;35;0;5
3371;35;0;5
3372;35;0;5
3373;35;0;5
3374;36;0;5
3375;36;0;5
3376;36;0;5
3377;36;0;5
3378;36;0;5
3379;36;0;5
3380;36;0;5
3381;36;0;5
3382;36;0;5
3383;36;0;5
3384;36;0;5
3385;36;0;5
3386;36;0;5
3387;36;0;5
3388;36;0;5
3389;36;0;5
3390;36;0;5
3391;36;0;5
3392;36;0;5
3393;36;0;5
3394;36;0;5
3395;36;0;5
3396;36;0;5
3397;38;0;5
3398;38;0;5
3399;38;0;5
3400;38;0;5
3401;38;0;5
3402;38;0;5
3403;38;0;5
3404;37;0;5
3405;37;0;5
3406;37;0;5
3407;37;0;5
3408;37;0;5
3409;37;0;5
3410;37;0;5
3411;37;0;5
3412;37;0;5
3413;37;0;5
3414;37;0;5
3415;37;0;5
3416;37;0;5
3417;37;0;5
3418;37;0;5
3419;37;0;5
3420;37;0;5
3421;37;0;5
3422;37;0;5
3423;37;0;5
3424;38;0;5
3425;38;0;5
3426;38;0;5
3427;38;0;5
3428;38;0;5
3429;38;0;5
3430;38;0;5
3431;38;0;5
3432;38;0;5
3433;38;0;5
3434;38;0;5
3435;38;0;5
3436;38;0;5
3437;38;0;5
3438;38;0;5
3439;38;0;5
3440;38;0;5
3441;38;0;5
3442;38;0;5
3443;39;0;5
3444;38;0;5
3445;38;0;5
3446;38;0;5
3447;38;0;5
3448;38;0;5
3449;38;0;5
3450;38;0;5
3451;38;0;5
3452;38;0;5
3453;38;0;5
3454;38;0;5
3455;38;0;5
3456;38;0;5
3457;38;0;5
3458;38;0;5
3459;38;0;5
3460;38;0;5
3461;38;0;5
3462;38;0;5
3463;38;0;5
3464;38;0;5
3465;38;0;5
3466;39;0;5
3467;38;0;5
3468;38;0;5
3469;38;0;5
3470;38;0;5
3471;38;0;5
3472;38;0;5
3473;38;0;5
3474;38;0;5
3475;39;0;5
3476;39;0;5
3477;39;0;5
3478;39;0;5
3479;39;0;5
3480;39;0;5
3481;39;0;5
3482;39;0;5
3483;39;0;5
3484;39;0;5
3485;39;0;5
3486;39;0;5
3487;39;0;5
3488;39;0;5
3489;39;0;5
3490;39;0;5
3491;39;0;5
3492;40;0;5
3493;40;0;5
3494;40;0;5
3495;40;0;5
3496;39;0;5
3497;40;0;5
3498;40;0;5
3499;40;0;5
3500;40;0;5
3501;40;0;5
3502;40;0;5
3503;40;0;5
3504;40;0;5
3505;40;0;5
3506;40;0;5
3507;40;0;5
3508;40;0;5
3509;41;0;5
3510;40;0;5
3511;40;0;5
3512;39;0;5
3513;41;0;5
3514;40;0;5
3515;40;0;5
3516;39;0;5
3517;40;0;5
3518;40;0;5
3519;40;0;5
3520;40;0;5
3521;40;0;5
3522;40;0;5
3523;40;0;5
3524;39;0;5
3525;39;0;5
3526;39;0;5
3527;39;0;5
3528;39;0;5
3529;39;0;5
3530;40;0;5
3531;39;0;5
3532;39;0;5
3533;40;0;5
3534;39;0;5
3535;39;0;5
3536;39;0;5
3537;39;0;5
3538;39;0;5
3539;39;0;5
3540;39;0;5
3541;40;0;5
3542;39;0;5
3543;39;0;5
3544;39;0;5
3545;39;0;5
3546;39;0;5
3547;39;0;5
3548;39;0;5
3549;39;0;5
3550;39;0;5
3551;39;0;5
3552;39;0;5
3553;39;0;5
3554;39;0;5
3555;39;0;5
3556;39;0;5
3557;39;0;5
3558;39;0;5
3559;39;0;5
3560;39;0;5
3561;39;0;5
3562;40;0;5
3563;40;0;5
3564;40;0;5
3565;40;0;5
3566;40;0;5
3567;41;0;5
3568;41;0;5
3569;41;0;5
3570;41;0;5
3571;41;0;5
3572;41;0;5
3573;40;0;5
3574;41;0;5
3575;41;0;5
3576;41;0;5
3577;41;0;5
3578;41;0;5
3579;41;0;5
3580;41;0;5
3581;41;0;5
3582;41;0;5
3583;41;0;5
3584;41;0;5
3585;41;0;5
3586;41;0;5
3587;41;0;5
3588;41;0;5
3589;41;0;5
3590;41;0;5
3591;41;0;5
3592;42;0;5
3593;41;0;5
3594;41;0;5
3595;41;0;5
3596;41;0;5
3597;41;0;5
3598;42;0;5
3599;41;0;5
3600;41;0;5
3601;41;0;5
3602;41;0;5
3603;41;0;5
3604;41;0;5
3605;41;0;5
3606;41;0;5
3607;41;0;5
3608;41;0;5
3609;41;0;5
3610;41;0;5
3611;41;0;5
3612;41;0;5
3613;41;0;5
3614;41;0;5
3615;41;0;5
3616;41;0;5
3617;41;0;5
3618;41;0;5
3619;41;0;5
3620;41;0;5
3621;41;0;5
3622;41;0;5
3623;41;0;5
3624;41;0;5
3625;41;0;5
3626;41;0;5
3627;41;0;5
3628;41;0;5
3629;41;0;5
3630;41;0;5
3631;41;0;5
3632;41;0;5
3633;41;0;5
3634;41;0;5
3635;41;0;5
3636;41;0;5
3637;41;0;5
3638;41;0;5
3639;41;0;5
3640;41;0;5
3641;41;0;5
3642;41;0;5
3643;41;0;5
3644;41;0;5
3645;41;0;5
3646;41;0;5
3647;41;0;5
3648;41;0;5
3649;40;0;5
3650;40;0;5
3651;40;0;5
3652;40;0;5
3653;40;0;5
3654;40;0;5
3655;41;0;5
3656;40;0;5
3657;41;0;5
3658;41;0;5
3659;41;0;5
3660;41;0;5
3661;40;0;5
3662;40;0;5
3663;39;0;5
3664;39;0;5
3665;40;0;5
3666;39;0;5
3667;39;0;5
3668;39;0;5
3669;39;0;5
3670;39;0;5
3671;39;0;5
3672;39;0;5
3673;40;0;5
3674;41;0;5
3675;41;0;5
3676;41;0;5
3677;41;0;5
3678;41;0;5
3679;41;0;5
3680;41;0;5
3681;41;0;5
3682;41;0;5
3683;41;0;5
3684;41;0;5
3685;41;0;5
3686;41;0;5
3687;41;0;5
3688;41;0;5
3689;41;0;5
3690;40;0;5
3691;40;0;5
3692;40;0;5
3693;40;0;5
3694;40;0;5
3695;40;0;5
3696;40;0;5
3697;40;0;5
3698;40;0;5
3699;40;0;5
3700;40;0;5
3701;40;0;5
3702;40;0;5
3703;40;0;5
3704;40;0;5
3705;40;0;5
3706;40;0;5
3707;40;0;5
3708;40;0;5
3709;40;0;5
3710;40;0;5
3711;40;0;5
3712;40;0;5
3713;40;0;5
3714;40;0;5
3715;40;0;5
3716;40;0;5
3717;40;0;5
3718;40;0;5
3719;40;0;5
3720;40;0;5
3721;40;0;5
3722;40;0;5
3723;40;0;5
3724;40;0;5
3725;41;0;5
3726;40;0;5
3727;41;0;5
3728;40;0;5
3729;40;0;5
3730;41;0;5
3731;40;0;5
3732;41;0;5
3733;41;0;5
3734;41;0;5
3735;41;0;5
3736;41;0;5
3737;41;0;5
3738;41;0;5
3739;41;0;5
3740;41;0;5
3741;41;0;5
3742;41;0;5
3743;41;0;5
3744;40;0;5
3745;40;0;5
3746;41;0;5
3747;41;0;5
3748;40;0;5
3749;40;0;5
3750;41;0;5
3751;41;0;5
3752;41;0;5
3753;41;0;5
3754;41;0;5
3755;41;0;5
3756;41;0;5
3757;41;0;5
3758;41;0;5
3759;41;0;5
3760;41;0;5
3761;41;0;5
3762;41;0;5
3763;41;0;5
3764;41;0;5
3765;41;0;5
3766;41;0;5
3767;41;0;5
3768;41;0;5
3769;41;0;5
3770;41;0;5
3771;41;0;5
3772;41;0;5
3773;41;0;5
3774;42;0;5
3775;42;0;5
3776;41;0;5
3777;42;0;5
3778;41;0;5
3779;42;0;5
3780;43;0;5
3781;42;0;5
3782;42;0;5
3783;43;0;5
3784;42;0;5
3785;42;0;5
3786;43;0;5
3787;43;0;5
3788;43;0;5
3789;43;0;5
3790;43;0;5
3791;43;0;5
3792;43;0;5
3793;43;0;5
3794;43;0;5
3795;43;0;5
3796;42;0;5
3797;43;0;5
3798;43;0;5
3799;43;0;5
3800;43;0;5
3801;43;0;5
3802;43;0;5
3803;43;0;5
3804;42;0;5
3805;42;0;5
3806;43;0;5
3807;43;0;5
3808;43;0;5
3809;43;0;5
3810;43;0;5
3811;43;0;5
3812;43;0;5
3813;44;0;5
3814;44;0;5
3815;43;0;5
3816;44;0;5
3817;44;0;5
3818;44;0;5
3819;44;0;5
3820;44;0;5
3821;44;0;5
3822;44;0;5
3823;44;0;5
3824;44;0;5
3825;46;0;5
3826;44;0;5
3827;46;0;5
3828;45;0;5
3829;45;0;5
3830;46;0;5
3831;46;0;5
3832;46;0;5
3833;46;0;5
3834;45;0;5
3835;45;0;5
3836;46;0;5
3837;46;0;5
3838;46;0;5
3839;45;0;5
3840;45;0;5
3841;45;0;5
3842;45;0;5
3843;45;0;5
3844;45;0;5
3845;45;0;5
3846;45;0;5
3847;45;0;5
3848;45;0;5
3849;45;0;5
3850;45;0;5
3851;45;0;5
3852;45;0;5
3853;45;0;5
3854;45;0;5
3855;45;0;5
3856;45;0;5
3857;45;0;5
3858;45;0;5
3859;45;0;5
3860;45;0;5
3861;45;0;5
3862;45;0;5
3863;45;0;5
3864;45;0;5
3865;45;0;5
3866;45;0;5
3867;45;0;5
3868;45;0;5
3869;45;0;5
3870;45;0;5
3871;45;0;5
3872;45;0;5
3873;45;0;5
3874;45;0;5
3875;45;0;5
3876;45;0;5
3877;45;0;5
3878;45;0;5
3879;45;0;5
3880;45;0;5
3881;45;0;5
3882;45;0;5
3883;45;0;5
3884;45;0;5
3885;45;0;5
3886;45;0;5
3887;45;0;5
3888;45;0;5
3889;45;0;5
3890;45;0;5
3891;46;0;5
3892;46;0;5
3893;45;0;5
3894;46;0;5
3895;46;0;5
3896;46;0;5
3897;46;0;5
3898;46;0;5
3899;46;0;5
3900;46;0;5
3901;46;0;5
3902;46;0;5
3903;46;0;5
3904;46;0;5
3905;46;0;5
3906;47;0;5
3907;47;0;5
3908;46;0;5
3909;46;0;5
3910;46;0;5
3911;46;0;5
3912;47;0;5
3913;47;0;5
3914;47;0;5
3915;47;0;5
3916;47;0;5
3917;47;0;5
3918;47;0;5
3919;47;0;5
3920;47;0;5
3921;47;0;5
3922;47;0;5
3923;47;0;5
3924;47;0;5
3925;47;0;5
3926;47;0;5
3927;47;0;5
3928;47;0;5
3929;47;0;5
3930;47;0;5
3931;47;0;5
3932;47;0;5
3933;47;0;5
3934;47;0;5
3935;47;0;5
3936;47;0;5
3937;47;0;5
3938;47;0;5
3939;47;0;5
3940;47;0;5
3941;47;0;5
3942;47;0;5
3943;47;0;5
3944;47;0;5
3945;47;0;5
3946;47;0;5
3947;47;0;5
3948;47;0;5
3949;47;0;5
3950;47;0;5
3951;47;0;5
3952;47;0;5
3953;47;0;5
3954;47;0;5
3955;48;0;5
3956;48;0;5
3957;48;0;5
3958;48;0;5
3959;48;0;5
3960;48;0;5
3961;48;0;5
3962;48;0;5
3963;48;0;5
3964;48;0;5
3965;48;0;5
3966;48;0;5
3967;48;0;5
3968;48;0;5
3969;48;0;5
3970;48;0;5
3971;48;0;5
3972;48;0;5
3973;48;0;5
3974;48;0;5
3975;48;0;5
3976;48;0;5
3977;48;0;5
3978;48;0;5
3979;48;0;5
3980;48;0;5
3981;48;0;5
3982;48;0;5
3983;48;0;5
3984;47;0;5
3985;47;0;5
3986;47;0;5
3987;47;0;5
3988;48;0;5
3989;48;0;5
3990;48;0;5
3991;48;0;5
3992;48;0;5
3993;48;0;5
3994;48;0;5
3995;48;0;5
3996;48;0;5
3997;49;0;5
3998;48;0;5
3999;48;0;5
4000;48;0;5
4001;48;0;5
4002;48;0;5
4003;48;0;5
4004;48;0;5
4005;48;0;5
4006;48;0;5
4007;48;0;5
4008;48;0;5
4009;48;0;5
4010;48;0;5
4011;50;0;5
4012;50;0;5
4013;49;0;5
4014;50;0;5
4015;49;0;5
4016;49;0;5
4017;49;0;5
4018;49;0;5
4019;50;0;5
4020;50;0;5
4021;50;0;5
4022;50;0;5
4023;50;0;5
4024;50;0;5
4025;50;0;5
4026;50;0;5
4027;50;0;5
4028;50;0;5
4029;50;0;5
4030;50;0;5
4031;50;0;5
4032;50;0;5
4033;50;0;5
4034;50;0;5
4035;50;0;5
4036;50;0;5
4037;50;0;5
4038;50;0;5
4039;50;0;5
4040;50;0;5
4041;49;0;5
4042;49;0;5
4043;49;0;5
4044;49;0;5
4045;49;0;5
4046;49;0;5
4047;49;0;5
4048;49;0;5
4049;49;0;5
4050;49;0;5
4051;49;0;5
4052;49;0;5
4053;49;0;5
4054;49;0;5
4055;49;0;5
4056;49;0;5
4057;49;0;5
4058;49;0;5
4059;49;0;5
4060;49;0;5
4061;49;0;5
4062;49;0;5
4063;49;0;5
4064;49;0;5
4065;49;0;5
4066;49;0;5
4067;49;0;5
4068;49;0;5
4069;49;0;5
4070;49;0;5
4071;49;0;5
4072;49;0;5
4073;49;0;5
4074;49;0;5
4075;49;0;5
4076;49;0;5
4077;49;0;5
4078;49;0;5
4079;49;0;5
4080;49;0;5
4081;49;0;5
4082;49;0;5
4083;50;0;5
4084;50;0;5
4085;50;0;5
4086;50;0;5
4087;50;0;5
4088;50;0;5
4089;50;0;5
4090;50;0;5
4091;50;0;5
4092;51;0;5
4093;51;0;5
4094;51;0;5
4095;51;0;5
4096;52;0;5
4097;52;0;5
4098;52;0;5
4099;52;0;5
4100;52;0;5
4101;52;0;5
4102;52;0;5
4103;52;0;5
4104;51;0;5
4105;51;0;5
4106;51;0;5
4107;51;0;5
4108;51;0;5
4109;50;0;5
4110;50;0;5
4111;50;0;5
4112;50;0;5
4113;50;0;5
4114;50;0;5
4115;50;0;5
4116;50;0;5
4117;50;0;5
4118;50;0;5
4119;50;0;5
4120;50;0;5
4121;50;0;5
4122;50;0;5
4123;50;0;5
4124;50;0;5
4125;50;0;5
4126;50;0;5
4127;51;0;5
4128;51;0;5
4129;51;0;5
4130;51;0;5
4131;51;0;5
4132;51;0;5
4133;51;0;5
4134;51;0;5
4135;51;0;5
4136;51;0;5
4137;51;0;5
4138;51;0;5
4139;51;0;5
4140;51;0;5
4141;51;0;5
4142;51;0;5
4143;51;0;5
4144;51;0;5
4145;51;0;5
4146;51;0;5
4147;51;0;5
4148;51;0;5
4149;51;0;5
4150;51;0;5
4151;51;0;5
4152;51;0;5
4153;51;0;5
4154;51;0;5
4155;51;0;5
4156;51;0;5
4157;51;0;5
4158;51;0;5
4159;51;0;5
4160;51;0;5
4161;51;0;5
4162;50;0;5
4163;50;0;5
4164;50;0;5
4165;50;0;5
4166;50;0;5
4167;50;0;5
4168;50;0;5
4169;50;0;5
4170;50;0;5
4171;50;0;5
4172;50;0;5
4173;50;0;5
4174;50;0;5
4175;50;0;5
4176;50;0;5
4177;50;0;5
4178;50;0;5
4179;50;0;5
4180;50;0;5
4181;50;0;5
4182;50;0;5
4183;50;0;5
4184;50;0;5
4185;50;0;5
4186;50;0;5
4187;50;0;5
4188;50;0;5
4189;48;0;5
4190;48;0;5
4191;48;0;5
4192;48;0;5
4193;48;0;5
4194;48;0;5
4195;48;0;5
4196;48;0;5
4197;48;0;5
4198;48;0;5
4199;48;0;5
4200;48;0;5
4201;47;0;5
4202;47;0;5
4203;47;0;5
4204;47;0;5
4205;48;0;5
4206;48;0;5
4207;47;0;5
4208;46;0;5
4209;47;0;5
4210;47;0;5
4211;46;0;5
4212;47;0;5
4213;47;0;5
4214;47;0;5
4215;47;0;5
4216;47;0;5
4217;47;0;5
4218;47;0;5
4219;47;0;5
4220;47;0;5
4221;47;0;5
4222;48;0;5
4223;47;0;5
4224;47;0;5
4225;47;0;5
4226;48;0;5
4227;48;0;5
4228;48;0;5
4229;48;0;5
4230;48;0;5
4231;47;0;5
4232;48;0;5
4233;48;0;5
4234;48;0;5
4235;48;0;5
4236;48;0;5
4237;48;0;5
4238;48;0;5
4239;49;0;5
4240;49;0;5
4241;49;0;5
4242;49;0;5
4243;48;0;5
4244;49;0;5
4245;49;0;5
4246;48;0;5
4247;48;0;5
4248;47;0;5
4249;49;0;5
4250;48;0;5
4251;49;0;5
4252;49;0;5
4253;49;0;5
4254;50;0;5
4255;48;0;5
4256;48;0;5
4257;49;0;5
4258;49;0;5
4259;49;0;5
4260;49;0;5
4261;49;0;5
4262;50;0;5
4263;50;0;5
4264;50;0;5
4265;50;0;5
4266;50;0;5
4267;50;0;5
4268;50;0;5
4269;50;0;5
4270;50;0;5
4271;50;0;5
4272;50;0;5
4273;50;0;5
4274;50;0;5
4275;50;0;5
4276;50;0;5
4277;50;0;5
4278;51;0;5
4279;51;0;5
4280;51;0;5
4281;51;0;5
4282;51;0;5
4283;50;0;5
4284;51;0;5
4285;51;0;5
4286;51;0;5
4287;51;0;5
4288;51;0;5
4289;51;0;5
4290;50;0;5
4291;51;0;5
4292;51;0;5
4293;50;0;5
4294;51;0;5
4295;51;0;5
4296;50;0;5
4297;51;0;5
4298;51;0;5
4299;51;0;5
4300;51;0;5
4301;51;0;5
4302;51;0;5
4303;51;0;5
4304;51;0;5
4305;51;0;5
4306;51;0;5
4307;51;0;5
4308;51;0;5
4309;51;0;5
4310;51;0;5
4311;51;0;5
4312;51;0;5
4313;51;0;5
4314;51;0;5
4315;51;0;5
4316;51;0;5
4317;50;0;5
4318;50;0;5
4319;49;0;5
4320;49;0;5
4321;49;0;5
4322;49;0;5
4323;49;0;5
4324;49;0;5
4325;49;0;5
4326;49;0;5
4327;49;0;5
4328;49;0;5
4329;49;0;5
4330;49;0;5
4331;49;0;5
4332;49;0;5
4333;49;0;5
4334;49;0;5
4335;49;0;5
4336;49;0;5
4337;49;0;5
4338;48;0;5
4339;48;0;5
4340;48;0;5
4341;48;0;5
4342;48;0;5
4343;48;0;5
4344;48;0;5
4345;48;0;5
4346;48;0;5
4347;48;0;5
4348;48;0;5
4349;48;0;5
4350;48;0;5
4351;48;0;5
4352;48;0;5
4353;48;0;5
4354;48;0;5
4355;48;0;5
4356;48;0;5
4357;48;0;5
4358;48;0;5
4359;48;0;5
4360;48;0;5
4361;48;0;5
4362;48;0;5
4363;48;0;5
4364;48;0;5
4365;48;0;5
4366;48;0;5
4367;48;0;5
4368;48;0;5
4369;49;0;5
4370;49;0;5
4371;49;0;5
4372;48;0;5
4373;49;0;5
4374;49;0;5
4375;49;0;5
4376;51;0;5
4377;50;0;5
4378;51;0;5
4379;51;0;5
4380;51;0;5
4381;51;0;5
4382;50;0;5
4383;51;0;5
4384;51;0;5
4385;51;0;5
4386;51;0;5
4387;51;0;5
4388;51;0;5
4389;51;0;5
4390;51;0;5
4391;51;0;5
4392;51;0;5
4393;51;0;5
4394;51;0;5
4395;52;0;5
4396;52;0;5
4397;52;0;5
4398;52;0;5
4399;51;0;5
4400;51;0;5
4401;52;0;5
4402;52;0;5
4403;52;0;5
4404;52;0;5
4405;52;0;5
4406;52;0;5
4407;52;0;5
4408;52;0;5
4409;52;0;5
4410;52;0;5
4411;52;0;5
4412;52;0;5
4413;52;0;5
4414;52;0;5
4415;52;0;5
4416;52;0;5
4417;51;0;5
4418;52;0;5
4419;52;0;5
4420;52;0;5
4421;52;0;5
4422;52;0;5
4423;52;0;5
4424;52;0;5
4425;52;0;5
4426;52;0;5
4427;52;0;5
4428;52;0;5
4429;52;0;5
4430;53;0;5
4431;53;0;5
4432;53;0;5
4433;53;0;5
4434;53;0;5
4435;52;0;5
4436;53;0;5
4437;53;0;5
4438;54;0;5
4439;54;0;5
4440;54;0;5
4441;53;0;5
4442;54;0;5
4443;53;0;5
4444;53;0;5
4445;53;0;5
4446;53;0;5
4447;53;0;5
4448;53;0;5
4449;53;0;5
4450;52;0;5
4451;53;0;5
4452;53;0;5
4453;53;0;5
4454;53;0;5
4455;53;0;5
4456;53;0;5
4457;53;0;5
4458;54;0;5
4459;53;0;5
4460;53;0;5
4461;53;0;5
4462;53;0;5
4463;53;0;5
4464;54;0;5
4465;53;0;5
4466;53;0;5
4467;55;0;5
4468;54;0;5
4469;54;0;5
4470;54;0;5
4471;52;0;5
4472;52;0;5
4473;52;0;5
4474;52;0;5
4475;52;0;5
4476;52;0;5
4477;51;0;5
4478;49;0;5
4479;49;0;5
4480;49;0;5
4481;49;0;5
4482;49;0;5
4483;49;0;5
4484;49;0;5
4485;49;0;5
4486;49;0;5
4487;49;0;5
4488;49;0;5
4489;49;0;5
4490;49;0;5
4491;49;0;5
4492;49;0;5
4493;49;0;5
4494;49;0;5
4495;49;0;5
4496;49;0;5
4497;51;0;5
4498;50;0;5
4499;50;0;5
4500;50;0;5
4501;51;0;5
4502;50;0;5
4503;50;0;5
4504;50;0;5
4505;50;0;5
4506;50;0;5
4507;50;0;5
4508;50;0;5
4509;50;0;5
4510;50;0;5
4511;50;0;5
4512;50;0;5
4513;50;0;5
4514;50;0;5
4515;50;0;5
4516;50;0;5
4517;51;0;5
4518;51;0;5
4519;51;0;5
4520;51;0;5
4521;50;0;5
4522;50;0;5
4523;50;0;5
4524;50;0;5
4525;50;0;5
4526;51;0;5
4527;49;0;5
4528;49;0;5
4529;49;0;5
4530;49;0;5
4531;50;0;5
4532;49;0;5
4533;49;0;5
4534;50;0;5
4535;50;0;5
4536;49;0;5
4537;49;0;5
4538;49;0;5
4539;50;0;5
4540;50;0;5
4541;50;0;5
4542;50;0;5
4543;50;0;5
4544;51;0;5
4545;52;0;5
4546;52;0;5
4547;51;0;5
4548;50;0;5
4549;50;0;5
4550;51;0;5
4551;51;0;5
4552;51;0;5
4553;51;0;5
4554;51;0;5
4555;51;0;5
4556;51;0;5
4557;51;0;5
4558;51;0;5
4559;51;0;5
4560;51;0;5
4561;51;0;5
4562;51;0;5
4563;51;0;5
4564;51;0;5
4565;51;0;5
4566;51;0;5
4567;51;0;5
4568;51;0;5
4569;51;0;5
4570;51;0;5
4571;52;0;5
4572;52;0;5
4573;52;0;5
4574;52;0;5
4575;52;0;5
4576;52;0;5
4577;52;0;5
4578;52;0;5
4579;52;0;5
4580;52;0;5
4581;52;0;5
4582;52;0;5
4583;52;0;5
4584;53;0;5
4585;52;0;5
4586;52;0;5
4587;52;0;5
4588;53;0;5
4589;53;0;5
4590;53;0;5
4591;53;0;5
4592;53;0;5
4593;53;0;5
4594;53;0;5
4595;53;0;5
4596;53;0;5
4597;53;0;5
4598;53;0;5
4599;53;0;5
4600;53;0;5
4601;53;0;5
4602;53;0;5
4603;53;0;5
4604;53;0;5
4605;51;0;5
4606;51;0;5
4607;51;0;5
4608;51;0;5
4609;51;0;5
4610;51;0;5
4611;51;0;5
4612;51;0;5
4613;51;0;5
4614;51;0;5
4615;51;0;5
4616;51;0;5
4617;51;0;5
4618;51;0;5
4619;51;0;5
4620;51;0;5
4621;51;0;5
4622;51;0;5
4623;51;0;5
4624;51;0;5
4625;51;0;5
4626;51;0;5
4627;51;0;5
4628;51;0;5
4629;51;0;5
4630;51;0;5
4631;51;0;5
4632;51;0;5
4633;51;0;5
4634;51;0;5
4635;51;0;5
4636;51;0;5
4637;51;0;5
4638;51;0;5
4639;51;0;5
4640;51;0;5
4641;51;0;5
4642;51;0;5
4643;51;0;5
4644;51;0;5
4645;50;0;5
4646;50;0;5
4647;50;0;5
4648;50;0;5
4649;50;0;5
4650;50;0;5
4651;50;0;5
4652;49;0;5
4653;49;0;5
4654;49;0;5
4655;49;0;5
4656;49;0;5
4657;49;0;5
4658;49;0;5
4659;49;0;5
4660;48;0;5
4661;48;0;5
4662;48;0;5
4663;48;0;5
4664;48;0;5
4665;48;0;5
4666;48;0;5
4667;48;0;5
4668;48;0;5
4669;48;0;5
4670;48;0;5
4671;48;0;5
4672;48;0;5
4673;48;0;5
4674;48;0;5
4675;48;0;5
4676;48;0;5
4677;49;0;5
4678;49;0;5
4679;49;0;5
4680;49;0;5
4681;49;0;5
4682;49;0;5
4683;49;0;5
4684;49;0;5
4685;49;0;5
4686;49;0;5
4687;49;0;5
4688;49;0;5
4689;49;0;5
4690;49;0;5
4691;49;0;5
4692;49;0;5
4693;49;0;5
4694;49;0;5
4695;49;0;5
4696;49;0;5
4697;49;0;5
4698;49;0;5
4699;49;0;5
4700;49;0;5
4701;49;0;5
4702;49;0;5
4703;49;0;5
4704;49;0;5
4705;50;0;5
4706;49;0;5
4707;50;0;5
4708;50;0;5
4709;50;0;5
4710;50;0;5
4711;50;0;5
4712;50;0;5
4713;50;0;5
4714;50;0;5
4715;50;0;5
4716;50;0;5
4717;50;0;5
4718;50;0;5
4719;49;0;5
4720;49;0;5
4721;49;0;5
4722;49;0;5
4723;48;0;5
4724;49;0;5
4725;49;0;5
4726;49;0;5
4727;49;0;5
4728;50;0;5
4729;49;0;5
4730;50;0;5
4731;49;0;5
4732;49;0;5
4733;49;0;5
4734;49;0;5
4735;49;0;5
4736;50;0;5
4737;49;0;5
4738;49;0;5
4739;49;0;5
4740;49;0;5
4741;49;0;5
4742;49;0;5
4743;49;0;5
4744;49;0;5
4745;49;0;5
4746;49;0;5
4747;49;0;5
4748;48;0;5
4749;48;0;5
4750;48;0;5
4751;48;0;5
4752;49;0;5
4753;49;0;5
4754;49;0;5
4755;50;0;5
4756;50;0;5
4757;50;0;5
4758;50;0;5
4759;50;0;5
4760;49;0;5
4761;49;0;5
4762;49;0;5
4763;49;0;5
4764;49;0;5
4765;49;0;5
4766;49;0;5
4767;49;0;5
4768;49;0;5
4769;49;0;5
4770;49;0;5
4771;49;0;5
4772;49;0;5
4773;49;0;5
4774;49;0;5
4775;49;0;5
4776;49;0;5
4777;49;0;5
4778;49;0;5
4779;49;0;5
4780;49;0;5
4781;48;0;5
4782;49;0;5
4783;49;0;5
4784;49;0;5
4785;49;0;5
4786;49;0;5
4787;49;0;5
4788;49;0;5
4789;49;0;5
4790;48;0;5
4791;48;0;5
4792;48;0;5
4793;48;0;5
4794;48;0;5
4795;48;0;5
4796;48;0;5
4797;48;0;5
4798;48;0;5
4799;48;0;5
4800;48;0;5
4801;48;0;5
4802;48;0;5
4803;48;0;5
4804;48;0;5
4805;48;0;5
4806;48;0;5
4807;49;0;5
4808;49;0;5
4809;49;0;5
4810;49;0;5
4811;49;0;5
4812;49;0;5
4813;49;0;5
4814;49;0;5
4815;49;0;5
4816;49;0;5
4817;49;0;5
4818;49;0;5
4819;49;0;5
4820;49;0;5
4821;49;0;5
4822;49;0;5
4823;49;0;5
4824;49;0;5
4825;49;0;5
4826;48;0;5
4827;48;0;5
4828;48;0;5
4829;48;0;5
4830;48;0;5
4831;48;0;5
4832;48;0;5
4833;48;0;5
4834;48;0;5
4835;48;0;5
4836;48;0;5
4837;48;0;5
4838;48;0;5
4839;48;0;5
4840;48;0;5
4841;48;0;5
4842;48;0;5
4843;47;0;5
4844;47;0;5
4845;47;0;5
4846;47;0;5
4847;47;0;5
4848;47;0;5
4849;47;0;5
4850;47;0;5
4851;48;0;5
4852;48;0;5
4853;48;0;5
4854;48;0;5
4855;48;0;5
4856;48;0;5
4857;48;0;5
4858;48;0;5
4859;48;0;5
4860;48;0;5
4861;48;0;5
4862;47;0;5
4863;47;0;5
4864;47;0;5
4865;47;0;5
4866;47;0;5
4867;47;0;5
4868;47;0;5
4869;47;0;5
4870;47;0;5
4871;47;0;5
4872;47;0;5
4873;47;0;5
4874;47;0;5
4875;47;0;5
4876;47;0;5
4877;47;0;5
4878;47;0;5
4879;47;0;5
4880;47;0;5
4881;47;0;5
4882;47;0;5
4883;47;0;5
4884;47;0;5
4885;47;0;5
4886;47;0;5
4887;47;0;5
4888;47;0;5
4889;47;0;5
4890;47;0;5
4891;47;0;5
4892;47;0;5
4893;47;0;5
4894;47;0;5
4895;47;0;5
4896;47;0;5
4897;47;0;5
4898;47;0;5
4899;47;0;5
4900;47;0;5
4901;47;0;5
4902;47;0;5
4903;47;0;5
4904;47;0;5
4905;47;0;5
4906;47;0;5
4907;47;0;5
4908;47;0;5
4909;47;0;5
4910;47;0;5
4911;47;0;5
4912;47;0;5
4913;47;0;5
4914;47;0;5
4915;47;0;5
4916;47;0;5
4917;47;0;5
4918;47;0;5
4919;47;0;5
4920;47;0;5
4921;47;0;5
4922;47;0;5
4923;47;0;5
4924;47;0;5
4925;47;0;5
4926;47;0;5
4927;47;0;5
4928;47;0;5
4929;47;0;5
4930;47;0;5
4931;47;0;5
4932;47;0;5
4933;47;0;5
4934;47;0;5
4935;47;0;5
4936;47;0;5
4937;46;0;5
4938;46;0;5
4939;46;0;5
4940;46;0;5
4941;46;0;5
4942;46;0;5
4943;46;0;5
4944;47;0;5
4945;47;0;5
4946;47;0;5
4947;47;0;5
4948;48;0;5
4949;48;0;5
4950;47;0;5
4951;48;0;5
4952;48;0;5
4953;48;0;5
4954;48;0;5
4955;47;0;5
4956;48;0;5
4957;48;0;5
4958;48;0;5
4959;48;0;5
4960;48;0;5
4961;48;0;5
4962;48;0;5
4963;48;0;5
4964;48;0;5
4965;48;0;5
4966;48;0;5
4967;48;0;5
4968;48;0;5
4969;48;0;5
4970;48;0;5
4971;47;0;5
4972;47;0;5
4973;47;0;5
4974;47;0;5
4975;47;0;5
4976;47;0;5
4977;47;0;5
4978;47;0;5
4979;47;0;5
4980;47;0;5
4981;47;0;5
4982;47;0;5
4983;47;0;5
4984;47;0;5
4985;47;0;5
4986;47;0;5
4987;47;0;5
4988;47;0;5
4989;47;0;5
4990;47;0;5
4991;47;0;5
4992;47;0;5
4993;47;0;5
4994;46;0;5
4995;46;0;5
4996;46;0;5
4997;46;0;5
4998;46;0;5
4999;47;0;5
5000;47;0;5
5001;47;0;5
5002;47;0;5
5003;47;0;5
5004;47;0;5
5005;47;0;5
5006;47;0;5
5007;47;0;5
5008;47;0;5
5009;47;0;5
5010;47;0;5
5011;47;0;5
5012;47;0;5
5013;47;0;5
5014;47;0;5
5015;47;0;5
5016;47;0;5
5017;47;0;5
5018;47;0;5
5019;47;0;5
5020;47;0;5
5021;47;0;5
5022;47;0;5
5023;46;0;5
5024;46;0;5
5025;46;0;5
5026;46;0;5
5027;46;0;5
5028;46;0;5
5029;46;0;5
5030;46;0;5
5031;46;0;5
5032;46;0;5
5033;46;0;5
5034;46;0;5
5035;46;0;5
5036;46;0;5
5037;46;0;5
5038;46;0;5
5039;46;0;5
5040;46;0;5
5041;46;0;5
5042;46;0;5
5043;46;0;5
5044;46;0;5
5045;46;0;5
5046;46;0;5
5047;46;0;5
5048;46;0;5
5049;46;0;5
5050;46;0;5
5051;46;0;5
5052;46;0;5
5053;46;0;5
5054;46;0;5
5055;46;0;5
5056;46;0;5
5057;46;0;5
5058;46;0;5
5059;46;0;5
5060;46;0;5
5061;46;0;5
5062;46;0;5
5063;46;0;5
5064;46;0;5
5065;46;0;5
5066;46;0;5
5067;46;0;5
5068;46;0;5
5069;46;0;5
5070;46;0;5
5071;48;0;5
5072;46;0;5
5073;46;0;5
5074;46;0;5
5075;46;0;5
5076;47;0;5
5077;46;0;5
5078;47;0;5
5079;48;0;5
5080;49;0;5
5081;48;0;5
5082;48;0;5
5083;48;0;5
5084;48;0;5
5085;48;0;5
5086;48;0;5
5087;48;0;5
5088;48;0;5
5089;48;0;5
5090;48;0;5
5091;49;0;5
5092;49;0;5
5093;49;0;5
5094;49;0;5
5095;49;0;5
5096;49;0;5
5097;49;0;5
5098;49;0;5
5099;48;0;5
5100;48;0;5
5101;48;0;5
5102;48;0;5
5103;48;0;5
5104;47;0;5
5105;47;0;5
5106;47;0;5
5107;47;0;5
5108;47;0;5
5109;47;0;5
5110;47;0;5
5111;47;0;5
5112;47;0;5
5113;47;0;5
5114;47;0;5
5115;47;0;5
5116;47;0;5
5117;47;0;5
5118;46;0;5
5119;46;0;5
5120;46;0;5
5121;46;0;5
5122;46;0;5
5123;46;0;5
5124;46;0;5
5125;46;0;5
5126;46;0;5
5127;46;0;5
5128;46;0;5
5129;46;0;5
5130;46;0;5
5131;46;0;5
5132;46;0;5
5133;46;0;5
5134;46;0;5
5135;46;0;5
5136;46;0;5
5137;46;0;5
5138;46;0;5
5139;46;0;5
5140;46;0;5
5141;46;0;5
5142;46;0;5
5143;46;0;5
5144;46;0;5
5145;46;0;5
5146;46;0;5
5147;46;0;5
5148;46;0;5
5149;46;0;5
5150;46;0;5
5151;46;0;5
5152;46;0;5
5153;46;0;5
5154;46;0;5
5155;46;0;5
5156;46;0;5
5157;46;0;5
5158;46;0;5
5159;46;0;5
5160;46;0;5
5161;46;0;5
5162;46;0;5
5163;46;0;5
5164;46;0;5
5165;46;0;5
5166;46;0;5
5167;46;0;5
5168;46;0;5
5169;46;0;5
5170;46;0;5
5171;46;0;5
5172;46;0;5
5173;46;0;5
5174;46;0;5
5175;46;0;5
5176;46;0;5
5177;46;0;5
5178;45;0;5
5179;45;0;5
5180;45;0;5
5181;45;0;5
5182;45;0;5
5183;45;0;5
5184;45;0;5
5185;45;0;5
5186;45;0;5
5187;45;0;5
5188;45;0;5
5189;45;0;5
5190;45;0;5
5191;45;0;5
5192;45;0;5
5193;45;0;5
5194;45;0;5
5195;45;0;5
5196;45;0;5
5197;46;0;5
5198;46;0;5
5199;46;0;5
5200;46;0;5
5201;46;0;5
5202;46;0;5
5203;46;0;5
5204;46;0;5
5205;46;0;5
5206;46;0;5
5207;46;0;5
5208;46;0;5
5209;46;0;5
5210;46;0;5
5211;46;0;5
5212;46;0;5
5213;46;0;5
5214;46;0;5
5215;46;0;5
5216;46;0;5
5217;46;0;5
5218;46;0;5
5219;46;0;5
5220;46;0;5
5221;47;0;5
5222;48;0;5
5223;47;0;5
5224;47;0;5
5225;47;0;5
5226;48;0;5
5227;47;0;5
5228;47;0;5
5229;47;0;5
5230;47;0;5
5231;47;0;5
5232;47;0;5
5233;47;0;5
5234;47;0;5
5235;47;0;5
5236;47;0;5
5237;47;0;5
5238;47;0;5
5239;47;0;5
5240;47;0;5
5241;47;0;5
5242;47;0;5
5243;47;0;5
5244;47;0;5
5245;47;0;5
5246;47;0;5
5247;47;0;5
5248;46;0;5
5249;46;0;5
5250;46;0;5
5251;46;0;5
5252;46;0;5
5253;46;0;5
5254;46;0;5
5255;46;0;5
5256;47;0;5
5257;47;0;5
5258;47;0;5
5259;47;0;5
5260;47;0;5
5261;46;0;5
5262;46;0;5
5263;46;0;5
5264;46;0;5
5265;46;0;5
5266;46;0;5
5267;45;0;5
5268;45;0;5
5269;45;0;5
5270;45;0;5
5271;45;0;5
5272;45;0;5
5273;45;0;5
5274;45;0;5
5275;46;0;5
5276;46;0;5
5277;46;0;5
5278;45;0;5
5279;45;0;5
5280;45;0;5
5281;45;0;5
5282;45;0;5
5283;45;0;5
5284;45;0;5
5285;45;0;5
5286;46;0;5
5287;46;0;5
5288;46;0;5
5289;45;0;5
5290;46;0;5
5291;45;0;5
5292;44;0;5
5293;45;0;5
5294;45;0;5
5295;45;0;5
5296;45;0;5
5297;46;0;5
5298;45;0;5
5299;45;0;5
5300;46;0;5
5301;46;0;5
5302;46;0;5
5303;46;0;5
5304;46;0;5
5305;46;0;5
5306;46;0;5
5307;46;0;5
5308;46;0;5
5309;46;0;5
5310;46;0;5
5311;46;0;5
5312;46;0;5
5313;46;0;5
5314;46;0;5
5315;46;0;5
5316;46;0;5
5317;46;0;5
5318;46;0;5
5319;46;0;5
5320;46;0;5
5321;46;0;5
5322;46;0;5
5323;46;0;5
5324;46;0;5
5325;46;0;5
5326;46;0;5
5327;46;0;5
5328;46;0;5
5329;46;0;5
5330;46;0;5
5331;46;0;5
5332;46;0;5
5333;46;0;5
5334;47;0;5
5335;46;0;5
5336;46;0;5
5337;47;0;5
5338;46;0;5
5339;47;0;5
5340;47;0;5
5341;47;0;5
5342;47;0;5
5343;46;0;5
5344;47;0;5
5345;47;0;5
5346;47;0;5
5347;46;0;5
5348;47;0;5
5349;47;0;5
5350;47;0;5
5351;47;0;5
5352;47;0;5
5353;47;0;5
5354;47;0;5
5355;48;0;5
5356;48;0;5
5357;48;0;5
5358;48;0;5
5359;48;0;5
5360;47;0;5
5361;47;0;5
5362;47;0;5
5363;47;0;5
5364;47;0;5
5365;47;0;5
5366;47;0;5
5367;47;0;5
5368;47;0;5
5369;47;0;5
5370;47;0;5
5371;47;0;5
5372;47;0;5
5373;47;0;5
5374;47;0;5
5375;47;0;5
5376;47;0;5
5377;47;0;5
5378;47;0;5
5379;47;0;5
5380;47;0;5
5381;47;0;5
5382;49;0;5
5383;49;0;5
5384;49;0;5
5385;48;0;5
5386;49;0;5
5387;48;0;5
5388;48;0;5
5389;49;0;5
5390;49;0;5
5391;50;0;5
5392;49;0;5
5393;48;0;5
5394;49;0;5
5395;48;0;5
5396;49;0;5
5397;50;0;5
5398;49;0;5
5399;49;0;5
5400;48;0;5
5401;48;0;5
5402;48;0;5
5403;48;0;5
5404;48;0;5
5405;49;0;5
5406;49;0;5
5407;49;0;5
5408;48;0;5
5409;48;0;5
5410;48;0;5
5411;49;0;5
5412;49;0;5
5413;49;0;5
5414;49;0;5
5415;49;0;5
5416;49;0;5
5417;49;0;5
5418;49;0;5
5419;49;0;5
5420;49;0;5
5421;49;0;5
5422;48;0;5
5423;49;0;5
5424;48;0;5
5425;49;0;5
5426;48;0;5
5427;49;0;5
5428;49;0;5
5429;48;0;5
5430;48;0;5
5431;48;0;5
5432;49;0;5
5433;49;0;5
5434;49;0;5
5435;48;0;5
5436;49;0;5
5437;49;0;5
5438;49;0;5
5439;49;0;5
5440;49;0;5
5441;49;0;5
5442;50;0;5
5443;50;0;5
5444;49;0;5
5445;50;0;5
5446;50;0;5
5447;50;0;5
5448;50;0;5
5449;50;0;5
5450;50;0;5
5451;50;0;5
5452;50;0;5
5453;50;0;5
5454;50;0;5
5455;50;0;5
5456;50;0;5
5457;50;0;5
5458;50;0;5
5459;50;0;5
5460;50;0;5
5461;50;0;5
5462;50;0;5
5463;50;0;5
5464;50;0;5
5465;50;0;5
5466;50;0;5
5467;50;0;5
5468;50;0;5
5469;50;0;5
5470;50;0;5
5471;50;0;5
5472;50;0;5
5473;50;0;5
5474;50;0;5
5475;51;0;5
5476;51;0;5
5477;51;0;5
5478;51;0;5
5479;50;0;5
5480;51;0;5
5481;51;0;5
5482;51;0;5
5483;51;0;5
5484;51;0;5
5485;51;0;5
5486;51;0;5
5487;51;0;5
5488;50;0;5
5489;50;0;5
5490;50;0;5
5491;50;0;5
5492;50;0;5
5493;50;0;5
5494;50;0;5
5495;50;0;5
5496;50;0;5
5497;50;0;5
5498;50;0;5
5499;50;0;5
5500;50;0;5
5501;50;0;5
5502;50;0;5
5503;50;0;5
5504;50;0;5
5505;50;0;5
5506;50;0;5
5507;50;0;5
5508;50;0;5
5509;50;0;5
5510;50;0;5
5511;50;0;5
5512;50;0;5
5513;50;0;5
5514;50;0;5
5515;50;0;5
5516;50;0;5
5517;49;0;5
5518;50;0;5
5519;50;0;5
5520;49;0;5
5521;50;0;5
5522;50;0;5
5523;49;0;5
5524;50;0;5
5525;50;0;5
5526;51;0;5
5527;51;0;5
5528;51;0;5
5529;50;0;5
5530;50;0;5
5531;50;0;5
5532;50;0;5
5533;50;0;5
5534;50;0;5
5535;51;0;5
5536;51;0;5
5537;50;0;5
5538;50;0;5
5539;50;0;5
5540;50;0;5
5541;50;0;5
5542;50;0;5
5543;50;0;5
5544;50;0;5
5545;50;0;5
5546;50;0;5
5547;50;0;5
5548;50;0;5
5549;50;0;5
5550;50;0;5
5551;50;0;5
5552;50;0;5
5553;50;0;5
5554;50;0;5
5555;50;0;5
5556;50;0;5
5557;50;0;5
5558;50;0;5
5559;50;0;5
5560;50;0;5
5561;50;0;5
5562;50;0;5
5563;50;0;5
5564;50;0;5
5565;50;0;5
5566;50;0;5
5567;50;0;5
5568;50;0;5
5569;50;0;5
5570;50;0;5
5571;50;0;5
5572;50;0;5
5573;50;0;5
5574;50;0;5
5575;50;0;5
5576;50;0;5
5577;50;0;5
5578;50;0;5
5579;51;0;5
5580;51;0;5
5581;51;0;5
5582;51;0;5
5583;51;0;5
5584;51;0;5
5585;51;0;5
5586;51;0;5
5587;51;0;5
5588;51;0;5
5589;51;0;5
5590;51;0;5
5591;51;0;5
5592;51;0;5
5593;51;0;5
5594;51;0;5
5595;51;0;5
5596;51;0;5
5597;51;0;5
5598;51;0;5
5599;51;0;5
5600;51;0;5
5601;51;0;5
5602;51;0;5
5603;51;0;5
5604;51;0;5
5605;51;0;5
5606;50;0;5
5607;50;0;5
5608;50;0;5
5609;50;0;5
5610;50;0;5
5611;50;0;5
5612;50;0;5
5613;50;0;5
5614;50;0;5
5615;50;0;5
5616;50;0;5
5617;50;0;5
5618;50;0;5
5619;50;0;5
5620;50;0;5
5621;50;0;5
5622;50;0;5
5623;50;0;5
5624;50;0;5
5625;50;0;5
5626;50;0;5
5627;50;0;5
5628;50;0;5
5629;50;0;5
5630;50;0;5
5631;50;0;5
5632;50;0;5
5633;50;0;5
5634;50;0;5
5635;50;0;5
5636;50;0;5
5637;50;0;5
5638;50;0;5
5639;50;0;5
5640;50;0;5
5641;50;0;5
5642;50;0;5
5643;50;0;5
5644;50;0;5
5645;50;0;5
5646;50;0;5
5647;50;0;5
5648;50;0;5
5649;50;0;5
5650;51;0;5
5651;51;0;5
5652;51;0;5
5653;51;0;5
5654;51;0;5
5655;51;0;5
5656;51;0;5
5657;51;0;5
5658;51;0;5
5659;52;0;5
5660;52;0;5
5661;52;0;5
5662;52;0;5
5663;52;0;5
5664;52;0;5
5665;52;0;5
5666;52;0;5
5667;52;0;5
5668;52;0;5
5669;52;0;5
5670;52;0;5
5671;52;0;5
5672;52;0;5
5673;52;0;5
5674;52;0;5
5675;52;0;5
5676;52;0;5
5677;52;0;5
5678;51;0;5
5679;52;0;5
5680;52;0;5
5681;52;0;5
5682;52;0;5
5683;52;0;5
5684;52;0;5
5685;52;0;5
5686;52;0;5
5687;52;0;5
5688;52;0;5
5689;52;0;5
5690;52;0;5
5691;52;0;5
5692;52;0;5
5693;52;0;5
5694;52;0;5
5695;52;0;5
5696;51;0;5
5697;51;0;5
5698;51;0;5
5699;51;0;5
5700;51;0;5
5701;51;0;5
5702;51;0;5
5703;51;0;5
5704;51;0;5
5705;51;0;5
5706;51;0;5
5707;51;0;5
5708;51;0;5
5709;51;0;5
5710;51;0;5
5711;51;0;5
5712;51;0;5
5713;52;0;5
5714;51;0;5
5715;50;0;5
5716;50;0;5
5717;49;0;5
5718;50;0;5
5719;50;0;5
5720;50;0;5
5721;50;0;5
5722;50;0;5
5723;51;0;5
5724;51;0;5
5725;50;0;5
5726;51;0;5
5727;51;0;5
5728;51;0;5
5729;49;0;5
5730;49;0;5
5731;50;0;5
5732;50;0;5
5733;50;0;5
5734;50;0;5
5735;50;0;5
5736;49;0;5
5737;51;0;5
5738;49;0;5
5739;50;0;5
5740;50;0;5
5741;49;0;5
5742;49;0;5
5743;51;0;5
5744;49;0;5
5745;50;0;5
5746;51;0;5
5747;51;0;5
5748;51;0;5
5749;51;0;5
5750;50;0;5
5751;52;0;5
5752;52;0;5
5753;52;0;5
5754;52;0;5
5755;52;0;5
5756;52;0;5
5757;52;0;5
5758;52;0;5
5759;52;0;5
5760;52;0;5
5761;52;0;5
5762;52;0;5
5763;52;0;5
5764;52;0;5
5765;52;0;5
5766;52;0;5
5767;52;0;5
5768;52;0;5
5769;52;0;5
5770;52;0;5
5771;52;0;5
5772;52;0;5
5773;52;0;5
5774;52;0;5
5775;52;0;5
5776;52;0;5
5777;52;0;5
5778;51;0;5
5779;50;0;5
5780;50;0;5
5781;50;0;5
5782;50;0;5
5783;50;0;5
5784;50;0;5
5785;51;0;5
5786;51;0;5
5787;50;0;5
5788;50;0;5
5789;51;0;5
5790;51;0;5
5791;51;0;5
5792;51;0;5
5793;51;0;5
5794;51;0;5
5795;51;0;5
5796;51;0;5
5797;51;0;5
5798;51;0;5
5799;51;0;5
5800;51;0;5
5801;51;0;5
5802;51;0;5
5803;50;0;5
5804;50;0;5
5805;51;0;5
5806;51;0;5
5807;51;0;5
5808;51;0;5
5809;51;0;5
5810;50;0;5
5811;50;0;5
5812;50;0;5
5813;50;0;5
5814;50;0;5
5815;50;0;5
5816;50;0;5
5817;50;0;5
5818;50;0;5
5819;50;0;5
5820;50;0;5
5821;50;0;5
5822;50;0;5
5823;50;0;5
5824;50;0;5
5825;50;0;5
5826;50;0;5
5827;50;0;5
5828;50;0;5
5829;50;0;5
5830;50;0;5
5831;50;0;5
5832;50;0;5
5833;51;0;5
5834;50;0;5
5835;50;0;5
5836;50;0;5
5837;50;0;5
5838;50;0;5
5839;50;0;5
5840;50;0;5
5841;50;0;5
5842;50;0;5
5843;50;0;5
5844;51;0;5
5845;51;0;5
5846;51;0;5
5847;51;0;5
5848;50;0;5
5849;50;0;5
5850;50;0;5
5851;50;0;5
5852;50;0;5
5853;50;0;5
5854;50;0;5
5855;50;0;5
5856;50;0;5
5857;50;0;5
5858;50;0;5
5859;50;0;5
5860;50;0;5
5861;50;0;5
5862;50;0;5
5863;50;0;5
5864;49;0;5
5865;49;0;5
5866;49;0;5
5867;49;0;5
5868;49;0;5
5869;50;0;5
5870;50;0;5
5871;50;0;5
5872;50;0;5
5873;50;0;5
5874;50;0;5
5875;50;0;5
5876;50;0;5
5877;50;0;5
5878;51;0;5
5879;50;0;5
5880;51;0;5
5881;51;0;5
5882;51;0;5
5883;51;0;5
5884;50;0;5
5885;51;0;5
5886;51;0;5
5887;51;0;5
5888;51;0;5
5889;51;0;5
5890;50;0;5
5891;50;0;5
5892;50;0;5
5893;50;0;5
5894;50;0;5
5895;50;0;5
5896;50;0;5
5897;50;0;5
5898;50;0;5
5899;50;0;5
5900;50;0;5
5901;50;0;5
5902;50;0;5
5903;50;0;5
5904;50;0;5
5905;50;0;5
5906;50;0;5
5907;50;0;5
5908;50;0;5
5909;50;0;5
5910;50;0;5
5911;50;0;5
5912;50;0;5
5913;50;0;5
5914;50;0;5
5915;50;0;5
5916;50;0;5
5917;50;0;5
5918;50;0;5
5919;50;0;5
5920;50;0;5
5921;50;0;5
5922;50;0;5
5923;50;0;5
5924;50;0;5
5925;50;0;5
5926;50;0;5
5927;50;0;5
5928;50;0;5
5929;50;0;5
5930;50;0;5
5931;50;0;5
5932;50;0;5
5933;50;0;5
5934;50;0;5
5935;50;0;5
5936;50;0;5
5937;50;0;5
5938;50;0;5
5939;50;0;5
5940;50;0;5
5941;50;0;5
5942;50;0;5
5943;50;0;5
5944;50;0;5
5945;50;0;5
5946;50;0;5
5947;50;0;5
5948;50;0;5
5949;50;0;5
5950;50;0;5
5951;50;0;5
5952;50;0;5
5953;49;0;5
5954;49;0;5
5955;49;0;5
5956;49;0;5
5957;49;0;5
5958;49;0;5
5959;49;0;5
5960;49;0;5
5961;49;0;5
5962;49;0;5
5963;49;0;5
5964;49;0;5
5965;48;0;5
5966;48;0;5
5967;48;0;5
5968;48;0;5
5969;48;0;5
5970;48;0;5
5971;48;0;5
5972;48;0;5
5973;48;0;5
5974;48;0;5
5975;48;0;5
5976;48;0;5
5977;48;0;5
5978;47;0;5
5979;47;0;5
5980;47;0;5
5981;47;0;5
5982;47;0;5
5983;47;0;5
5984;47;0;5
5985;47;0;5
5986;47;0;5
5987;47;0;5
5988;47;0;5
5989;46;0;5
5990;46;0;5
5991;46;0;5
5992;46;0;5
5993;46;0;5
5994;46;0;5
5995;46;0;5
5996;46;0;5
5997;46;0;5
5998;46;0;5
5999;46;0;5
6000;46;0;5
6001;46;0;5
6002;46;0;5
6003;46;0;5
6004;46;0;5
6005;46;0;5
6006;46;0;5
6007;46;0;5
6008;46;0;5
6009;46;0;5
6010;46;0;5
6011;46;0;5
6012;46;0;5
6013;46;0;5
6014;46;0;5
6015;46;0;5
6016;46;0;5
6017;46;0;5
6018;46;0;5
6019;46;0;5
6020;46;0;5
6021;46;0;5
6022;46;0;5
6023;46;0;5
6024;46;0;5
6025;46;0;5
6026;46;0;5
6027;46;0;5
6028;46;0;5
6029;46;0;5
6030;47;0;5
6031;47;0;5
6032;46;0;5
6033;46;0;5
6034;46;0;5
6035;46;0;5
6036;46;0;5
6037;46;0;5
6038;46;0;5
6039;46;0;5
6040;46;0;5
6041;46;0;5
6042;46;0;5
6043;46;0;5
6044;46;0;5
6045;45;0;5
6046;45;0;5
6047;45;0;5
6048;46;0;5
6049;45;0;5
6050;45;0;5
6051;46;0;5
6052;46;0;5
6053;46;0;5
6054;46;0;5
6055;46;0;5
6056;46;0;5
6057;47;0;5
6058;46;0;5
6059;46;0;5
6060;47;0;5
6061;46;0;5
6062;46;0;5
6063;46;0;5
6064;46;0;5
6065;47;0;5
6066;47;0;5
6067;47;0;5
6068;47;0;5
6069;47;0;5
6070;47;0;5
6071;47;0;5
6072;47;0;5
6073;47;0;5
6074;47;0;5
6075;47;0;5
6076;47;0;5
6077;47;0;5
6078;47;0;5
6079;47;0;5
6080;47;0;5
6081;47;0;5
6082;47;0;5
6083;47;0;5
6084;47;0;5
6085;47;0;5
6086;47;0;5
6087;47;0;5
6088;47;0;5
6089;47;0;5
6090;47;0;5
6091;47;0;5
6092;47;0;5
6093;47;0;5
6094;48;0;5
6095;47;0;5
6096;48;0;5
6097;48;0;5
6098;48;0;5
6099;47;0;5
6100;48;0;5
6101;48;0;5
6102;48;0;5
6103;48;0;5
6104;48;0;5
6105;48;0;5
6106;48;0;5
6107;48;0;5
6108;48;0;5
6109;48;0;5
6110;48;0;5
6111;47;0;5
6112;47;0;5
6113;47;0;5
6114;47;0;5
6115;47;0;5
6116;47;0;5
6117;47;0;5
6118;47;0;5
6119;46;0;5
6120;46;0;5
6121;46;0;5
6122;47;0;5
6123;46;0;5
6124;47;0;5
6125;47;0;5
6126;47;0;5
6127;47;0;5
6128;46;0;5
6129;46;0;5
6130;46;0;5
6131;46;0;5
6132;46;0;5
6133;46;0;5
6134;46;0;5
6135;46;0;5
6136;45;0;5
6137;46;0;5
6138;46;0;5
6139;46;0;5
6140;46;0;5
6141;46;0;5
6142;46;0;5
6143;46;0;5
6144;46;0;5
6145;46;0;5
6146;46;0;5
6147;46;0;5
6148;46;0;5
6149;47;0;5
6150;48;0;5
6151;47;0;5
6152;47;0;5
6153;47;0;5
6154;47;0;5
6155;47;0;5
6156;46;0;5
6157;47;0;5
6158;48;0;5
6159;47;0;5
6160;47;0;5
6161;47;0;5
6162;47;0;5
6163;47;0;5
6164;47;0;5
6165;47;0;5
6166;47;0;5
6167;47;0;5
6168;47;0;5
6169;47;0;5
6170;47;0;5
6171;46;0;5
6172;46;0;5
6173;46;0;5
6174;47;0;5
6175;47;0;5
6176;48;0;5
6177;48;0;5
6178;48;0;5
6179;46;0;5
6180;47;0;5
6181;46;0;5
6182;46;0;5
6183;46;0;5
6184;47;0;5
6185;48;0;5
6186;47;0;5
6187;47;0;5
6188;47;0;5
6189;45;0;5
6190;45;0;5
6191;45;0;5
6192;45;0;5
6193;45;0;5
6194;45;0;5
6195;45;0;5
6196;45;0;5
6197;46;0;5
6198;46;0;5
6199;46;0;5
6200;46;0;5
6201;46;0;5
6202;47;0;5
6203;47;0;5
6204;46;0;5
6205;48;0;5
6206;49;0;5
6207;47;0;5
6208;47;0;5
6209;47;0;5
6210;48;0;5
6211;48;0;5
6212;48;0;5
6213;48;0;5
6214;48;0;5
6215;47;0;5
6216;48;0;5
6217;48;0;5
6218;49;0;5
6219;47;0;5
6220;46;0;5
6221;47;0;5
6222;46;0;5
6223;47;0;5
6224;47;0;5
6225;47;0;5
6226;47;0;5
6227;47;0;5
6228;48;0;5
6229;48;0;5
6230;48;0;5
6231;47;0;5
6232;49;0;5
6233;49;0;5
6234;49;0;5
6235;50;0;5
6236;48;0;5
6237;49;0;5
6238;49;0;5
6239;49;0;5
6240;50;0;5
6241;49;0;5
6242;48;0;5
6243;49;0;5
6244;49;0;5
6245;49;0;5
6246;50;0;5
6247;49;0;5
6248;49;0;5
6249;50;0;5
6250;50;0;5
6251;50;0;5
6252;50;0;5
6253;49;0;5
6254;49;0;5
6255;50;0;5
6256;51;0;5
6257;51;0;5
6258;51;0;5
6259;51;0;5
6260;51;0;5
6261;51;0;5
6262;51;0;5
6263;51;0;5
6264;51;0;5
6265;51;0;5
6266;51;0;5
6267;51;0;5
6268;51;0;5
6269;51;0;5
6270;50;0;5
6271;50;0;5
6272;51;0;5
6273;51;0;5
6274;51;0;5
6275;51;0;5
6276;51;0;5
6277;51;0;5
6278;51;0;5
6279;51;0;5
6280;51;0;5
6281;51;0;5
6282;51;0;5
6283;51;0;5
6284;51;0;5
6285;51;0;5
6286;51;0;5
6287;51;0;5
6288;50;0;5
6289;50;0;5
6290;50;0;5
6291;50;0;5
6292;50;0;5
6293;50;0;5
6294;50;0;5
6295;50;0;5
6296;49;0;5
6297;48;0;5
6298;48;0;5
6299;48;0;5
6300;48;0;5
6301;48;0;5
6302;48;0;5
6303;48;0;5
6304;48;0;5
6305;48;0;5
6306;48;0;5
6307;48;0;5
6308;48;0;5
6309;48;0;5
6310;48;0;5
6311;48;0;5
6312;48;0;5
6313;48;0;5
6314;48;0;5
6315;48;0;5
6316;48;0;5
6317;48;0;5
6318;48;0;5
6319;48;0;5
6320;48;0;5
6321;48;0;5
6322;48;0;5
6323;48;0;5
6324;48;0;5
6325;48;0;5
6326;48;0;5
6327;48;0;5
6328;48;0;5
6329;48;0;5
6330;48;0;5
6331;48;0;5
6332;48;0;5
6333;48;0;5
6334;48;0;5
6335;49;0;5
6336;48;0;5
6337;48;0;5
6338;49;0;5
6339;49;0;5
6340;50;0;5
6341;49;0;5
6342;49;0;5
6343;49;0;5
6344;49;0;5
6345;49;0;5
6346;50;0;5
6347;50;0;5
6348;50;0;5
6349;50;0;5
6350;50;0;5
6351;50;0;5
6352;51;0;5
6353;50;0;5
6354;51;0;5
6355;51;0;5
6356;50;0;5
6357;50;0;5
6358;50;0;5
6359;51;0;5
6360;51;0;5
6361;50;0;5
6362;49;0;5
6363;50;0;5
6364;50;0;5
6365;50;0;5
6366;50;0;5
6367;49;0;5
6368;49;0;5
6369;49;0;5
6370;52;0;5
6371;52;0;5
6372;52;0;5
6373;51;0;5
6374;51;0;5
6375;52;0;5
6376;53;0;5
6377;52;0;5
6378;52;0;5
6379;51;0;5
6380;51;0;5
6381;52;0;5
6382;52;0;5
6383;53;0;5
6384;52;0;5
6385;53;0;5
6386;53;0;5
6387;53;0;5
6388;52;0;5
6389;54;0;5
6390;53;0;5
6391;54;0;5
6392;52;0;5
6393;51;0;5
6394;53;0;5
6395;52;0;5
6396;53;0;5
6397;54;0;5
6398;54;0;5
6399;54;0;5
6400;55;0;5
6401;55;0;5
6402;55;0;5
6403;55;0;5
6404;55;0;5
6405;55;0;5
6406;56;0;5
6407;56;0;5
6408;56;0;5
6409;56;0;5
6410;56;0;5
6411;56;0;5
6412;56;0;5
6413;56;0;5
6414;56;0;5
6415;56;0;5
6416;56;0;5
6417;56;0;5
6418;56;0;5
6419;55;0;5
6420;55;0;5
6421;55;0;5
6422;55;0;5
6423;55;0;5
6424;55;0;5
6425;55;0;5
6426;55;0;5
6427;55;0;5
6428;55;0;5
6429;55;0;5
6430;55;0;5
6431;55;0;5
6432;55;0;5
6433;55;0;5
6434;55;0;5
6435;55;0;5
6436;55;0;5
6437;55;0;5
6438;55;0;5
6439;54;0;5
6440;54;0;5
6441;54;0;5
6442;54;0;5
6443;54;0;5
6444;55;0;5
6445;54;0;5
6446;54;0;5
6447;53;0;5
6448;54;0;5
6449;54;0;5
6450;55;0;5
6451;54;0;5
6452;55;0;5
6453;55;0;5
6454;55;0;5
6455;55;0;5
6456;55;1;5
6457;53;0;5
6458;54;0;5
6459;54;0;5
6460;55;0;5
6461;55;0;5
6462;54;0;5
6463;55;0;5
6464;54;0;5
6465;54;0;5
6466;53;0;5
6467;54;0;5
6468;54;0;5
6469;55;0;5
6470;54;0;5
6471;54;0;5
6472;54;0;5
6473;54;0;5
6474;54;0;5
6475;54;0;5
6476;54;0;5
6477;54;0;5
6478;54;0;5
6479;55;0;5
6480;55;0;5
6481;55;0;5
6482;55;0;5
6483;55;0;5
6484;55;0;5
6485;55;0;5
6486;55;0;5
6487;54;0;5
6488;56;0;5
6489;55;0;5
6490;56;0;5
6491;55;0;5
6492;56;0;5
6493;55;0;5
6494;55;0;5
6495;55;0;5
6496;55;0;5
6497;54;0;5
6498;54;0;5
6499;54;0;5
6500;54;0;5
6501;54;0;5
6502;54;0;5
6503;54;0;5
6504;54;0;5
6505;54;0;5
6506;54;0;5
6507;54;0;5
6508;54;0;5
6509;54;0;5
6510;55;0;5
6511;55;0;5
6512;55;0;5
6513;55;0;5
6514;55;0;5
6515;55;0;5
6516;55;0;5
6517;55;0;5
6518;54;0;5
6519;54;0;5
6520;54;0;5
6521;54;0;5
6522;54;0;5
6523;54;0;5
6524;54;0;5
6525;54;0;5
6526;54;0;5
6527;55;0;5
6528;55;0;5
6529;54;0;5
6530;54;0;5
6531;54;0;5
6532;54;0;5
6533;54;0;5
6534;54;0;5
6535;54;0;5
6536;55;0;5
6537;54;0;5
6538;54;0;5
6539;54;0;5
6540;54;0;5
6541;54;0;5
6542;54;0;5
6543;54;0;5
6544;54;0;5
6545;54;0;5
6546;54;0;5
6547;53;0;5
6548;53;0;5
6549;53;0;5
6550;53;0;5
6551;53;0;5
6552;53;0;5
6553;53;0;5
6554;53;0;5
6555;53;0;5
6556;53;0;5
6557;53;0;5
6558;53;0;5
6559;53;0;5
6560;53;0;5
6561;53;0;5
6562;53;0;5
6563;53;0;5
6564;53;0;5
6565;53;0;5
6566;54;0;5
6567;53;0;5
6568;53;0;5
6569;53;0;5
6570;53;0;5
6571;52;0;5
6572;52;0;5
6573;52;0;5
6574;52;0;5
6575;52;0;5
6576;52;0;5
6577;52;0;5
6578;52;0;5
6579;52;0;5
6580;52;0;5
6581;52;0;5
6582;52;0;5
6583;52;0;5
6584;53;0;5
6585;52;0;5
6586;52;0;5
6587;52;0;5
6588;53;0;5
6589;53;0;5
6590;53;0;5
6591;53;0;5
6592;53;0;5
6593;53;0;5
6594;53;0;5
6595;53;0;5
6596;53;0;5
6597;53;0;5
6598;53;0;5
6599;53;0;5
6600;54;0;5
6601;55;0;5
6602;54;0;5
6603;55;0;5
6604;53;0;5
6605;53;0;5
6606;53;0;5
6607;52;0;5
6608;53;0;5
6609;53;0;5
6610;52;0;5
6611;53;0;5
6612;53;0;5
6613;53;0;5
6614;53;0;5
6615;53;0;5
6616;54;0;5
6617;54;0;5
6618;54;0;5
6619;54;0;5
6620;54;0;5
6621;54;0;5
6622;54;0;5
6623;54;0;5
6624;54;0;5
6625;54;0;5
6626;54;0;5
6627;54;0;5
6628;54;0;5
6629;54;0;5
6630;54;0;5
6631;53;0;5
6632;53;0;5
6633;53;0;5
6634;52;0;5
6635;52;0;5
6636;52;0;5
6637;52;0;5
6638;52;0;5
6639;52;0;5
6640;52;0;5
6641;52;0;5
6642;52;0;5
6643;52;0;5
6644;52;0;5
6645;52;0;5
6646;52;0;5
6647;52;0;5
6648;52;0;5
6649;52;0;5
6650;52;0;5
6651;52;0;5
6652;52;0;5
6653;52;0;5
6654;52;0;5
6655;52;0;5
6656;52;0;5
6657;52;0;5
6658;52;0;5
6659;52;0;5
6660;52;0;5
6661;52;0;5
6662;52;0;5
6663;52;0;5
6664;52;0;5
6665;52;0;5
6666;52;0;5
6667;52;0;5
6668;52;0;5
6669;52;0;5
6670;52;0;5
6671;52;0;5
6672;52;0;5
6673;52;0;5
6674;52;0;5
6675;52;0;5
6676;52;0;5
6677;52;0;5
6678;52;0;5
6679;52;0;5
6680;52;0;5
6681;52;0;5
6682;52;0;5
6683;52;0;5
6684;52;0;5
6685;52;0;5
6686;52;0;5
6687;52;0;5
6688;52;0;5
6689;52;0;5
6690;52;0;5
6691;51;0;5
6692;51;0;5
6693;51;0;5
6694;52;0;5
6695;52;0;5
6696;52;0;5
6697;52;0;5
6698;52;0;5
6699;52;0;5
6700;52;0;5
6701;52;0;5
6702;52;0;5
6703;52;0;5
6704;52;0;5
6705;52;0;5
6706;52;0;5
6707;52;0;5
6708;52;0;5
6709;52;0;5
6710;52;0;5
6711;52;0;5
6712;52;0;5
6713;52;0;5
6714;52;0;5
6715;52;0;5
6716;52;0;5
6717;53;0;5
6718;52;0;5
6719;52;0;5
6720;52;0;5
6721;52;0;5
6722;52;0;5
6723;52;0;5
6724;52;0;5
6725;53;0;5
6726;53;0;5
6727;53;0;5
6728;54;0;5
6729;54;0;5
6730;54;0;5
6731;54;0;5
6732;54;0;5
6733;54;0;5
6734;55;0;5
6735;54;0;5
6736;55;0;5
6737;53;0;5
6738;53;0;5
6739;53;0;5
6740;53;0;5
6741;53;0;5
6742;54;0;5
6743;53;0;5
6744;54;0;5
6745;54;0;5
6746;54;0;5
6747;54;0;5
6748;54;0;5
6749;54;0;5
6750;54;0;5
6751;54;0;5
6752;54;0;5
6753;54;0;5
6754;54;0;5
6755;54;0;5
6756;54;0;5
6757;54;0;5
6758;54;0;5
6759;54;0;5
6760;53;0;5
6761;53;0;5
6762;53;0;5
6763;53;0;5
6764;53;0;5
6765;53;0;5
6766;53;0;5
6767;53;0;5
6768;53;0;5
6769;53;0;5
6770;53;0;5
6771;53;0;5
6772;53;0;5
6773;53;0;5
6774;53;0;5
6775;53;0;5
6776;53;0;5
6777;53;0;5
6778;53;0;5
6779;53;0;5
6780;52;0;5
6781;52;0;5
6782;52;0;5
6783;52;0;5
6784;52;0;5
6785;52;0;5
6786;52;0;5
6787;52;0;5
6788;52;0;5
6789;53;0;5
6790;54;0;5
6791;53;0;5
6792;54;0;5
6793;54;0;5
6794;55;0;5
6795;54;0;5
6796;54;0;5
6797;55;0;5
6798;55;0;5
6799;55;0;5
6800;55;0;5
6801;55;0;5
6802;55;0;5
6803;55;0;5
6804;55;0;5
6805;55;0;5
6806;55;1;5
6807;54;0;5
6808;54;0;5
6809;54;0;5
6810;54;0;5
6811;54;0;5
6812;54;0;5
6813;54;0;5
6814;54;0;5
6815;54;0;5
6816;54;0;5
6817;54;0;5
6818;54;0;5
6819;54;0;5
6820;54;0;5
6821;54;0;5
6822;54;0;5
6823;54;0;5
6824;55;0;5
6825;55;0;5
6826;55;0;5
6827;55;0;5
6828;55;0;5
6829;55;0;5
6830;55;0;5
6831;55;0;5
6832;55;0;5
6833;55;0;5
6834;55;0;5
6835;55;0;5
6836;55;0;5
6837;55;0;5
6838;55;0;5
6839;55;0;5
6840;55;0;5
6841;55;0;5
6842;55;0;5
6843;55;0;5
6844;55;0;5
6845;55;0;5
6846;55;0;5
6847;55;0;5
6848;55;0;5
6849;55;0;5
6850;55;0;5
6851;55;0;5
6852;55;0;5
6853;55;0;5
6854;55;0;5
6855;56;0;5
6856;56;0;5
6857;55;0;5
6858;56;0;5
6859;55;0;5
6860;55;0;5
6861;55;0;5
6862;55;0;5
6863;57;0;5
6864;57;0;5
6865;57;0;5
6866;56;0;5
6867;55;0;5
6868;55;0;5
6869;56;0;5
6870;56;0;5
6871;56;0;5
6872;56;0;5
6873;56;0;5
6874;57;0;5
6875;57;0;5
6876;58;0;5
6877;57;0;5
6878;57;0;5
6879;56;0;5
6880;57;0;5
6881;58;0;5
6882;57;0;5
6883;58;0;5
6884;57;0;5
6885;57;0;5
6886;57;0;5
6887;57;0;5
6888;57;0;5
6889;58;0;5
6890;58;0;5
6891;58;0;5
6892;58;0;5
6893;59;0;5
6894;59;0;5
6895;59;0;5
6896;59;0;5
6897;59;0;5
6898;59;0;5
6899;59;0;5
6900;59;0;5
6901;59;0;5
6902;59;0;5
6903;59;0;5
6904;59;0;5
6905;59;0;5
6906;59;0;5
6907;59;0;5
6908;59;0;5
6909;59;0;5
6910;59;0;5
6911;59;0;5
6912;59;0;5
6913;59;0;5
6914;59;0;5
6915;59;0;5
6916;59;0;5
6917;59;0;5
6918;59;0;5
6919;59;0;5
6920;60;0;5
6921;60;0;5
6922;60;0;5
6923;60;0;5
6924;60;0;5
6925;60;0;5
6926;60;0;5
6927;60;0;5
6928;60;0;5
6929;60;0;5
6930;60;0;5
6931;60;0;5
6932;60;0;5
6933;60;0;5
6934;60;0;5
6935;60;0;5
6936;59;0;5
6937;59;0;5
6938;59;0;5
6939;59;0;5
6940;59;0;5
6941;59;0;5
6942;59;0;5
6943;59;0;5
6944;59;0;5
6945;59;0;5
6946;59;0;5
6947;59;0;5
6948;59;0;5
6949;59;0;5
6950;59;0;5
6951;59;0;5
6952;59;0;5
6953;59;0;5
6954;59;0;5
6955;59;0;5
6956;59;0;5
6957;59;0;5
6958;59;0;5
6959;59;0;5
6960;59;0;5
6961;59;0;5
6962;59;0;5
6963;59;0;5
6964;59;0;5
6965;59;0;5
6966;59;0;5
6967;59;0;5
6968;59;0;5
6969;59;0;5
6970;59;0;5
6971;59;0;5
6972;59;0;5
6973;59;0;5
6974;60;0;5
6975;60;0;5
6976;59;0;5
6977;61;0;5
6978;61;0;5
6979;60;0;5
6980;60;0;5
6981;60;0;5
6982;59;0;5
6983;59;0;5
6984;59;0;5
6985;59;0;5
6986;59;0;5
6987;58;0;5
6988;58;0;5
6989;59;0;5
6990;59;0;5
6991;59;0;5
6992;59;0;5
6993;60;0;5
6994;59;0;5
6995;60;0;5
6996;60;0;5
6997;60;0;5
6998;60;0;5
6999;60;0;5
7000;60;0;5
