gen;sp;sim
0;1;7
1;1;7
2;1;7
3;1;7
4;1;7
5;1;7
6;1;7
7;1;7
8;1;7
9;1;7
10;1;7
11;1;7
12;1;7
13;1;7
14;1;7
15;1;7
16;1;7
17;1;7
18;1;7
19;1;7
20;1;7
21;1;7
22;1;7
23;1;7
24;1;7
25;1;7
26;1;7
27;1;7
28;1;7
29;1;7
30;1;7
31;1;7
32;1;7
33;1;7
34;1;7
35;1;7
36;1;7
37;1;7
38;1;7
39;1;7
40;1;7
41;1;7
42;1;7
43;1;7
44;1;7
45;1;7
46;1;7
47;1;7
48;1;7
49;1;7
50;1;7
51;1;7
52;1;7
53;1;7
54;1;7
55;1;7
56;1;7
57;1;7
58;1;7
59;1;7
60;1;7
61;1;7
62;1;7
63;1;7
64;1;7
65;1;7
66;1;7
67;1;7
68;1;7
69;1;7
70;1;7
71;1;7
72;1;7
73;1;7
74;1;7
75;1;7
76;1;7
77;1;7
78;1;7
79;1;7
80;1;7
81;1;7
82;1;7
83;1;7
84;1;7
85;1;7
86;1;7
87;1;7
88;1;7
89;1;7
90;1;7
91;1;7
92;1;7
93;1;7
94;1;7
95;1;7
96;1;7
97;1;7
98;1;7
99;1;7
100;1;7
101;1;7
102;1;7
103;1;7
104;1;7
105;1;7
106;1;7
107;1;7
108;1;7
109;1;7
110;1;7
111;1;7
112;1;7
113;1;7
114;1;7
115;1;7
116;1;7
117;1;7
118;1;7
119;1;7
120;1;7
121;1;7
122;1;7
123;1;7
124;1;7
125;1;7
126;1;7
127;1;7
128;1;7
129;1;7
130;1;7
131;1;7
132;1;7
133;1;7
134;1;7
135;1;7
136;1;7
137;1;7
138;1;7
139;1;7
140;1;7
141;1;7
142;1;7
143;1;7
144;1;7
145;1;7
146;1;7
147;1;7
148;1;7
149;1;7
150;1;7
151;1;7
152;1;7
153;1;7
154;1;7
155;1;7
156;1;7
157;1;7
158;1;7
159;1;7
160;1;7
161;1;7
162;1;7
163;1;7
164;1;7
165;1;7
166;1;7
167;1;7
168;1;7
169;1;7
170;1;7
171;1;7
172;1;7
173;1;7
174;1;7
175;1;7
176;1;7
177;1;7
178;1;7
179;1;7
180;1;7
181;1;7
182;1;7
183;1;7
184;1;7
185;1;7
186;1;7
187;1;7
188;1;7
189;1;7
190;1;7
191;1;7
192;1;7
193;1;7
194;1;7
195;1;7
196;1;7
197;1;7
198;1;7
199;1;7
200;1;7
201;1;7
202;1;7
203;1;7
204;1;7
205;1;7
206;1;7
207;1;7
208;1;7
209;1;7
210;1;7
211;1;7
212;1;7
213;1;7
214;2;7
215;1;7
216;2;7
217;2;7
218;1;7
219;1;7
220;1;7
221;1;7
222;1;7
223;1;7
224;1;7
225;1;7
226;1;7
227;1;7
228;1;7
229;1;7
230;1;7
231;1;7
232;1;7
233;1;7
234;1;7
235;1;7
236;1;7
237;1;7
238;1;7
239;1;7
240;1;7
241;1;7
242;1;7
243;1;7
244;1;7
245;1;7
246;1;7
247;1;7
248;1;7
249;1;7
250;1;7
251;1;7
252;1;7
253;1;7
254;1;7
255;1;7
256;1;7
257;1;7
258;2;7
259;2;7
260;2;7
261;2;7
262;2;7
263;2;7
264;2;7
265;2;7
266;2;7
267;2;7
268;2;7
269;2;7
270;2;7
271;2;7
272;2;7
273;2;7
274;2;7
275;2;7
276;2;7
277;2;7
278;3;7
279;2;7
280;3;7
281;3;7
282;3;7
283;3;7
284;3;7
285;3;7
286;3;7
287;3;7
288;3;7
289;3;7
290;3;7
291;3;7
292;3;7
293;3;7
294;3;7
295;4;7
296;4;7
297;4;7
298;4;7
299;4;7
300;3;7
301;3;7
302;3;7
303;3;7
304;3;7
305;4;7
306;4;7
307;5;7
308;5;7
309;4;7
310;5;7
311;4;7
312;4;7
313;4;7
314;4;7
315;4;7
316;4;7
317;3;7
318;4;7
319;3;7
320;3;7
321;3;7
322;3;7
323;3;7
324;4;7
325;3;7
326;4;7
327;4;7
328;5;7
329;4;7
330;4;7
331;4;7
332;4;7
333;4;7
334;4;7
335;5;7
336;5;7
337;4;7
338;5;7
339;4;7
340;5;7
341;4;7
342;4;7
343;5;7
344;5;7
345;5;7
346;5;7
347;5;7
348;5;7
349;5;7
350;5;7
351;5;7
352;4;7
353;5;7
354;5;7
355;5;7
356;5;7
357;5;7
358;5;7
359;5;7
360;5;7
361;5;7
362;5;7
363;5;7
364;5;7
365;5;7
366;5;7
367;4;7
368;5;7
369;5;7
370;5;7
371;5;7
372;5;7
373;4;7
374;4;7
375;4;7
376;4;7
377;5;7
378;4;7
379;5;7
380;5;7
381;4;7
382;4;7
383;4;7
384;5;7
385;5;7
386;5;7
387;5;7
388;5;7
389;4;7
390;4;7
391;5;7
392;5;7
393;4;7
394;4;7
395;5;7
396;5;7
397;4;7
398;4;7
399;5;7
400;5;7
401;5;7
402;5;7
403;5;7
404;4;7
405;4;7
406;4;7
407;5;7
408;4;7
409;5;7
410;5;7
411;5;7
412;5;7
413;5;7
414;5;7
415;5;7
416;4;7
417;4;7
418;5;7
419;5;7
420;5;7
421;4;7
422;5;7
423;5;7
424;5;7
425;5;7
426;5;7
427;5;7
428;5;7
429;4;7
430;4;7
431;4;7
432;4;7
433;4;7
434;4;7
435;4;7
436;4;7
437;4;7
438;4;7
439;4;7
440;4;7
441;4;7
442;4;7
443;4;7
444;4;7
445;4;7
446;4;7
447;4;7
448;4;7
449;4;7
450;4;7
451;4;7
452;4;7
453;4;7
454;4;7
455;4;7
456;4;7
457;5;7
458;5;7
459;4;7
460;4;7
461;5;7
462;5;7
463;5;7
464;6;7
465;5;7
466;6;7
467;6;7
468;6;7
469;6;7
470;6;7
471;5;7
472;6;7
473;6;7
474;6;7
475;5;7
476;5;7
477;5;7
478;5;7
479;5;7
480;5;7
481;5;7
482;5;7
483;6;7
484;7;7
485;5;7
486;6;7
487;7;7
488;7;7
489;7;7
490;7;7
491;6;7
492;7;7
493;8;7
494;7;7
495;7;7
496;7;7
497;8;7
498;7;7
499;7;7
500;8;7
501;8;7
502;8;7
503;7;7
504;7;7
505;8;7
506;8;7
507;8;7
508;8;7
509;8;7
510;8;7
511;8;7
512;8;7
513;8;7
514;8;7
515;8;7
516;8;7
517;8;7
518;8;7
519;8;7
520;8;7
521;8;7
522;8;7
523;8;7
524;8;7
525;8;7
526;8;7
527;8;7
528;8;7
529;8;7
530;8;7
531;8;7
532;8;7
533;8;7
534;8;7
535;8;7
536;8;7
537;7;7
538;7;7
539;7;7
540;7;7
541;7;7
542;7;7
543;7;7
544;7;7
545;7;7
546;8;7
547;8;7
548;8;7
549;8;7
550;7;7
551;7;7
552;8;7
553;8;7
554;8;7
555;7;7
556;8;7
557;9;7
558;9;7
559;9;7
560;8;7
561;8;7
562;9;7
563;9;7
564;9;7
565;9;7
566;9;7
567;9;7
568;9;7
569;9;7
570;9;7
571;10;7
572;9;7
573;9;7
574;9;7
575;9;7
576;9;7
577;9;7
578;9;7
579;9;7
580;9;7
581;10;7
582;9;7
583;9;7
584;10;7
585;10;7
586;10;7
587;9;7
588;10;7
589;10;7
590;9;7
591;10;7
592;9;7
593;10;7
594;10;7
595;10;7
596;10;7
597;10;7
598;9;7
599;10;7
600;10;7
601;10;7
602;10;7
603;10;7
604;10;7
605;9;7
606;10;7
607;10;7
608;10;7
609;10;7
610;9;7
611;10;7
612;10;7
613;10;7
614;10;7
615;10;7
616;10;7
617;10;7
618;10;7
619;10;7
620;10;7
621;11;7
622;10;7
623;10;7
624;10;7
625;10;7
626;10;7
627;10;7
628;10;7
629;10;7
630;10;7
631;10;7
632;10;7
633;10;7
634;11;7
635;12;7
636;12;7
637;11;7
638;10;7
639;10;7
640;11;7
641;11;7
642;10;7
643;12;7
644;12;7
645;11;7
646;12;7
647;12;7
648;12;7
649;12;7
650;12;7
651;13;7
652;14;7
653;12;7
654;12;7
655;14;7
656;13;7
657;14;7
658;15;7
659;13;7
660;10;7
661;12;7
662;13;7
663;15;7
664;13;7
665;14;7
666;13;7
667;15;7
668;17;7
669;18;7
670;18;7
671;17;7
672;16;7
673;18;7
674;16;7
675;17;7
676;16;7
677;17;7
678;18;7
679;17;7
680;16;7
681;17;7
682;16;7
683;17;7
684;16;7
685;19;7
686;18;7
687;19;7
688;19;7
689;19;7
690;19;7
691;19;7
692;18;7
693;16;7
694;18;7
695;18;7
696;19;7
697;19;7
698;16;7
699;18;7
700;19;7
701;19;7
702;19;7
703;20;7
704;20;7
705;19;7
706;19;7
707;19;7
708;19;7
709;19;7
710;18;7
711;19;7
712;19;7
713;19;7
714;19;7
715;19;7
716;19;7
717;19;7
718;19;7
719;19;7
720;19;7
721;20;7
722;20;7
723;20;7
724;19;7
725;19;7
726;20;7
727;19;7
728;19;7
729;22;7
730;19;7
731;22;7
732;22;7
733;22;7
734;22;7
735;22;7
736;23;7
737;22;7
738;22;7
739;22;7
740;22;7
741;22;7
742;22;7
743;22;7
744;22;7
745;22;7
746;22;7
747;22;7
748;22;7
749;22;7
750;22;7
751;23;7
752;22;7
753;23;7
754;23;7
755;22;7
756;22;7
757;22;7
758;22;7
759;23;7
760;23;7
761;23;7
762;23;7
763;23;7
764;23;7
765;23;7
766;23;7
767;23;7
768;22;7
769;23;7
770;23;7
771;22;7
772;23;7
773;23;7
774;23;7
775;23;7
776;23;7
777;23;7
778;23;7
779;23;7
780;23;7
781;23;7
782;22;7
783;22;7
784;22;7
785;22;7
786;22;7
787;22;7
788;24;7
789;22;7
790;22;7
791;23;7
792;23;7
793;22;7
794;23;7
795;22;7
796;22;7
797;23;7
798;23;7
799;23;7
800;23;7
801;23;7
802;23;7
803;23;7
804;22;7
805;22;7
806;23;7
807;24;7
808;24;7
809;23;7
810;24;7
811;24;7
812;24;7
813;24;7
814;25;7
815;24;7
816;24;7
817;24;7
818;24;7
819;24;7
820;25;7
821;25;7
822;25;7
823;26;7
824;26;7
825;25;7
826;26;7
827;26;7
828;25;7
829;25;7
830;26;7
831;26;7
832;25;7
833;26;7
834;26;7
835;26;7
836;25;7
837;26;7
838;25;7
839;26;7
840;26;7
841;25;7
842;25;7
843;25;7
844;25;7
845;25;7
846;25;7
847;25;7
848;25;7
849;25;7
850;25;7
851;26;7
852;25;7
853;25;7
854;25;7
855;27;7
856;25;7
857;26;7
858;27;7
859;27;7
860;26;7
861;28;7
862;26;7
863;26;7
864;29;7
865;28;7
866;27;7
867;27;7
868;28;7
869;28;7
870;29;7
871;29;7
872;29;7
873;28;7
874;29;7
875;29;7
876;28;7
877;29;7
878;31;7
879;31;7
880;31;7
881;32;7
882;32;7
883;32;7
884;33;7
885;32;7
886;31;7
887;33;7
888;32;7
889;33;7
890;33;7
891;34;7
892;33;7
893;31;7
894;34;7
895;34;7
896;33;7
897;33;7
898;33;7
899;33;7
900;33;7
901;34;7
902;34;7
903;34;7
904;35;7
905;35;7
906;34;7
907;35;7
908;34;7
909;34;7
910;35;7
911;34;7
912;35;7
913;35;7
914;35;7
915;34;7
916;35;7
917;35;7
918;35;7
919;35;7
920;34;7
921;34;7
922;35;7
923;34;7
924;35;7
925;35;7
926;35;7
927;35;7
928;35;7
929;35;7
930;35;7
931;35;7
932;35;7
933;35;7
934;34;7
935;34;7
936;34;7
937;34;7
938;34;7
939;34;7
940;34;7
941;34;7
942;35;7
943;36;7
944;34;7
945;35;7
946;35;7
947;36;7
948;35;7
949;36;7
950;36;7
951;36;7
952;36;7
953;36;7
954;36;7
955;36;7
956;36;7
957;36;7
958;36;7
959;36;7
960;36;7
961;35;7
962;36;7
963;36;7
964;36;7
965;36;7
966;36;7
967;36;7
968;36;7
969;36;7
970;36;7
971;36;7
972;36;7
973;36;7
974;36;7
975;36;7
976;36;7
977;36;7
978;36;7
979;36;7
980;36;7
981;36;7
982;36;7
983;36;7
984;36;7
985;36;7
986;36;7
987;36;7
988;36;7
989;36;7
990;36;7
991;36;7
992;36;7
993;36;7
994;36;7
995;36;7
996;36;7
997;36;7
998;36;7
999;36;7
1000;36;7
1001;36;7
1002;36;7
1003;36;7
1004;36;7
1005;36;7
1006;36;7
1007;36;7
1008;36;7
1009;36;7
1010;36;7
1011;36;7
1012;36;7
1013;36;7
1014;36;7
1015;36;7
1016;36;7
1017;36;7
1018;36;7
1019;36;7
1020;36;7
1021;36;7
1022;36;7
1023;36;7
1024;36;7
1025;36;7
1026;36;7
1027;36;7
1028;36;7
1029;36;7
1030;36;7
1031;36;7
1032;36;7
1033;36;7
1034;36;7
1035;35;7
1036;35;7
1037;35;7
1038;35;7
1039;35;7
1040;35;7
1041;35;7
1042;35;7
1043;35;7
1044;35;7
1045;35;7
1046;35;7
1047;35;7
1048;35;7
1049;35;7
1050;35;7
1051;35;7
1052;35;7
1053;35;7
1054;35;7
1055;35;7
1056;35;7
1057;35;7
1058;35;7
1059;35;7
1060;35;7
1061;36;7
1062;35;7
1063;35;7
1064;35;7
1065;36;7
1066;36;7
1067;36;7
1068;36;7
1069;36;7
1070;36;7
1071;36;7
1072;36;7
1073;36;7
1074;36;7
1075;36;7
1076;36;7
1077;36;7
1078;36;7
1079;36;7
1080;36;7
1081;36;7
1082;36;7
1083;36;7
1084;36;7
1085;36;7
1086;36;7
1087;36;7
1088;37;7
1089;37;7
1090;37;7
1091;37;7
1092;37;7
1093;37;7
1094;37;7
1095;37;7
1096;37;7
1097;37;7
1098;37;7
1099;37;7
1100;37;7
1101;38;7
1102;37;7
1103;37;7
1104;38;7
1105;38;7
1106;38;7
1107;37;7
1108;38;7
1109;39;7
1110;38;7
1111;39;7
1112;39;7
1113;39;7
1114;39;7
1115;39;7
1116;39;7
1117;39;7
1118;39;7
1119;39;7
1120;39;7
1121;39;7
1122;39;7
1123;39;7
1124;39;7
1125;39;7
1126;39;7
1127;39;7
1128;39;7
1129;39;7
1130;39;7
1131;39;7
1132;39;7
1133;38;7
1134;38;7
1135;38;7
1136;38;7
1137;38;7
1138;38;7
1139;38;7
1140;38;7
1141;38;7
1142;38;7
1143;38;7
1144;38;7
1145;38;7
1146;38;7
1147;38;7
1148;38;7
1149;38;7
1150;38;7
1151;38;7
1152;38;7
1153;38;7
1154;38;7
1155;38;7
1156;38;7
1157;38;7
1158;38;7
1159;38;7
1160;38;7
1161;38;7
1162;38;7
1163;38;7
1164;38;7
1165;38;7
1166;38;7
1167;38;7
1168;38;7
1169;38;7
1170;38;7
1171;38;7
1172;38;7
1173;38;7
1174;38;7
1175;38;7
1176;38;7
1177;38;7
1178;38;7
1179;38;7
1180;38;7
1181;38;7
1182;38;7
1183;38;7
1184;38;7
1185;38;7
1186;38;7
1187;38;7
1188;38;7
1189;38;7
1190;38;7
1191;38;7
1192;38;7
1193;38;7
1194;38;7
1195;38;7
1196;38;7
1197;38;7
1198;38;7
1199;38;7
1200;38;7
1201;38;7
1202;38;7
1203;38;7
1204;38;7
1205;38;7
1206;38;7
1207;38;7
1208;38;7
1209;38;7
1210;38;7
1211;38;7
1212;39;7
1213;38;7
1214;38;7
1215;38;7
1216;39;7
1217;39;7
1218;38;7
1219;39;7
1220;39;7
1221;39;7
1222;39;7
1223;39;7
1224;39;7
1225;39;7
1226;39;7
1227;39;7
1228;39;7
1229;39;7
1230;38;7
1231;38;7
1232;38;7
1233;38;7
1234;38;7
1235;38;7
1236;38;7
1237;38;7
1238;38;7
1239;37;7
1240;37;7
1241;37;7
1242;37;7
1243;36;7
1244;36;7
1245;36;7
1246;36;7
1247;36;7
1248;36;7
1249;36;7
1250;36;7
1251;36;7
1252;37;7
1253;34;7
1254;35;7
1255;35;7
1256;34;7
1257;34;7
1258;35;7
1259;35;7
1260;35;7
1261;35;7
1262;35;7
1263;35;7
1264;35;7
1265;35;7
1266;35;7
1267;35;7
1268;35;7
1269;35;7
1270;35;7
1271;35;7
1272;35;7
1273;35;7
1274;35;7
1275;35;7
1276;35;7
1277;35;7
1278;35;7
1279;35;7
1280;35;7
1281;35;7
1282;35;7
1283;35;7
1284;35;7
1285;35;7
1286;35;7
1287;35;7
1288;35;7
1289;35;7
1290;35;7
1291;35;7
1292;35;7
1293;35;7
1294;35;7
1295;35;7
1296;35;7
1297;35;7
1298;34;7
1299;35;7
1300;35;7
1301;34;7
1302;34;7
1303;35;7
1304;35;7
1305;35;7
1306;35;7
1307;35;7
1308;34;7
1309;35;7
1310;35;7
1311;35;7
1312;35;7
1313;35;7
1314;34;7
1315;35;7
1316;35;7
1317;35;7
1318;35;7
1319;35;7
1320;35;7
1321;35;7
1322;35;7
1323;35;7
1324;34;7
1325;34;7
1326;34;7
1327;35;7
1328;35;7
1329;35;7
1330;35;7
1331;35;7
1332;36;7
1333;36;7
1334;36;7
1335;36;7
1336;36;7
1337;36;7
1338;36;7
1339;36;7
1340;36;7
1341;35;7
1342;35;7
1343;35;7
1344;35;7
1345;35;7
1346;36;7
1347;36;7
1348;35;7
1349;36;7
1350;36;7
1351;37;7
1352;37;7
1353;37;7
1354;37;7
1355;38;7
1356;38;7
1357;38;7
1358;37;7
1359;38;7
1360;37;7
1361;37;7
1362;38;7
1363;38;7
1364;38;7
1365;38;7
1366;38;7
1367;37;7
1368;38;7
1369;39;7
1370;39;7
1371;38;7
1372;37;7
1373;39;7
1374;37;7
1375;37;7
1376;37;7
1377;37;7
1378;37;7
1379;39;7
1380;39;7
1381;38;7
1382;39;7
1383;39;7
1384;39;7
1385;40;7
1386;40;7
1387;40;7
1388;40;7
1389;38;7
1390;39;7
1391;39;7
1392;40;7
1393;40;7
1394;39;7
1395;40;7
1396;40;7
1397;40;7
1398;39;7
1399;39;7
1400;39;7
1401;39;7
1402;39;7
1403;39;7
1404;39;7
1405;39;7
1406;39;7
1407;39;7
1408;39;7
1409;39;7
1410;39;7
1411;39;7
1412;39;7
1413;39;7
1414;39;7
1415;39;7
1416;39;7
1417;39;7
1418;39;7
1419;39;7
1420;39;7
1421;39;7
1422;39;7
1423;39;7
1424;39;7
1425;39;7
1426;39;7
1427;39;7
1428;39;7
1429;40;7
1430;39;7
1431;40;7
1432;40;7
1433;40;7
1434;40;7
1435;40;7
1436;40;7
1437;39;7
1438;39;7
1439;39;7
1440;39;7
1441;39;7
1442;39;7
1443;39;7
1444;39;7
1445;39;7
1446;39;7
1447;39;7
1448;39;7
1449;39;7
1450;39;7
1451;39;7
1452;39;7
1453;39;7
1454;39;7
1455;39;7
1456;39;7
1457;39;7
1458;40;7
1459;40;7
1460;39;7
1461;40;7
1462;39;7
1463;40;7
1464;39;7
1465;40;7
1466;40;7
1467;39;7
1468;40;7
1469;40;7
1470;40;7
1471;40;7
1472;40;7
1473;40;7
1474;40;7
1475;40;7
1476;40;7
1477;41;7
1478;41;7
1479;41;7
1480;41;7
1481;41;7
1482;41;7
1483;41;7
1484;41;7
1485;43;7
1486;42;7
1487;41;7
1488;42;7
1489;41;7
1490;42;7
1491;42;7
1492;42;7
1493;42;7
1494;42;7
1495;41;7
1496;42;7
1497;42;7
1498;42;7
1499;41;7
1500;41;7
1501;41;7
1502;41;7
1503;41;7
1504;41;7
1505;41;7
1506;41;7
1507;41;7
1508;41;7
1509;41;7
1510;41;7
1511;41;7
1512;41;7
1513;41;7
1514;41;7
1515;41;7
1516;41;7
1517;41;7
1518;41;7
1519;41;7
1520;41;7
1521;41;7
1522;41;7
1523;41;7
1524;41;7
1525;41;7
1526;41;7
1527;41;7
1528;41;7
1529;41;7
1530;41;7
1531;41;7
1532;41;7
1533;41;7
1534;41;7
1535;41;7
1536;41;7
1537;41;7
1538;41;7
1539;41;7
1540;41;7
1541;41;7
1542;41;7
1543;41;7
1544;41;7
1545;41;7
1546;41;7
1547;41;7
1548;41;7
1549;41;7
1550;41;7
1551;41;7
1552;41;7
1553;41;7
1554;41;7
1555;41;7
1556;41;7
1557;41;7
1558;41;7
1559;41;7
1560;41;7
1561;41;7
1562;41;7
1563;41;7
1564;41;7
1565;41;7
1566;41;7
1567;41;7
1568;41;7
1569;41;7
1570;41;7
1571;41;7
1572;41;7
1573;41;7
1574;41;7
1575;41;7
1576;41;7
1577;41;7
1578;41;7
1579;40;7
1580;40;7
1581;40;7
1582;39;7
1583;39;7
1584;39;7
1585;39;7
1586;39;7
1587;39;7
1588;39;7
1589;39;7
1590;39;7
1591;39;7
1592;39;7
1593;39;7
1594;39;7
1595;39;7
1596;39;7
1597;39;7
1598;39;7
1599;39;7
1600;39;7
1601;39;7
1602;39;7
1603;39;7
1604;39;7
1605;39;7
1606;40;7
1607;40;7
1608;40;7
1609;40;7
1610;40;7
1611;40;7
1612;40;7
1613;40;7
1614;39;7
1615;39;7
1616;39;7
1617;39;7
1618;40;7
1619;39;7
1620;39;7
1621;39;7
1622;40;7
1623;40;7
1624;40;7
1625;40;7
1626;39;7
1627;40;7
1628;40;7
1629;40;7
1630;40;7
1631;40;7
1632;39;7
1633;40;7
1634;39;7
1635;40;7
1636;40;7
1637;40;7
1638;40;7
1639;40;7
1640;40;7
1641;40;7
1642;40;7
1643;39;7
1644;39;7
1645;39;7
1646;39;7
1647;39;7
1648;39;7
1649;39;7
1650;39;7
1651;39;7
1652;39;7
1653;39;7
1654;39;7
1655;39;7
1656;39;7
1657;39;7
1658;39;7
1659;39;7
1660;39;7
1661;39;7
1662;38;7
1663;38;7
1664;38;7
1665;38;7
1666;38;7
1667;38;7
1668;38;7
1669;38;7
1670;38;7
1671;38;7
1672;38;7
1673;38;7
1674;39;7
1675;39;7
1676;38;7
1677;39;7
1678;39;7
1679;39;7
1680;39;7
1681;39;7
1682;39;7
1683;39;7
1684;39;7
1685;39;7
1686;39;7
1687;39;7
1688;39;7
1689;39;7
1690;39;7
1691;39;7
1692;39;7
1693;39;7
1694;39;7
1695;39;7
1696;39;7
1697;39;7
1698;39;7
1699;39;7
1700;39;7
1701;39;7
1702;39;7
1703;39;7
1704;39;7
1705;39;7
1706;39;7
1707;39;7
1708;39;7
1709;39;7
1710;39;7
1711;39;7
1712;39;7
1713;39;7
1714;39;7
1715;39;7
1716;39;7
1717;40;7
1718;40;7
1719;40;7
1720;41;7
1721;40;7
1722;40;7
1723;40;7
1724;40;7
1725;40;7
1726;40;7
1727;40;7
1728;40;7
1729;40;7
1730;40;7
1731;40;7
1732;40;7
1733;40;7
1734;40;7
1735;40;7
1736;40;7
1737;40;7
1738;40;7
1739;40;7
1740;40;7
1741;40;7
1742;40;7
1743;40;7
1744;40;7
1745;40;7
1746;40;7
1747;40;7
1748;41;7
1749;40;7
1750;42;7
1751;42;7
1752;42;7
1753;42;7
1754;41;7
1755;42;7
1756;42;7
1757;42;7
1758;42;7
1759;42;7
1760;41;7
1761;41;7
1762;42;7
1763;42;7
1764;42;7
1765;42;7
1766;42;7
1767;42;7
1768;42;7
1769;42;7
1770;42;7
1771;42;7
1772;42;7
1773;41;7
1774;41;7
1775;41;7
1776;41;7
1777;41;7
1778;41;7
1779;41;7
1780;41;7
1781;41;7
1782;41;7
1783;41;7
1784;41;7
1785;41;7
1786;41;7
1787;42;7
1788;42;7
1789;41;7
1790;41;7
1791;42;7
1792;42;7
1793;42;7
1794;42;7
1795;42;7
1796;42;7
1797;42;7
1798;42;7
1799;42;7
1800;42;7
1801;42;7
1802;42;7
1803;42;7
1804;43;7
1805;43;7
1806;43;7
1807;43;7
1808;43;7
1809;43;7
1810;43;7
1811;43;7
1812;44;7
1813;43;7
1814;44;7
1815;44;7
1816;43;7
1817;43;7
1818;43;7
1819;43;7
1820;43;7
1821;44;7
1822;43;7
1823;44;7
1824;44;7
1825;43;7
1826;43;7
1827;44;7
1828;44;7
1829;44;7
1830;44;7
1831;44;7
1832;44;7
1833;44;7
1834;44;7
1835;44;7
1836;45;7
1837;45;7
1838;44;7
1839;44;7
1840;44;7
1841;44;7
1842;45;7
1843;45;7
1844;45;7
1845;44;7
1846;44;7
1847;44;7
1848;44;7
1849;44;7
1850;44;7
1851;44;7
1852;44;7
1853;44;7
1854;44;7
1855;44;7
1856;44;7
1857;44;7
1858;43;7
1859;43;7
1860;43;7
1861;43;7
1862;43;7
1863;43;7
1864;43;7
1865;43;7
1866;43;7
1867;44;7
1868;43;7
1869;44;7
1870;44;7
1871;44;7
1872;44;7
1873;44;7
1874;44;7
1875;44;7
1876;44;7
1877;44;7
1878;44;7
1879;44;7
1880;44;7
1881;44;7
1882;44;7
1883;44;7
1884;44;7
1885;44;7
1886;44;7
1887;44;7
1888;44;7
1889;44;7
1890;44;7
1891;44;7
1892;44;7
1893;44;7
1894;44;7
1895;44;7
1896;44;7
1897;44;7
1898;44;7
1899;44;7
1900;44;7
1901;44;7
1902;44;7
1903;44;7
1904;44;7
1905;44;7
1906;44;7
1907;44;7
1908;44;7
1909;44;7
1910;45;7
1911;45;7
1912;44;7
1913;44;7
1914;44;7
1915;44;7
1916;44;7
1917;44;7
1918;44;7
1919;43;7
1920;43;7
1921;43;7
1922;43;7
1923;43;7
1924;43;7
1925;43;7
1926;43;7
1927;43;7
1928;43;7
1929;43;7
1930;43;7
1931;43;7
1932;43;7
1933;43;7
1934;43;7
1935;43;7
1936;43;7
1937;43;7
1938;43;7
1939;43;7
1940;43;7
1941;43;7
1942;43;7
1943;44;7
1944;43;7
1945;43;7
1946;43;7
1947;43;7
1948;43;7
1949;43;7
1950;43;7
1951;43;7
1952;43;7
1953;43;7
1954;43;7
1955;42;7
1956;43;7
1957;43;7
1958;42;7
1959;41;7
1960;41;7
1961;42;7
1962;41;7
1963;42;7
1964;42;7
1965;42;7
1966;42;7
1967;42;7
1968;42;7
1969;42;7
1970;42;7
1971;42;7
1972;42;7
1973;42;7
1974;42;7
1975;41;7
1976;41;7
1977;41;7
1978;41;7
1979;41;7
1980;41;7
1981;41;7
1982;41;7
1983;41;7
1984;41;7
1985;41;7
1986;41;7
1987;41;7
1988;41;7
1989;41;7
1990;41;7
1991;41;7
1992;41;7
1993;41;7
1994;41;7
1995;41;7
1996;41;7
1997;41;7
1998;41;7
1999;41;7
2000;41;7
2001;41;7
2002;41;7
2003;41;7
2004;41;7
2005;41;7
2006;41;7
2007;41;7
2008;41;7
2009;41;7
2010;41;7
2011;41;7
2012;41;7
2013;41;7
2014;41;7
2015;41;7
2016;41;7
2017;41;7
2018;41;7
2019;41;7
2020;41;7
2021;41;7
2022;41;7
2023;41;7
2024;41;7
2025;42;7
2026;42;7
2027;42;7
2028;41;7
2029;42;7
2030;42;7
2031;42;7
2032;42;7
2033;42;7
2034;43;7
2035;43;7
2036;43;7
2037;43;7
2038;42;7
2039;42;7
2040;42;7
2041;42;7
2042;42;7
2043;42;7
2044;42;7
2045;42;7
2046;42;7
2047;42;7
2048;42;7
2049;42;7
2050;42;7
2051;42;7
2052;42;7
2053;42;7
2054;42;7
2055;42;7
2056;42;7
2057;42;7
2058;43;7
2059;42;7
2060;43;7
2061;43;7
2062;42;7
2063;43;7
2064;43;7
2065;43;7
2066;43;7
2067;42;7
2068;43;7
2069;42;7
2070;42;7
2071;42;7
2072;42;7
2073;42;7
2074;42;7
2075;43;7
2076;43;7
2077;41;7
2078;41;7
2079;41;7
2080;41;7
2081;41;7
2082;41;7
2083;41;7
2084;41;7
2085;41;7
2086;41;7
2087;41;7
2088;41;7
2089;41;7
2090;41;7
2091;41;7
2092;41;7
2093;41;7
2094;42;7
2095;42;7
2096;43;7
2097;43;7
2098;42;7
2099;43;7
2100;42;7
2101;42;7
2102;41;7
2103;41;7
2104;42;7
2105;41;7
2106;41;7
2107;42;7
2108;42;7
2109;42;7
2110;42;7
2111;42;7
2112;43;7
2113;42;7
2114;41;7
2115;43;7
2116;42;7
2117;43;7
2118;42;7
2119;42;7
2120;43;7
2121;44;7
2122;42;7
2123;42;7
2124;43;7
2125;44;7
2126;44;7
2127;44;7
2128;44;7
2129;44;7
2130;44;7
2131;45;7
2132;45;7
2133;45;7
2134;45;7
2135;44;7
2136;45;7
2137;44;7
2138;44;7
2139;44;7
2140;44;7
2141;44;7
2142;44;7
2143;44;7
2144;44;7
2145;44;7
2146;44;7
2147;44;7
2148;44;7
2149;44;7
2150;44;7
2151;44;7
2152;44;7
2153;44;7
2154;45;7
2155;45;7
2156;44;7
2157;44;7
2158;44;7
2159;46;7
2160;46;7
2161;45;7
2162;45;7
2163;44;7
2164;45;7
2165;45;7
2166;44;7
2167;45;7
2168;44;7
2169;47;7
2170;45;7
2171;45;7
2172;45;7
2173;44;7
2174;44;7
2175;45;7
2176;45;7
2177;45;7
2178;45;7
2179;46;7
2180;46;7
2181;46;7
2182;46;7
2183;46;7
2184;46;7
2185;46;7
2186;46;7
2187;46;7
2188;46;7
2189;45;7
2190;47;7
2191;47;7
2192;46;7
2193;47;7
2194;47;7
2195;47;7
2196;47;7
2197;47;7
2198;46;7
2199;46;7
2200;46;7
2201;46;7
2202;46;7
2203;46;7
2204;46;7
2205;46;7
2206;46;7
2207;46;7
2208;46;7
2209;46;7
2210;46;7
2211;46;7
2212;46;7
2213;46;7
2214;46;7
2215;46;7
2216;46;7
2217;46;7
2218;46;7
2219;46;7
2220;46;7
2221;46;7
2222;46;7
2223;46;7
2224;46;7
2225;45;7
2226;45;7
2227;45;7
2228;45;7
2229;46;7
2230;45;7
2231;45;7
2232;45;7
2233;45;7
2234;45;7
2235;45;7
2236;45;7
2237;45;7
2238;45;7
2239;45;7
2240;45;7
2241;47;7
2242;46;7
2243;47;7
2244;47;7
2245;46;7
2246;46;7
2247;46;7
2248;46;7
2249;46;7
2250;46;7
2251;46;7
2252;46;7
2253;46;7
2254;46;7
2255;46;7
2256;46;7
2257;46;7
2258;46;7
2259;46;7
2260;46;7
2261;46;7
2262;46;7
2263;46;7
2264;46;7
2265;46;7
2266;46;7
2267;46;7
2268;46;7
2269;46;7
2270;46;7
2271;46;7
2272;46;7
2273;46;7
2274;46;7
2275;46;7
2276;46;7
2277;46;7
2278;46;7
2279;46;7
2280;46;7
2281;46;7
2282;46;7
2283;46;7
2284;46;7
2285;46;7
2286;46;7
2287;46;7
2288;46;7
2289;46;7
2290;45;7
2291;45;7
2292;45;7
2293;45;7
2294;45;7
2295;45;7
2296;45;7
2297;45;7
2298;45;7
2299;45;7
2300;45;7
2301;45;7
2302;45;7
2303;45;7
2304;45;7
2305;45;7
2306;45;7
2307;45;7
2308;45;7
2309;45;7
2310;45;7
2311;45;7
2312;45;7
2313;45;7
2314;45;7
2315;45;7
2316;45;7
2317;45;7
2318;45;7
2319;45;7
2320;45;7
2321;45;7
2322;45;7
2323;45;7
2324;45;7
2325;45;7
2326;45;7
2327;45;7
2328;45;7
2329;45;7
2330;45;7
2331;45;7
2332;45;7
2333;45;7
2334;45;7
2335;45;7
2336;45;7
2337;45;7
2338;45;7
2339;45;7
2340;45;7
2341;45;7
2342;45;7
2343;45;7
2344;45;7
2345;45;7
2346;45;7
2347;45;7
2348;45;7
2349;45;7
2350;45;7
2351;45;7
2352;45;7
2353;45;7
2354;45;7
2355;45;7
2356;45;7
2357;45;7
2358;45;7
2359;45;7
2360;45;7
2361;46;7
2362;46;7
2363;46;7
2364;46;7
2365;45;7
2366;46;7
2367;46;7
2368;46;7
2369;46;7
2370;46;7
2371;46;7
2372;46;7
2373;46;7
2374;46;7
2375;46;7
2376;47;7
2377;47;7
2378;47;7
2379;47;7
2380;47;7
2381;48;7
2382;47;7
2383;47;7
2384;47;7
2385;48;7
2386;48;7
2387;48;7
2388;48;7
2389;48;7
2390;48;7
2391;48;7
2392;47;7
2393;47;7
2394;48;7
2395;48;7
2396;48;7
2397;48;7
2398;48;7
2399;48;7
2400;48;7
2401;48;7
2402;48;7
2403;48;7
2404;48;7
2405;48;7
2406;48;7
2407;48;7
2408;48;7
2409;49;7
2410;49;7
2411;49;7
2412;49;7
2413;49;7
2414;49;7
2415;49;7
2416;49;7
2417;49;7
2418;49;7
2419;49;7
2420;49;7
2421;49;7
2422;49;7
2423;49;7
2424;49;7
2425;49;7
2426;49;7
2427;49;7
2428;49;7
2429;49;7
2430;49;7
2431;49;7
2432;49;7
2433;49;7
2434;49;7
2435;49;7
2436;49;7
2437;49;7
2438;49;7
2439;49;7
2440;49;7
2441;49;7
2442;49;7
2443;48;7
2444;49;7
2445;48;7
2446;48;7
2447;48;7
2448;48;7
2449;48;7
2450;48;7
2451;48;7
2452;48;7
2453;48;7
2454;48;7
2455;48;7
2456;48;7
2457;49;7
2458;49;7
2459;49;7
2460;49;7
2461;49;7
2462;49;7
2463;49;7
2464;50;7
2465;49;7
2466;49;7
2467;49;7
2468;49;7
2469;49;7
2470;49;7
2471;49;7
2472;49;7
2473;49;7
2474;49;7
2475;49;7
2476;49;7
2477;49;7
2478;49;7
2479;49;7
2480;49;7
2481;49;7
2482;49;7
2483;49;7
2484;49;7
2485;49;7
2486;49;7
2487;49;7
2488;49;7
2489;49;7
2490;49;7
2491;49;7
2492;49;7
2493;49;7
2494;49;7
2495;50;7
2496;50;7
2497;49;7
2498;50;7
2499;50;7
2500;50;7
2501;50;7
2502;50;7
2503;50;7
2504;50;7
2505;50;7
2506;50;7
2507;50;7
2508;50;7
2509;50;7
2510;50;7
2511;50;7
2512;50;7
2513;50;7
2514;51;7
2515;50;7
2516;50;7
2517;51;7
2518;52;7
2519;50;7
2520;51;7
2521;52;7
2522;51;7
2523;51;7
2524;52;7
2525;51;7
2526;52;7
2527;52;7
2528;52;7
2529;52;7
2530;51;7
2531;51;7
2532;51;7
2533;50;7
2534;50;7
2535;50;7
2536;50;7
2537;50;7
2538;50;7
2539;49;7
2540;49;7
2541;50;7
2542;50;7
2543;50;7
2544;50;7
2545;49;7
2546;50;7
2547;50;7
2548;50;7
2549;49;7
2550;50;7
2551;50;7
2552;50;7
2553;50;7
2554;50;7
2555;50;7
2556;49;7
2557;48;7
2558;48;7
2559;48;7
2560;48;7
2561;48;7
2562;48;7
2563;48;7
2564;48;7
2565;48;7
2566;48;7
2567;48;7
2568;48;7
2569;47;7
2570;48;7
2571;48;7
2572;47;7
2573;47;7
2574;48;7
2575;48;7
2576;48;7
2577;47;7
2578;48;7
2579;48;7
2580;48;7
2581;48;7
2582;48;7
2583;47;7
2584;47;7
2585;47;7
2586;48;7
2587;48;7
2588;48;7
2589;48;7
2590;48;7
2591;48;7
2592;48;7
2593;48;7
2594;48;7
2595;48;7
2596;48;7
2597;48;7
2598;48;7
2599;48;7
2600;48;7
2601;48;7
2602;48;7
2603;48;7
2604;47;7
2605;47;7
2606;47;7
2607;47;7
2608;47;7
2609;47;7
2610;47;7
2611;47;7
2612;47;7
2613;47;7
2614;47;7
2615;47;7
2616;47;7
2617;46;7
2618;46;7
2619;46;7
2620;46;7
2621;46;7
2622;46;7
2623;46;7
2624;46;7
2625;46;7
2626;46;7
2627;47;7
2628;46;7
2629;46;7
2630;46;7
2631;46;7
2632;47;7
2633;46;7
2634;47;7
2635;47;7
2636;47;7
2637;47;7
2638;46;7
2639;46;7
2640;46;7
2641;46;7
2642;46;7
2643;46;7
2644;46;7
2645;47;7
2646;46;7
2647;46;7
2648;46;7
2649;47;7
2650;48;7
2651;48;7
2652;48;7
2653;47;7
2654;48;7
2655;49;7
2656;48;7
2657;47;7
2658;47;7
2659;47;7
2660;47;7
2661;48;7
2662;48;7
2663;48;7
2664;48;7
2665;49;7
2666;49;7
2667;48;7
2668;49;7
2669;49;7
2670;48;7
2671;49;7
2672;49;7
2673;49;7
2674;49;7
2675;49;7
2676;49;7
2677;49;7
2678;49;7
2679;49;7
2680;50;7
2681;50;7
2682;50;7
2683;49;7
2684;49;7
2685;49;7
2686;49;7
2687;49;7
2688;48;7
2689;48;7
2690;48;7
2691;48;7
2692;49;7
2693;49;7
2694;49;7
2695;49;7
2696;49;7
2697;49;7
2698;49;7
2699;49;7
2700;49;7
2701;49;7
2702;49;7
2703;49;7
2704;49;7
2705;48;7
2706;48;7
2707;48;7
2708;48;7
2709;48;7
2710;49;7
2711;48;7
2712;49;7
2713;48;7
2714;48;7
2715;48;7
2716;48;7
2717;48;7
2718;48;7
2719;48;7
2720;49;7
2721;49;7
2722;49;7
2723;49;7
2724;49;7
2725;49;7
2726;49;7
2727;50;7
2728;51;7
2729;50;7
2730;51;7
2731;50;7
2732;50;7
2733;50;7
2734;50;7
2735;50;7
2736;51;7
2737;51;7
2738;51;7
2739;51;7
2740;50;7
2741;50;7
2742;50;7
2743;50;7
2744;50;7
2745;49;7
2746;49;7
2747;50;7
2748;50;7
2749;50;7
2750;50;7
2751;50;7
2752;50;7
2753;51;7
2754;50;7
2755;49;7
2756;51;7
2757;51;7
2758;51;7
2759;52;7
2760;51;7
2761;52;7
2762;52;7
2763;52;7
2764;52;7
2765;52;7
2766;52;7
2767;52;7
2768;52;7
2769;52;7
2770;52;7
2771;52;7
2772;52;7
2773;52;7
2774;52;7
2775;52;7
2776;54;7
2777;53;7
2778;54;7
2779;54;7
2780;54;7
2781;54;7
2782;53;7
2783;54;7
2784;54;7
2785;54;7
2786;53;7
2787;54;7
2788;53;7
2789;53;7
2790;54;7
2791;52;7
2792;54;7
2793;53;7
2794;54;7
2795;54;7
2796;54;7
2797;54;7
2798;54;7
2799;54;7
2800;54;7
2801;54;7
2802;54;7
2803;54;7
2804;54;7
2805;54;7
2806;55;7
2807;54;7
2808;55;7
2809;55;7
2810;54;7
2811;55;7
2812;55;7
2813;55;7
2814;55;7
2815;56;7
2816;56;7
2817;56;7
2818;56;7
2819;55;7
2820;55;7
2821;55;7
2822;55;7
2823;56;7
2824;56;7
2825;56;7
2826;56;7
2827;55;7
2828;55;7
2829;55;7
2830;55;7
2831;55;7
2832;55;7
2833;55;7
2834;55;7
2835;55;7
2836;55;7
2837;55;7
2838;55;7
2839;55;7
2840;55;7
2841;55;7
2842;55;7
2843;55;7
2844;55;7
2845;55;7
2846;55;7
2847;54;7
2848;55;7
2849;55;7
2850;55;7
2851;54;7
2852;55;7
2853;54;7
2854;54;7
2855;54;7
2856;55;7
2857;55;7
2858;56;7
2859;56;7
2860;55;7
2861;56;7
2862;57;7
2863;56;7
2864;56;7
2865;56;7
2866;56;7
2867;56;7
2868;56;7
2869;56;7
2870;56;7
2871;56;7
2872;56;7
2873;56;7
2874;56;7
2875;57;7
2876;56;7
2877;56;7
2878;56;7
2879;56;7
2880;56;7
2881;57;7
2882;56;7
2883;57;7
2884;57;7
2885;58;7
2886;58;7
2887;58;7
2888;58;7
2889;58;7
2890;58;7
2891;58;7
2892;58;7
2893;59;7
2894;59;7
2895;59;7
2896;59;7
2897;57;7
2898;57;7
2899;57;7
2900;57;7
2901;57;7
2902;56;7
2903;56;7
2904;57;7
2905;57;7
2906;57;7
2907;57;7
2908;58;7
2909;58;7
2910;58;7
2911;58;7
2912;58;7
2913;58;7
2914;58;7
2915;58;7
2916;58;7
2917;58;7
2918;58;7
2919;58;7
2920;58;7
2921;57;7
2922;57;7
2923;57;7
2924;57;7
2925;57;7
2926;57;7
2927;57;7
2928;57;7
2929;57;7
2930;57;7
2931;57;7
2932;57;7
2933;57;7
2934;57;7
2935;57;7
2936;57;7
2937;57;7
2938;57;7
2939;57;7
2940;57;7
2941;57;7
2942;57;7
2943;57;7
2944;57;7
2945;57;7
2946;57;7
2947;58;7
2948;57;7
2949;58;7
2950;58;7
2951;58;7
2952;57;7
2953;58;7
2954;58;7
2955;58;7
2956;58;7
2957;58;7
2958;58;7
2959;58;7
2960;58;7
2961;58;7
2962;58;7
2963;58;7
2964;58;7
2965;58;7
2966;58;7
2967;58;7
2968;58;7
2969;58;7
2970;58;7
2971;58;7
2972;58;7
2973;58;7
2974;58;7
2975;58;7
2976;59;7
2977;59;7
2978;58;7
2979;58;7
2980;58;7
2981;58;7
2982;58;7
2983;58;7
2984;58;7
2985;58;7
2986;58;7
2987;58;7
2988;58;7
2989;58;7
2990;58;7
2991;58;7
2992;58;7
2993;58;7
2994;58;7
2995;58;7
2996;58;7
2997;58;7
2998;58;7
2999;58;7
3000;58;7
3001;58;7
3002;58;7
3003;58;7
3004;58;7
3005;58;7
3006;58;7
3007;58;7
3008;58;7
3009;58;7
3010;58;7
3011;58;7
3012;58;7
3013;58;7
3014;58;7
3015;58;7
3016;57;7
3017;58;7
3018;57;7
3019;57;7
3020;57;7
3021;58;7
3022;58;7
3023;58;7
3024;58;7
3025;58;7
3026;57;7
3027;57;7
3028;57;7
3029;56;7
3030;57;7
3031;57;7
3032;57;7
3033;57;7
3034;57;7
3035;57;7
3036;57;7
3037;57;7
3038;57;7
3039;57;7
3040;57;7
3041;57;7
3042;57;7
3043;57;7
3044;57;7
3045;57;7
3046;57;7
3047;57;7
3048;57;7
3049;57;7
3050;57;7
3051;57;7
3052;57;7
3053;56;7
3054;55;7
3055;55;7
3056;55;7
3057;55;7
3058;55;7
3059;55;7
3060;55;7
3061;55;7
3062;55;7
3063;55;7
3064;55;7
3065;55;7
3066;55;7
3067;55;7
3068;55;7
3069;55;7
3070;55;7
3071;55;7
3072;55;7
3073;55;7
3074;55;7
3075;55;7
3076;55;7
3077;55;7
3078;55;7
3079;55;7
3080;55;7
3081;55;7
3082;55;7
3083;55;7
3084;55;7
3085;55;7
3086;55;7
3087;55;7
3088;55;7
3089;55;7
3090;54;7
3091;54;7
3092;54;7
3093;54;7
3094;54;7
3095;54;7
3096;54;7
3097;54;7
3098;54;7
3099;54;7
3100;54;7
3101;53;7
3102;53;7
3103;53;7
3104;53;7
3105;53;7
3106;53;7
3107;53;7
3108;53;7
3109;53;7
3110;53;7
3111;53;7
3112;54;7
3113;54;7
3114;54;7
3115;54;7
3116;54;7
3117;53;7
3118;54;7
3119;54;7
3120;54;7
3121;54;7
3122;54;7
3123;53;7
3124;54;7
3125;54;7
3126;54;7
3127;53;7
3128;53;7
3129;54;7
3130;54;7
3131;53;7
3132;54;7
3133;54;7
3134;54;7
3135;54;7
3136;54;7
3137;54;7
3138;54;7
3139;53;7
3140;54;7
3141;54;7
3142;54;7
3143;53;7
3144;53;7
3145;52;7
3146;52;7
3147;52;7
3148;54;7
3149;53;7
3150;54;7
3151;53;7
3152;53;7
3153;53;7
3154;53;7
3155;54;7
3156;54;7
3157;54;7
3158;54;7
3159;54;7
3160;54;7
3161;54;7
3162;54;7
3163;54;7
3164;54;7
3165;54;7
3166;54;7
3167;54;7
3168;54;7
3169;54;7
3170;54;7
3171;54;7
3172;54;7
3173;54;7
3174;54;7
3175;54;7
3176;54;7
3177;54;7
3178;54;7
3179;54;7
3180;54;7
3181;54;7
3182;54;7
3183;54;7
3184;54;7
3185;54;7
3186;54;7
3187;54;7
3188;54;7
3189;54;7
3190;54;7
3191;54;7
3192;54;7
3193;54;7
3194;54;7
3195;54;7
3196;54;7
3197;54;7
3198;54;7
3199;54;7
3200;54;7
3201;54;7
3202;54;7
3203;54;7
3204;54;7
3205;54;7
3206;54;7
3207;54;7
3208;54;7
3209;54;7
3210;54;7
3211;54;7
3212;54;7
3213;54;7
3214;54;7
3215;54;7
3216;54;7
3217;54;7
3218;54;7
3219;54;7
3220;54;7
3221;55;7
3222;55;7
3223;55;7
3224;56;7
3225;57;7
3226;56;7
3227;56;7
3228;56;7
3229;58;7
3230;57;7
3231;58;7
3232;58;7
3233;59;7
3234;59;7
3235;59;7
3236;59;7
3237;59;7
3238;58;7
3239;59;7
3240;59;7
3241;59;7
3242;59;7
3243;58;7
3244;59;7
3245;59;7
3246;59;7
3247;59;7
3248;59;7
3249;59;7
3250;58;7
3251;58;7
3252;58;7
3253;59;7
3254;58;7
3255;58;7
3256;58;7
3257;58;7
3258;58;7
3259;58;7
3260;58;7
3261;58;7
3262;58;7
3263;58;7
3264;59;7
3265;59;7
3266;59;7
3267;59;7
3268;59;7
3269;60;7
3270;60;7
3271;59;7
3272;60;7
3273;60;7
3274;59;7
3275;59;7
3276;60;7
3277;60;7
3278;60;7
3279;59;7
3280;59;7
3281;59;7
3282;59;7
3283;59;7
3284;58;7
3285;58;7
3286;58;7
3287;58;7
3288;58;7
3289;57;7
3290;57;7
3291;57;7
3292;57;7
3293;57;7
3294;57;7
3295;57;7
3296;57;7
3297;57;7
3298;57;7
3299;57;7
3300;57;7
3301;57;7
3302;57;7
3303;58;7
3304;57;7
3305;58;7
3306;57;7
3307;58;7
3308;58;7
3309;58;7
3310;58;7
3311;58;7
3312;58;7
3313;58;7
3314;58;7
3315;58;7
3316;58;7
3317;58;7
3318;58;7
3319;58;7
3320;58;7
3321;58;7
3322;58;7
3323;58;7
3324;59;7
3325;59;7
3326;59;7
3327;59;7
3328;59;7
3329;59;7
3330;59;7
3331;59;7
3332;59;7
3333;59;7
3334;59;7
3335;58;7
3336;59;7
3337;59;7
3338;59;7
3339;59;7
3340;59;7
3341;59;7
3342;59;7
3343;59;7
3344;59;7
3345;59;7
3346;59;7
3347;59;7
3348;59;7
3349;59;7
3350;59;7
3351;59;7
3352;59;7
3353;58;7
3354;58;7
3355;58;7
3356;58;7
3357;58;7
3358;58;7
3359;58;7
3360;58;7
3361;58;7
3362;58;7
3363;58;7
3364;58;7
3365;59;7
3366;58;7
3367;59;7
3368;59;7
3369;59;7
3370;59;7
3371;59;7
3372;59;7
3373;59;7
3374;59;7
3375;59;7
3376;59;7
3377;59;7
3378;59;7
3379;59;7
3380;59;7
3381;59;7
3382;59;7
3383;59;7
3384;59;7
3385;59;7
3386;59;7
3387;59;7
3388;59;7
3389;59;7
3390;59;7
3391;59;7
3392;59;7
3393;59;7
3394;59;7
3395;59;7
3396;59;7
3397;59;7
3398;59;7
3399;59;7
3400;59;7
3401;59;7
3402;59;7
3403;58;7
3404;58;7
3405;58;7
3406;58;7
3407;58;7
3408;58;7
3409;58;7
3410;58;7
3411;57;7
3412;57;7
3413;57;7
3414;57;7
3415;57;7
3416;57;7
3417;57;7
3418;57;7
3419;58;7
3420;58;7
3421;58;7
3422;58;7
3423;58;7
3424;58;7
3425;58;7
3426;58;7
3427;57;7
3428;57;7
3429;57;7
3430;57;7
3431;57;7
3432;57;7
3433;57;7
3434;57;7
3435;57;7
3436;57;7
3437;57;7
3438;57;7
3439;57;7
3440;57;7
3441;57;7
3442;57;7
3443;57;7
3444;58;7
3445;58;7
3446;58;7
3447;58;7
3448;58;7
3449;58;7
3450;58;7
3451;58;7
3452;58;7
3453;58;7
3454;58;7
3455;58;7
3456;58;7
3457;58;7
3458;58;7
3459;58;7
3460;58;7
3461;58;7
3462;58;7
3463;58;7
3464;58;7
3465;58;7
3466;59;7
3467;59;7
3468;59;7
3469;59;7
3470;58;7
3471;58;7
3472;59;7
3473;59;7
3474;59;7
3475;59;7
3476;59;7
3477;59;7
3478;59;7
3479;60;7
3480;60;7
3481;60;7
3482;62;7
3483;60;7
3484;60;7
3485;61;7
3486;61;7
3487;61;7
3488;61;7
3489;61;7
3490;61;7
3491;61;7
3492;62;7
3493;62;7
3494;61;7
3495;61;7
3496;63;7
3497;63;7
3498;63;7
3499;64;7
3500;63;7
3501;63;7
3502;63;7
3503;62;7
3504;62;7
3505;63;7
3506;63;7
3507;64;7
3508;64;7
3509;65;7
3510;64;7
3511;65;7
3512;65;7
3513;65;7
3514;65;7
3515;65;7
3516;65;7
3517;65;7
3518;65;7
3519;65;7
3520;65;7
3521;65;7
3522;65;7
3523;65;7
3524;65;7
3525;65;7
3526;65;7
3527;65;7
3528;65;7
3529;65;7
3530;66;7
3531;66;7
3532;66;7
3533;66;7
3534;66;7
3535;66;7
3536;66;7
3537;66;7
3538;66;7
3539;66;7
3540;66;7
3541;66;7
3542;66;7
3543;66;7
3544;66;7
3545;66;7
3546;66;7
3547;66;7
3548;66;7
3549;66;7
3550;66;7
3551;66;7
3552;66;7
3553;66;7
3554;66;7
3555;66;7
3556;66;7
3557;66;7
3558;65;7
3559;65;7
3560;65;7
3561;65;7
3562;65;7
3563;65;7
3564;65;7
3565;64;7
3566;64;7
3567;64;7
3568;64;7
3569;64;7
3570;64;7
3571;64;7
3572;64;7
3573;64;7
3574;64;7
3575;64;7
3576;64;7
3577;64;7
3578;64;7
3579;64;7
3580;64;7
3581;64;7
3582;64;7
3583;64;7
3584;64;7
3585;64;7
3586;64;7
3587;64;7
3588;64;7
3589;64;7
3590;64;7
3591;64;7
3592;64;7
3593;64;7
3594;64;7
3595;64;7
3596;64;7
3597;64;7
3598;65;7
3599;65;7
3600;65;7
3601;65;7
3602;65;7
3603;64;7
3604;64;7
3605;64;7
3606;65;7
3607;65;7
3608;65;7
3609;65;7
3610;65;7
3611;65;7
3612;65;7
3613;65;7
3614;66;7
3615;66;7
3616;66;7
3617;67;7
3618;65;7
3619;64;7
3620;66;7
3621;67;7
3622;64;7
3623;66;7
3624;67;7
3625;68;7
3626;68;7
3627;68;7
3628;69;7
3629;68;7
3630;68;7
3631;68;7
3632;68;7
3633;68;7
3634;68;7
3635;68;7
3636;68;7
3637;68;7
3638;68;7
3639;68;7
3640;67;7
3641;67;7
3642;67;7
3643;67;7
3644;67;7
3645;67;7
3646;67;7
3647;67;7
3648;66;7
3649;65;7
3650;65;7
3651;65;7
3652;65;7
3653;65;7
3654;66;7
3655;66;7
3656;67;7
3657;67;7
3658;67;7
3659;67;7
3660;67;7
3661;67;7
3662;67;7
3663;67;7
3664;67;7
3665;67;7
3666;67;7
3667;67;7
3668;67;7
3669;66;7
3670;66;7
3671;66;7
3672;66;7
3673;67;7
3674;66;7
3675;66;7
3676;66;7
3677;66;7
3678;66;7
3679;66;7
3680;66;7
3681;66;7
3682;67;7
3683;66;7
3684;66;7
3685;67;7
3686;66;7
3687;65;7
3688;65;7
3689;65;7
3690;64;7
3691;64;7
3692;64;7
3693;64;7
3694;64;7
3695;64;7
3696;64;7
3697;64;7
3698;64;7
3699;64;7
3700;64;7
3701;64;7
3702;65;7
3703;64;7
3704;65;7
3705;63;7
3706;63;7
3707;63;7
3708;63;7
3709;63;7
3710;63;7
3711;63;7
3712;63;7
3713;63;7
3714;63;7
3715;63;7
3716;64;7
3717;64;7
3718;63;7
3719;62;7
3720;62;7
3721;62;7
3722;62;7
3723;61;7
3724;61;7
3725;61;7
3726;61;7
3727;62;7
3728;62;7
3729;62;7
3730;61;7
3731;62;7
3732;62;7
3733;62;7
3734;62;7
3735;62;7
3736;62;7
3737;62;7
3738;62;7
3739;62;7
3740;62;7
3741;62;7
3742;62;7
3743;62;7
3744;62;7
3745;62;7
3746;62;7
3747;62;7
3748;62;7
3749;62;7
3750;62;7
3751;62;7
3752;62;7
3753;62;7
3754;62;7
3755;62;7
3756;62;7
3757;62;7
3758;62;7
3759;62;7
3760;62;7
3761;62;7
3762;62;7
3763;62;7
3764;63;7
3765;62;7
3766;62;7
3767;62;7
3768;62;7
3769;62;7
3770;62;7
3771;62;7
3772;62;7
3773;62;7
3774;62;7
3775;62;7
3776;62;7
3777;63;7
3778;62;7
3779;62;7
3780;62;7
3781;61;7
3782;61;7
3783;61;7
3784;61;7
3785;61;7
3786;61;7
3787;61;7
3788;61;7
3789;61;7
3790;61;7
3791;61;7
3792;61;7
3793;61;7
3794;61;7
3795;61;7
3796;61;7
3797;62;7
3798;61;7
3799;61;7
3800;61;7
3801;61;7
3802;61;7
3803;62;7
3804;62;7
3805;62;7
3806;62;7
3807;61;7
3808;62;7
3809;61;7
3810;62;7
3811;62;7
3812;62;7
3813;62;7
3814;63;7
3815;61;7
3816;61;7
3817;62;7
3818;63;7
3819;61;7
3820;62;7
3821;62;7
3822;61;7
3823;62;7
3824;61;7
3825;61;7
3826;63;7
3827;62;7
3828;62;7
3829;63;7
3830;62;7
3831;62;7
3832;63;7
3833;63;7
3834;63;7
3835;63;7
3836;63;7
3837;63;7
3838;63;7
3839;63;7
3840;63;7
3841;63;7
3842;63;7
3843;63;7
3844;63;7
3845;63;7
3846;63;7
3847;63;7
3848;63;7
3849;63;7
3850;63;7
3851;63;7
3852;63;7
3853;63;7
3854;63;7
3855;63;7
3856;63;7
3857;63;7
3858;63;7
3859;63;7
3860;63;7
3861;63;7
3862;63;7
3863;63;7
3864;63;7
3865;63;7
3866;63;7
3867;63;7
3868;63;7
3869;63;7
3870;62;7
3871;63;7
3872;63;7
3873;63;7
3874;63;7
3875;63;7
3876;63;7
3877;63;7
3878;63;7
3879;63;7
3880;63;7
3881;63;7
3882;63;7
3883;63;7
3884;63;7
3885;63;7
3886;63;7
3887;63;7
3888;63;7
3889;63;7
3890;63;7
3891;63;7
3892;63;7
3893;63;7
3894;63;7
3895;63;7
3896;63;7
3897;63;7
3898;63;7
3899;63;7
3900;63;7
3901;63;7
3902;63;7
3903;62;7
3904;62;7
3905;62;7
3906;62;7
3907;62;7
3908;62;7
3909;62;7
3910;62;7
3911;62;7
3912;62;7
3913;62;7
3914;62;7
3915;62;7
3916;62;7
3917;62;7
3918;62;7
3919;62;7
3920;62;7
3921;62;7
3922;62;7
3923;62;7
3924;62;7
3925;62;7
3926;62;7
3927;62;7
3928;62;7
3929;62;7
3930;62;7
3931;62;7
3932;62;7
3933;62;7
3934;62;7
3935;62;7
3936;62;7
3937;62;7
3938;62;7
3939;62;7
3940;62;7
3941;61;7
3942;61;7
3943;62;7
3944;61;7
3945;61;7
3946;61;7
3947;61;7
3948;61;7
3949;61;7
3950;61;7
3951;61;7
3952;61;7
3953;61;7
3954;61;7
3955;61;7
3956;61;7
3957;61;7
3958;61;7
3959;61;7
3960;61;7
3961;61;7
3962;61;7
3963;61;7
3964;61;7
3965;61;7
3966;62;7
3967;62;7
3968;62;7
3969;62;7
3970;62;7
3971;63;7
3972;63;7
3973;63;7
3974;63;7
3975;63;7
3976;63;7
3977;63;7
3978;64;7
3979;64;7
3980;64;7
3981;64;7
3982;64;7
3983;64;7
3984;64;7
3985;63;7
3986;63;7
3987;64;7
3988;64;7
3989;64;7
3990;63;7
3991;64;7
3992;64;7
3993;64;7
3994;64;7
3995;64;7
3996;64;7
3997;64;7
3998;64;7
3999;63;7
4000;63;7
4001;64;7
4002;64;7
4003;63;7
4004;64;7
4005;64;7
4006;64;7
4007;63;7
4008;63;7
4009;63;7
4010;64;7
4011;63;7
4012;63;7
4013;64;7
4014;63;7
4015;64;7
4016;64;7
4017;64;7
4018;65;7
4019;66;7
4020;66;7
4021;65;7
4022;65;7
4023;65;7
4024;65;7
4025;65;7
4026;65;7
4027;64;7
4028;62;7
4029;64;7
4030;63;7
4031;64;7
4032;64;7
4033;63;7
4034;63;7
4035;64;7
4036;64;7
4037;64;7
4038;63;7
4039;63;7
4040;64;7
4041;64;7
4042;63;7
4043;63;7
4044;63;7
4045;63;7
4046;63;7
4047;63;7
4048;62;7
4049;63;7
4050;63;7
4051;63;7
4052;63;7
4053;61;7
4054;62;7
4055;62;7
4056;62;7
4057;62;7
4058;62;7
4059;62;7
4060;61;7
4061;62;7
4062;63;7
4063;63;7
4064;62;7
4065;63;7
4066;63;7
4067;63;7
4068;63;7
4069;63;7
4070;63;7
4071;63;7
4072;63;7
4073;63;7
4074;63;7
4075;63;7
4076;63;7
4077;63;7
4078;63;7
4079;63;7
4080;63;7
4081;63;7
4082;63;7
4083;63;7
4084;63;7
4085;63;7
4086;63;7
4087;63;7
4088;63;7
4089;63;7
4090;62;7
4091;62;7
4092;62;7
4093;62;7
4094;62;7
4095;62;7
4096;62;7
4097;62;7
4098;62;7
4099;62;7
4100;61;7
4101;61;7
4102;61;7
4103;61;7
4104;61;7
4105;61;7
4106;61;7
4107;61;7
4108;61;7
4109;61;7
4110;61;7
4111;61;7
4112;61;7
4113;61;7
4114;61;7
4115;61;7
4116;61;7
4117;61;7
4118;60;7
4119;60;7
4120;60;7
4121;60;7
4122;60;7
4123;60;7
4124;60;7
4125;60;7
4126;60;7
4127;60;7
4128;60;7
4129;60;7
4130;60;7
4131;60;7
4132;60;7
4133;60;7
4134;60;7
4135;61;7
4136;61;7
4137;60;7
4138;60;7
4139;60;7
4140;60;7
4141;60;7
4142;60;7
4143;60;7
4144;60;7
4145;60;7
4146;60;7
4147;60;7
4148;60;7
4149;60;7
4150;60;7
4151;60;7
4152;60;7
4153;60;7
4154;60;7
4155;60;7
4156;60;7
4157;60;7
4158;60;7
4159;60;7
4160;60;7
4161;60;7
4162;60;7
4163;60;7
4164;60;7
4165;60;7
4166;60;7
4167;60;7
4168;61;7
4169;61;7
4170;61;7
4171;61;7
4172;61;7
4173;60;7
4174;61;7
4175;61;7
4176;60;7
4177;60;7
4178;60;7
4179;60;7
4180;60;7
4181;60;7
4182;60;7
4183;60;7
4184;60;7
4185;61;7
4186;61;7
4187;61;7
4188;60;7
4189;60;7
4190;61;7
4191;61;7
4192;61;7
4193;61;7
4194;60;7
4195;61;7
4196;60;7
4197;61;7
4198;62;7
4199;62;7
4200;62;7
4201;62;7
4202;62;7
4203;63;7
4204;63;7
4205;63;7
4206;63;7
4207;62;7
4208;63;7
4209;63;7
4210;63;7
4211;63;7
4212;62;7
4213;62;7
4214;62;7
4215;62;7
4216;62;7
4217;62;7
4218;62;7
4219;61;7
4220;62;7
4221;62;7
4222;62;7
4223;62;7
4224;61;7
4225;61;7
4226;61;7
4227;61;7
4228;62;7
4229;62;7
4230;62;7
4231;62;7
4232;62;7
4233;63;7
4234;62;7
4235;63;7
4236;63;7
4237;63;7
4238;62;7
4239;64;7
4240;64;7
4241;64;7
4242;64;7
4243;65;7
4244;64;7
4245;64;7
4246;64;7
4247;65;7
4248;65;7
4249;65;7
4250;65;7
4251;66;7
4252;66;7
4253;66;7
4254;66;7
4255;66;7
4256;66;7
4257;66;7
4258;66;7
4259;66;7
4260;67;7
4261;66;7
4262;66;7
4263;66;7
4264;65;7
4265;65;7
4266;65;7
4267;65;7
4268;65;7
4269;65;7
4270;65;7
4271;65;7
4272;65;7
4273;65;7
4274;65;7
4275;65;7
4276;65;7
4277;65;7
4278;64;7
4279;64;7
4280;64;7
4281;64;7
4282;64;7
4283;64;7
4284;64;7
4285;64;7
4286;64;7
4287;63;7
4288;63;7
4289;63;7
4290;63;7
4291;63;7
4292;63;7
4293;63;7
4294;63;7
4295;63;7
4296;63;7
4297;63;7
4298;63;7
4299;63;7
4300;63;7
4301;63;7
4302;63;7
4303;63;7
4304;63;7
4305;63;7
4306;63;7
4307;63;7
4308;63;7
4309;63;7
4310;64;7
4311;64;7
4312;64;7
4313;64;7
4314;65;7
4315;65;7
4316;65;7
4317;65;7
4318;66;7
4319;66;7
4320;66;7
4321;66;7
4322;66;7
4323;65;7
4324;66;7
4325;66;7
4326;66;7
4327;66;7
4328;66;7
4329;66;7
4330;66;7
4331;66;7
4332;67;7
4333;67;7
4334;67;7
4335;67;7
4336;67;7
4337;67;7
4338;67;7
4339;67;7
4340;66;7
4341;66;7
4342;66;7
4343;66;7
4344;66;7
4345;66;7
4346;66;7
4347;66;7
4348;66;7
4349;66;7
4350;66;7
4351;66;7
4352;66;7
4353;66;7
4354;66;7
4355;66;7
4356;66;7
4357;66;7
4358;66;7
4359;66;7
4360;65;7
4361;65;7
4362;65;7
4363;65;7
4364;65;7
4365;65;7
4366;65;7
4367;65;7
4368;65;7
4369;65;7
4370;65;7
4371;65;7
4372;65;7
4373;65;7
4374;65;7
4375;65;7
4376;65;7
4377;65;7
4378;65;7
4379;65;7
4380;65;7
4381;65;7
4382;65;7
4383;64;7
4384;64;7
4385;65;7
4386;65;7
4387;65;7
4388;65;7
4389;65;7
4390;65;7
4391;65;7
4392;65;7
4393;65;7
4394;65;7
4395;65;7
4396;65;7
4397;65;7
4398;65;7
4399;65;7
4400;65;7
4401;65;7
4402;65;7
4403;65;7
4404;65;7
4405;64;7
4406;64;7
4407;64;7
4408;64;7
4409;64;7
4410;64;7
4411;64;7
4412;64;7
4413;64;7
4414;64;7
4415;64;7
4416;64;7
4417;64;7
4418;64;7
4419;64;7
4420;63;7
4421;63;7
4422;63;7
4423;63;7
4424;63;7
4425;63;7
4426;63;7
4427;63;7
4428;63;7
4429;63;7
4430;63;7
4431;63;7
4432;63;7
4433;63;7
4434;63;7
4435;63;7
4436;63;7
4437;64;7
4438;64;7
4439;64;7
4440;64;7
4441;64;7
4442;64;7
4443;65;7
4444;64;7
4445;65;7
4446;64;7
4447;64;7
4448;64;7
4449;64;7
4450;63;7
4451;63;7
4452;63;7
4453;63;7
4454;63;7
4455;63;7
4456;63;7
4457;64;7
4458;64;7
4459;64;7
4460;64;7
4461;64;7
4462;65;7
4463;65;7
4464;64;7
4465;64;7
4466;65;7
4467;64;7
4468;64;7
4469;64;7
4470;64;7
4471;65;7
4472;65;7
4473;65;7
4474;65;7
4475;64;7
4476;64;7
4477;65;7
4478;65;7
4479;65;7
4480;65;7
4481;65;7
4482;65;7
4483;65;7
4484;65;7
4485;65;7
4486;65;7
4487;65;7
4488;65;7
4489;65;7
4490;65;7
4491;65;7
4492;65;7
4493;65;7
4494;65;7
4495;65;7
4496;65;7
4497;65;7
4498;65;7
4499;65;7
4500;65;7
4501;65;7
4502;65;7
4503;64;7
4504;64;7
4505;64;7
4506;64;7
4507;64;7
4508;64;7
4509;64;7
4510;64;7
4511;64;7
4512;64;7
4513;64;7
4514;64;7
4515;64;7
4516;64;7
4517;65;7
4518;65;7
4519;65;7
4520;65;7
4521;65;7
4522;65;7
4523;65;7
4524;65;7
4525;65;7
4526;65;7
4527;64;7
4528;64;7
4529;64;7
4530;64;7
4531;64;7
4532;65;7
4533;65;7
4534;65;7
4535;64;7
4536;64;7
4537;64;7
4538;65;7
4539;65;7
4540;65;7
4541;65;7
4542;64;7
4543;63;7
4544;64;7
4545;64;7
4546;64;7
4547;64;7
4548;64;7
4549;64;7
4550;64;7
4551;64;7
4552;64;7
4553;64;7
4554;64;7
4555;64;7
4556;64;7
4557;64;7
4558;63;7
4559;63;7
4560;63;7
4561;63;7
4562;63;7
4563;63;7
4564;63;7
4565;63;7
4566;63;7
4567;63;7
4568;63;7
4569;63;7
4570;63;7
4571;63;7
4572;63;7
4573;63;7
4574;64;7
4575;64;7
4576;64;7
4577;64;7
4578;64;7
4579;64;7
4580;64;7
4581;64;7
4582;64;7
4583;64;7
4584;64;7
4585;63;7
4586;63;7
4587;63;7
4588;63;7
4589;65;7
4590;63;7
4591;63;7
4592;64;7
4593;65;7
4594;64;7
4595;66;7
4596;66;7
4597;66;7
4598;66;7
4599;66;7
4600;66;7
4601;66;7
4602;66;7
4603;66;7
4604;66;7
4605;66;7
4606;66;7
4607;67;7
4608;66;7
4609;66;7
4610;66;7
4611;66;7
4612;65;7
4613;65;7
4614;65;7
4615;65;7
4616;65;7
4617;65;7
4618;67;7
4619;67;7
4620;67;7
4621;67;7
4622;67;7
4623;67;7
4624;67;7
4625;67;7
4626;67;7
4627;67;7
4628;67;7
4629;67;7
4630;67;7
4631;67;7
4632;67;7
4633;67;7
4634;68;7
4635;68;7
4636;68;7
4637;68;7
4638;68;7
4639;68;7
4640;67;7
4641;67;7
4642;67;7
4643;67;7
4644;67;7
4645;67;7
4646;68;7
4647;68;7
4648;68;7
4649;68;7
4650;68;7
4651;68;7
4652;68;7
4653;68;7
4654;68;7
4655;68;7
4656;68;7
4657;68;7
4658;68;7
4659;68;7
4660;68;7
4661;69;7
4662;69;7
4663;69;7
4664;69;7
4665;69;7
4666;69;7
4667;69;7
4668;69;7
4669;69;7
4670;69;7
4671;69;7
4672;69;7
4673;69;7
4674;69;7
4675;69;7
4676;69;7
4677;69;7
4678;68;7
4679;68;7
4680;68;7
4681;68;7
4682;68;7
4683;68;7
4684;68;7
4685;68;7
4686;68;7
4687;69;7
4688;68;7
4689;69;7
4690;68;7
4691;68;7
4692;68;7
4693;69;7
4694;69;7
4695;69;7
4696;70;7
4697;70;7
4698;70;7
4699;69;7
4700;69;7
4701;69;7
4702;69;7
4703;69;7
4704;69;7
4705;69;7
4706;69;7
4707;69;7
4708;69;7
4709;69;7
4710;69;7
4711;69;7
4712;69;7
4713;69;7
4714;69;7
4715;69;7
4716;69;7
4717;69;7
4718;69;7
4719;69;7
4720;69;7
4721;69;7
4722;70;7
4723;70;7
4724;70;7
4725;70;7
4726;70;7
4727;70;7
4728;70;7
4729;70;7
4730;70;7
4731;70;7
4732;70;7
4733;70;7
4734;70;7
4735;70;7
4736;70;7
4737;70;7
4738;70;7
4739;70;7
4740;70;7
4741;70;7
4742;71;7
4743;71;7
4744;71;7
4745;71;7
4746;71;7
4747;71;7
4748;71;7
4749;72;7
4750;71;7
4751;71;7
4752;71;7
4753;71;7
4754;71;7
4755;71;7
4756;71;7
4757;71;7
4758;71;7
4759;71;7
4760;71;7
4761;71;7
4762;71;7
4763;71;7
4764;71;7
4765;71;7
4766;71;7
4767;70;7
4768;70;7
4769;70;7
4770;70;7
4771;70;7
4772;70;7
4773;70;7
4774;70;7
4775;70;7
4776;70;7
4777;70;7
4778;70;7
4779;70;7
4780;70;7
4781;70;7
4782;70;7
4783;70;7
4784;70;7
4785;70;7
4786;70;7
4787;70;7
4788;70;7
4789;70;7
4790;70;7
4791;70;7
4792;70;7
4793;71;7
4794;71;7
4795;71;7
4796;71;7
4797;71;7
4798;72;7
4799;72;7
4800;70;7
4801;71;7
4802;71;7
4803;70;7
4804;71;7
4805;71;7
4806;71;7
4807;71;7
4808;71;7
4809;71;7
4810;71;7
4811;71;7
4812;71;7
4813;71;7
4814;71;7
4815;71;7
4816;71;7
4817;71;7
4818;71;7
4819;70;7
4820;70;7
4821;70;7
4822;70;7
4823;70;7
4824;70;7
4825;70;7
4826;70;7
4827;70;7
4828;70;7
4829;70;7
4830;70;7
4831;70;7
4832;70;7
4833;70;7
4834;70;7
4835;70;7
4836;70;7
4837;70;7
4838;70;7
4839;70;7
4840;70;7
4841;70;7
4842;70;7
4843;70;7
4844;70;7
4845;70;7
4846;70;7
4847;70;7
4848;70;7
4849;70;7
4850;70;7
4851;70;7
4852;70;7
4853;70;7
4854;70;7
4855;70;7
4856;70;7
4857;70;7
4858;70;7
4859;70;7
4860;70;7
4861;70;7
4862;70;7
4863;70;7
4864;70;7
4865;70;7
4866;70;7
4867;70;7
4868;70;7
4869;70;7
4870;70;7
4871;70;7
4872;70;7
4873;69;7
4874;70;7
4875;69;7
4876;69;7
4877;70;7
4878;69;7
4879;68;7
4880;67;7
4881;68;7
4882;68;7
4883;68;7
4884;68;7
4885;68;7
4886;68;7
4887;67;7
4888;67;7
4889;67;7
4890;67;7
4891;67;7
4892;67;7
4893;67;7
4894;67;7
4895;67;7
4896;67;7
4897;67;7
4898;67;7
4899;67;7
4900;67;7
4901;67;7
4902;67;7
4903;67;7
4904;67;7
4905;67;7
4906;67;7
4907;67;7
4908;67;7
4909;68;7
4910;68;7
4911;68;7
4912;68;7
4913;68;7
4914;68;7
4915;68;7
4916;68;7
4917;69;7
4918;69;7
4919;69;7
4920;68;7
4921;68;7
4922;68;7
4923;68;7
4924;68;7
4925;68;7
4926;68;7
4927;68;7
4928;68;7
4929;68;7
4930;67;7
4931;67;7
4932;67;7
4933;67;7
4934;67;7
4935;66;7
4936;66;7
4937;66;7
4938;66;7
4939;66;7
4940;66;7
4941;66;7
4942;66;7
4943;66;7
4944;66;7
4945;66;7
4946;66;7
4947;67;7
4948;67;7
4949;67;7
4950;67;7
4951;67;7
4952;67;7
4953;67;7
4954;67;7
4955;67;7
4956;67;7
4957;66;7
4958;66;7
4959;66;7
4960;65;7
4961;65;7
4962;65;7
4963;65;7
4964;65;7
4965;65;7
4966;65;7
4967;65;7
4968;65;7
4969;65;7
4970;65;7
4971;65;7
4972;65;7
4973;65;7
4974;65;7
4975;65;7
4976;65;7
4977;65;7
4978;65;7
4979;64;7
4980;64;7
4981;64;7
4982;64;7
4983;64;7
4984;64;7
4985;64;7
4986;64;7
4987;64;7
4988;64;7
4989;64;7
4990;64;7
4991;64;7
4992;64;7
4993;64;7
4994;64;7
4995;64;7
4996;64;7
4997;64;7
4998;64;7
4999;64;7
5000;64;7
5001;64;7
5002;64;7
5003;64;7
5004;64;7
5005;64;7
5006;64;7
5007;64;7
5008;64;7
5009;64;7
5010;64;7
5011;64;7
5012;64;7
5013;64;7
5014;64;7
5015;64;7
5016;63;7
5017;63;7
5018;63;7
5019;63;7
5020;63;7
5021;63;7
5022;63;7
5023;63;7
5024;64;7
5025;64;7
5026;63;7
5027;64;7
5028;64;7
5029;63;7
5030;64;7
5031;64;7
5032;64;7
5033;64;7
5034;64;7
5035;64;7
5036;64;7
5037;64;7
5038;64;7
5039;63;7
5040;63;7
5041;63;7
5042;63;7
5043;63;7
5044;63;7
5045;63;7
5046;63;7
5047;63;7
5048;63;7
5049;62;7
5050;62;7
5051;62;7
5052;62;7
5053;62;7
5054;62;7
5055;62;7
5056;62;7
5057;62;7
5058;62;7
5059;62;7
5060;62;7
5061;62;7
5062;62;7
5063;62;7
5064;62;7
5065;63;7
5066;63;7
5067;63;7
5068;63;7
5069;63;7
5070;63;7
5071;63;7
5072;63;7
5073;63;7
5074;63;7
5075;63;7
5076;63;7
5077;63;7
5078;63;7
5079;63;7
5080;63;7
5081;63;7
5082;63;7
5083;63;7
5084;63;7
5085;63;7
5086;63;7
5087;63;7
5088;62;7
5089;62;7
5090;62;7
5091;62;7
5092;62;7
5093;62;7
5094;62;7
5095;62;7
5096;62;7
5097;62;7
5098;62;7
5099;62;7
5100;62;7
5101;62;7
5102;62;7
5103;62;7
5104;62;7
5105;62;7
5106;62;7
5107;62;7
5108;62;7
5109;62;7
5110;62;7
5111;62;7
5112;62;7
5113;62;7
5114;62;7
5115;62;7
5116;62;7
5117;62;7
5118;62;7
5119;62;7
5120;61;7
5121;61;7
5122;61;7
5123;61;7
5124;61;7
5125;61;7
5126;61;7
5127;61;7
5128;61;7
5129;61;7
5130;61;7
5131;61;7
5132;61;7
5133;61;7
5134;61;7
5135;61;7
5136;61;7
5137;61;7
5138;62;7
5139;62;7
5140;62;7
5141;62;7
5142;62;7
5143;62;7
5144;62;7
5145;62;7
5146;62;7
5147;62;7
5148;62;7
5149;62;7
5150;62;7
5151;62;7
5152;62;7
5153;62;7
5154;62;7
5155;62;7
5156;62;7
5157;62;7
5158;62;7
5159;62;7
5160;62;7
5161;63;7
5162;63;7
5163;63;7
5164;63;7
5165;63;7
5166;63;7
5167;63;7
5168;63;7
5169;63;7
5170;62;7
5171;62;7
5172;62;7
5173;62;7
5174;62;7
5175;62;7
5176;62;7
5177;62;7
5178;62;7
5179;62;7
5180;63;7
5181;63;7
5182;63;7
5183;62;7
5184;62;7
5185;62;7
5186;62;7
5187;62;7
5188;62;7
5189;62;7
5190;62;7
5191;62;7
5192;62;7
5193;62;7
5194;62;7
5195;62;7
5196;62;7
5197;63;7
5198;63;7
5199;62;7
5200;63;7
5201;63;7
5202;63;7
5203;63;7
5204;63;7
5205;63;7
5206;63;7
5207;63;7
5208;63;7
5209;63;7
5210;63;7
5211;63;7
5212;63;7
5213;63;7
5214;63;7
5215;63;7
5216;63;7
5217;63;7
5218;63;7
5219;63;7
5220;63;7
5221;63;7
5222;63;7
5223;63;7
5224;63;7
5225;63;7
5226;63;7
5227;63;7
5228;63;7
5229;63;7
5230;63;7
5231;63;7
5232;63;7
5233;63;7
5234;63;7
5235;64;7
5236;63;7
5237;63;7
5238;63;7
5239;63;7
5240;63;7
5241;64;7
5242;63;7
5243;64;7
5244;62;7
5245;62;7
5246;62;7
5247;62;7
5248;62;7
5249;61;7
5250;62;7
5251;62;7
5252;63;7
5253;63;7
5254;62;7
5255;62;7
5256;62;7
5257;62;7
5258;62;7
5259;62;7
5260;62;7
5261;62;7
5262;63;7
5263;63;7
5264;63;7
5265;63;7
5266;63;7
5267;63;7
5268;63;7
5269;63;7
5270;63;7
5271;63;7
5272;63;7
5273;63;7
5274;64;7
5275;64;7
5276;64;7
5277;64;7
5278;64;7
5279;64;7
5280;64;7
5281;64;7
5282;64;7
5283;64;7
5284;64;7
5285;64;7
5286;64;7
5287;64;7
5288;64;7
5289;64;7
5290;64;7
5291;64;7
5292;64;7
5293;64;7
5294;64;7
5295;64;7
5296;64;7
5297;64;7
5298;64;7
5299;64;7
5300;64;7
5301;65;7
5302;65;7
5303;65;7
5304;65;7
5305;66;7
5306;66;7
5307;66;7
5308;66;7
5309;66;7
5310;66;7
5311;66;7
5312;66;7
5313;66;7
5314;67;7
5315;67;7
5316;67;7
5317;67;7
5318;67;7
5319;67;7
5320;67;7
5321;67;7
5322;67;7
5323;67;7
5324;67;7
5325;67;7
5326;67;7
5327;67;7
5328;67;7
5329;67;7
5330;67;7
5331;66;7
5332;66;7
5333;66;7
5334;66;7
5335;66;7
5336;66;7
5337;66;7
5338;66;7
5339;66;7
5340;66;7
5341;66;7
5342;66;7
5343;66;7
5344;66;7
5345;66;7
5346;66;7
5347;66;7
5348;66;7
5349;67;7
5350;67;7
5351;67;7
5352;67;7
5353;67;7
5354;67;7
5355;66;7
5356;66;7
5357;66;7
5358;66;7
5359;66;7
5360;66;7
5361;66;7
5362;66;7
5363;66;7
5364;67;7
5365;65;7
5366;66;7
5367;66;7
5368;66;7
5369;67;7
5370;67;7
5371;65;7
5372;66;7
5373;66;7
5374;66;7
5375;66;7
5376;66;7
5377;66;7
5378;66;7
5379;66;7
5380;66;7
5381;65;7
5382;65;7
5383;65;7
5384;65;7
5385;64;7
5386;64;7
5387;64;7
5388;64;7
5389;64;7
5390;64;7
5391;64;7
5392;64;7
5393;66;7
5394;65;7
5395;64;7
5396;65;7
5397;64;7
5398;64;7
5399;64;7
5400;64;7
5401;64;7
5402;65;7
5403;64;7
5404;64;7
5405;64;7
5406;65;7
5407;65;7
5408;63;7
5409;64;7
5410;64;7
5411;65;7
5412;65;7
5413;64;7
5414;64;7
5415;64;7
5416;65;7
5417;64;7
5418;64;7
5419;64;7
5420;64;7
5421;64;7
5422;64;7
5423;64;7
5424;64;7
5425;64;7
5426;64;7
5427;64;7
5428;64;7
5429;65;7
5430;65;7
5431;65;7
5432;65;7
5433;64;7
5434;64;7
5435;64;7
5436;64;7
5437;64;7
5438;64;7
5439;64;7
5440;64;7
5441;64;7
5442;64;7
5443;64;7
5444;64;7
5445;64;7
5446;64;7
5447;63;7
5448;63;7
5449;63;7
5450;63;7
5451;63;7
5452;64;7
5453;64;7
5454;65;7
5455;65;7
5456;65;7
5457;64;7
5458;65;7
5459;65;7
5460;65;7
5461;65;7
5462;64;7
5463;65;7
5464;65;7
5465;64;7
5466;65;7
5467;65;7
5468;65;7
5469;65;7
5470;65;7
5471;65;7
5472;65;7
5473;65;7
5474;65;7
5475;65;7
5476;65;7
5477;65;7
5478;65;7
5479;65;7
5480;65;7
5481;65;7
5482;65;7
5483;65;7
5484;65;7
5485;65;7
5486;65;7
5487;65;7
5488;65;7
5489;65;7
5490;65;7
5491;65;7
5492;65;7
5493;65;7
5494;65;7
5495;65;7
5496;65;7
5497;64;7
5498;64;7
5499;64;7
5500;64;7
5501;64;7
5502;64;7
5503;64;7
5504;64;7
5505;64;7
5506;64;7
5507;65;7
5508;64;7
5509;64;7
5510;63;7
5511;64;7
5512;63;7
5513;63;7
5514;62;7
5515;62;7
5516;62;7
5517;63;7
5518;63;7
5519;63;7
5520;63;7
5521;63;7
5522;63;7
5523;63;7
5524;63;7
5525;63;7
5526;63;7
5527;62;7
5528;62;7
5529;62;7
5530;62;7
5531;62;7
5532;62;7
5533;62;7
5534;62;7
5535;62;7
5536;62;7
5537;62;7
5538;62;7
5539;61;7
5540;61;7
5541;61;7
5542;61;7
5543;61;7
5544;61;7
5545;61;7
5546;61;7
5547;61;7
5548;61;7
5549;61;7
5550;61;7
5551;61;7
5552;61;7
5553;61;7
5554;62;7
5555;61;7
5556;61;7
5557;62;7
5558;62;7
5559;61;7
5560;61;7
5561;61;7
5562;61;7
5563;61;7
5564;62;7
5565;61;7
5566;62;7
5567;61;7
5568;61;7
5569;61;7
5570;61;7
5571;60;7
5572;61;7
5573;60;7
5574;61;7
5575;60;7
5576;60;7
5577;60;7
5578;60;7
5579;60;7
5580;60;7
5581;60;7
5582;60;7
5583;61;7
5584;61;7
5585;61;7
5586;60;7
5587;59;7
5588;59;7
5589;59;7
5590;60;7
5591;61;7
5592;60;7
5593;60;7
5594;61;7
5595;61;7
5596;61;7
5597;61;7
5598;61;7
5599;61;7
5600;61;7
5601;61;7
5602;61;7
5603;61;7
5604;61;7
5605;61;7
5606;61;7
5607;61;7
5608;61;7
5609;61;7
5610;61;7
5611;61;7
5612;61;7
5613;61;7
5614;61;7
5615;61;7
5616;61;7
5617;61;7
5618;61;7
5619;61;7
5620;61;7
5621;61;7
5622;61;7
5623;61;7
5624;61;7
5625;61;7
5626;61;7
5627;61;7
5628;61;7
5629;61;7
5630;61;7
5631;61;7
5632;61;7
5633;61;7
5634;61;7
5635;61;7
5636;60;7
5637;60;7
5638;60;7
5639;60;7
5640;60;7
5641;60;7
5642;61;7
5643;61;7
5644;61;7
5645;61;7
5646;61;7
5647;61;7
5648;60;7
5649;62;7
5650;61;7
5651;62;7
5652;63;7
5653;64;7
5654;63;7
5655;63;7
5656;62;7
5657;62;7
5658;63;7
5659;63;7
5660;64;7
5661;64;7
5662;64;7
5663;64;7
5664;64;7
5665;64;7
5666;63;7
5667;63;7
5668;64;7
5669;64;7
5670;64;7
5671;64;7
5672;64;7
5673;65;7
5674;64;7
5675;63;7
5676;63;7
5677;62;7
5678;61;7
5679;62;7
5680;63;7
5681;62;7
5682;62;7
5683;62;7
5684;62;7
5685;62;7
5686;62;7
5687;62;7
5688;63;7
5689;64;7
5690;63;7
5691;64;7
5692;64;7
5693;63;7
5694;64;7
5695;63;7
5696;63;7
5697;63;7
5698;63;7
5699;63;7
5700;63;7
5701;63;7
5702;63;7
5703;63;7
5704;64;7
5705;64;7
5706;64;7
5707;64;7
5708;63;7
5709;63;7
5710;64;7
5711;64;7
5712;63;7
5713;63;7
5714;63;7
5715;63;7
5716;63;7
5717;62;7
5718;62;7
5719;62;7
5720;62;7
5721;62;7
5722;62;7
5723;62;7
5724;62;7
5725;62;7
5726;62;7
5727;62;7
5728;62;7
5729;62;7
5730;62;7
5731;62;7
5732;62;7
5733;62;7
5734;62;7
5735;61;7
5736;61;7
5737;61;7
5738;61;7
5739;61;7
5740;61;7
5741;60;7
5742;61;7
5743;60;7
5744;60;7
5745;60;7
5746;60;7
5747;60;7
5748;60;7
5749;60;7
5750;60;7
5751;61;7
5752;61;7
5753;60;7
5754;60;7
5755;60;7
5756;60;7
5757;60;7
5758;60;7
5759;60;7
5760;61;7
5761;61;7
5762;61;7
5763;61;7
5764;61;7
5765;61;7
5766;61;7
5767;61;7
5768;61;7
5769;61;7
5770;61;7
5771;61;7
5772;61;7
5773;61;7
5774;61;7
5775;61;7
5776;61;7
5777;61;7
5778;61;7
5779;61;7
5780;60;7
5781;60;7
5782;60;7
5783;60;7
5784;60;7
5785;60;7
5786;60;7
5787;60;7
5788;60;7
5789;60;7
5790;60;7
5791;60;7
5792;60;7
5793;60;7
5794;60;7
5795;59;7
5796;59;7
5797;59;7
5798;59;7
5799;59;7
5800;59;7
5801;59;7
5802;59;7
5803;59;7
5804;59;7
5805;59;7
5806;59;7
5807;59;7
5808;59;7
5809;59;7
5810;59;7
5811;59;7
5812;59;7
5813;59;7
5814;59;7
5815;59;7
5816;59;7
5817;60;7
5818;60;7
5819;60;7
5820;60;7
5821;60;7
5822;60;7
5823;60;7
5824;60;7
5825;60;7
5826;60;7
5827;60;7
5828;60;7
5829;61;7
5830;61;7
5831;61;7
5832;61;7
5833;61;7
5834;61;7
5835;61;7
5836;61;7
5837;61;7
5838;61;7
5839;61;7
5840;61;7
5841;61;7
5842;61;7
5843;61;7
5844;61;7
5845;61;7
5846;61;7
5847;61;7
5848;61;7
5849;61;7
5850;61;7
5851;61;7
5852;61;7
5853;61;7
5854;61;7
5855;61;7
5856;61;7
5857;61;7
5858;61;7
5859;61;7
5860;59;7
5861;59;7
5862;59;7
5863;59;7
5864;59;7
5865;59;7
5866;60;7
5867;60;7
5868;60;7
5869;60;7
5870;60;7
5871;60;7
5872;60;7
5873;60;7
5874;60;7
5875;60;7
5876;60;7
5877;60;7
5878;60;7
5879;60;7
5880;60;7
5881;60;7
5882;59;7
5883;59;7
5884;59;7
5885;59;7
5886;59;7
5887;59;7
5888;59;7
5889;59;7
5890;59;7
5891;59;7
5892;59;7
5893;59;7
5894;59;7
5895;59;7
5896;59;7
5897;59;7
5898;59;7
5899;59;7
5900;59;7
5901;59;7
5902;59;7
5903;59;7
5904;59;7
5905;59;7
5906;59;7
5907;59;7
5908;59;7
5909;59;7
5910;59;7
5911;59;7
5912;59;7
5913;59;7
5914;59;7
5915;59;7
5916;58;7
5917;58;7
5918;58;7
5919;58;7
5920;58;7
5921;58;7
5922;58;7
5923;58;7
5924;58;7
5925;58;7
5926;58;7
5927;58;7
5928;58;7
5929;58;7
5930;58;7
5931;58;7
5932;58;7
5933;58;7
5934;58;7
5935;58;7
5936;58;7
5937;58;7
5938;58;7
5939;58;7
5940;58;7
5941;58;7
5942;58;7
5943;58;7
5944;58;7
5945;58;7
5946;58;7
5947;58;7
5948;58;7
5949;58;7
5950;57;7
5951;58;7
5952;58;7
5953;58;7
5954;58;7
5955;58;7
5956;58;7
5957;58;7
5958;58;7
5959;58;7
5960;58;7
5961;58;7
5962;58;7
5963;58;7
5964;58;7
5965;58;7
5966;58;7
5967;58;7
5968;58;7
5969;58;7
5970;58;7
5971;58;7
5972;58;7
5973;57;7
5974;57;7
5975;56;7
5976;56;7
5977;56;7
5978;56;7
5979;56;7
5980;56;7
5981;56;7
5982;56;7
5983;56;7
5984;56;7
5985;56;7
5986;56;7
5987;57;7
5988;57;7
5989;57;7
5990;57;7
5991;57;7
5992;57;7
5993;57;7
5994;57;7
5995;57;7
5996;56;7
5997;56;7
5998;56;7
5999;57;7
6000;56;7
6001;56;7
6002;56;7
6003;56;7
6004;57;7
6005;57;7
6006;57;7
6007;57;7
6008;57;7
6009;57;7
6010;57;7
6011;57;7
6012;57;7
6013;57;7
6014;57;7
6015;57;7
6016;57;7
6017;57;7
6018;57;7
6019;57;7
6020;57;7
6021;57;7
6022;56;7
6023;56;7
6024;56;7
6025;56;7
6026;56;7
6027;56;7
6028;56;7
6029;56;7
6030;56;7
6031;56;7
6032;56;7
6033;57;7
6034;57;7
6035;57;7
6036;57;7
6037;57;7
6038;57;7
6039;57;7
6040;57;7
6041;56;7
6042;56;7
6043;56;7
6044;56;7
6045;55;7
6046;55;7
6047;55;7
6048;55;7
6049;55;7
6050;55;7
6051;55;7
6052;55;7
6053;55;7
6054;55;7
6055;55;7
6056;55;7
6057;55;7
6058;55;7
6059;55;7
6060;55;7
6061;55;7
6062;55;7
6063;54;7
6064;54;7
6065;54;7
6066;54;7
6067;54;7
6068;55;7
6069;55;7
6070;55;7
6071;55;7
6072;55;7
6073;55;7
6074;55;7
6075;55;7
6076;55;7
6077;54;7
6078;55;7
6079;55;7
6080;55;7
6081;55;7
6082;55;7
6083;55;7
6084;55;7
6085;55;7
6086;55;7
6087;55;7
6088;55;7
6089;55;7
6090;55;7
6091;55;7
6092;55;7
6093;55;7
6094;55;7
6095;55;7
6096;55;7
6097;55;7
6098;55;7
6099;55;7
6100;55;7
6101;55;7
6102;55;7
6103;55;7
6104;55;7
6105;55;7
6106;55;7
6107;55;7
6108;55;7
6109;55;7
6110;56;7
6111;56;7
6112;57;7
6113;56;7
6114;56;7
6115;57;7
6116;57;7
6117;56;7
6118;57;7
6119;57;7
6120;57;7
6121;57;7
6122;57;7
6123;57;7
6124;57;7
6125;57;7
6126;57;7
6127;57;7
6128;57;7
6129;57;7
6130;57;7
6131;57;7
6132;57;7
6133;57;7
6134;57;7
6135;57;7
6136;57;7
6137;57;7
6138;57;7
6139;57;7
6140;57;7
6141;57;7
6142;57;7
6143;56;7
6144;56;7
6145;56;7
6146;56;7
6147;56;7
6148;56;7
6149;56;7
6150;56;7
6151;56;7
6152;55;7
6153;55;7
6154;56;7
6155;55;7
6156;55;7
6157;55;7
6158;55;7
6159;55;7
6160;55;7
6161;55;7
6162;55;7
6163;55;7
6164;55;7
6165;55;7
6166;55;7
6167;55;7
6168;55;7
6169;55;7
6170;55;7
6171;55;7
6172;54;7
6173;54;7
6174;54;7
6175;54;7
6176;54;7
6177;54;7
6178;54;7
6179;54;7
6180;54;7
6181;54;7
6182;54;7
6183;54;7
6184;54;7
6185;54;7
6186;54;7
6187;54;7
6188;54;7
6189;54;7
6190;54;7
6191;54;7
6192;54;7
6193;54;7
6194;54;7
6195;54;7
6196;54;7
6197;54;7
6198;54;7
6199;54;7
6200;54;7
6201;54;7
6202;54;7
6203;54;7
6204;54;7
6205;54;7
6206;54;7
6207;54;7
6208;54;7
6209;54;7
6210;54;7
6211;54;7
6212;54;7
6213;54;7
6214;54;7
6215;54;7
6216;54;7
6217;54;7
6218;54;7
6219;54;7
6220;54;7
6221;54;7
6222;54;7
6223;54;7
6224;54;7
6225;54;7
6226;54;7
6227;53;7
6228;54;7
6229;54;7
6230;54;7
6231;54;7
6232;54;7
6233;54;7
6234;54;7
6235;54;7
6236;54;7
6237;54;7
6238;54;7
6239;54;7
6240;54;7
6241;54;7
6242;54;7
6243;54;7
6244;54;7
6245;54;7
6246;55;7
6247;55;7
6248;55;7
6249;54;7
6250;54;7
6251;55;7
6252;55;7
6253;55;7
6254;55;7
6255;55;7
6256;55;7
6257;55;7
6258;55;7
6259;55;7
6260;55;7
6261;55;7
6262;55;7
6263;55;7
6264;56;7
6265;55;7
6266;56;7
6267;55;7
6268;56;7
6269;55;7
6270;56;7
6271;56;7
6272;55;7
6273;55;7
6274;54;7
6275;54;7
6276;55;7
6277;55;7
6278;55;7
6279;55;7
6280;55;7
6281;55;7
6282;56;7
6283;55;7
6284;56;7
6285;56;7
6286;56;7
6287;56;7
6288;56;7
6289;56;7
6290;57;7
6291;57;7
6292;57;7
6293;57;7
6294;57;7
6295;57;7
6296;57;7
6297;57;7
6298;57;7
6299;57;7
6300;57;7
6301;57;7
6302;57;7
6303;57;7
6304;56;7
6305;56;7
6306;56;7
6307;56;7
6308;56;7
6309;56;7
6310;56;7
6311;57;7
6312;57;7
6313;57;7
6314;57;7
6315;57;7
6316;56;7
6317;57;7
6318;57;7
6319;57;7
6320;57;7
6321;57;7
6322;57;7
6323;57;7
6324;58;7
6325;58;7
6326;58;7
6327;58;7
6328;58;7
6329;57;7
6330;57;7
6331;57;7
6332;57;7
6333;59;7
6334;58;7
6335;59;7
6336;60;7
6337;59;7
6338;59;7
6339;59;7
6340;59;7
6341;58;7
6342;58;7
6343;57;7
6344;56;7
6345;55;7
6346;56;7
6347;57;7
6348;57;7
6349;57;7
6350;58;7
6351;58;7
6352;58;7
6353;59;7
6354;58;7
6355;58;7
6356;58;7
6357;59;7
6358;59;7
6359;59;7
6360;58;7
6361;58;7
6362;58;7
6363;58;7
6364;59;7
6365;60;7
6366;59;7
6367;59;7
6368;59;7
6369;59;7
6370;59;7
6371;59;7
6372;59;7
6373;60;7
6374;59;7
6375;60;7
6376;59;7
6377;59;7
6378;59;7
6379;59;7
6380;59;7
6381;59;7
6382;59;7
6383;60;7
6384;60;7
6385;60;7
6386;60;7
6387;60;7
6388;60;7
6389;60;7
6390;60;7
6391;60;7
6392;60;7
6393;60;7
6394;60;7
6395;60;7
6396;60;7
6397;60;7
6398;60;7
6399;60;7
6400;60;7
6401;59;7
6402;59;7
6403;59;7
6404;59;7
6405;59;7
6406;59;7
6407;59;7
6408;59;7
6409;59;7
6410;59;7
6411;59;7
6412;59;7
6413;59;7
6414;60;7
6415;59;7
6416;59;7
6417;60;7
6418;60;7
6419;60;7
6420;59;7
6421;60;7
6422;60;7
6423;60;7
6424;60;7
6425;59;7
6426;59;7
6427;59;7
6428;59;7
6429;59;7
6430;59;7
6431;59;7
6432;59;7
6433;58;7
6434;58;7
6435;58;7
6436;58;7
6437;58;7
6438;58;7
6439;58;7
6440;59;7
6441;58;7
6442;59;7
6443;58;7
6444;59;7
6445;59;7
6446;57;7
6447;57;7
6448;57;7
6449;57;7
6450;59;7
6451;59;7
6452;59;7
6453;59;7
6454;59;7
6455;59;7
6456;59;7
6457;59;7
6458;59;7
6459;59;7
6460;59;7
6461;59;7
6462;59;7
6463;59;7
6464;58;7
6465;58;7
6466;58;7
6467;58;7
6468;58;7
6469;58;7
6470;58;7
6471;58;7
6472;58;7
6473;59;7
6474;58;7
6475;58;7
6476;58;7
6477;58;7
6478;58;7
6479;59;7
6480;59;7
6481;59;7
6482;59;7
6483;59;7
6484;59;7
6485;59;7
6486;58;7
6487;58;7
6488;58;7
6489;58;7
6490;58;7
6491;58;7
6492;58;7
6493;58;7
6494;58;7
6495;58;7
6496;58;7
6497;58;7
6498;58;7
6499;59;7
6500;59;7
6501;59;7
6502;58;7
6503;58;7
6504;61;7
6505;59;7
6506;61;7
6507;61;7
6508;61;7
6509;61;7
6510;61;7
6511;61;7
6512;61;7
6513;60;7
6514;60;7
6515;61;7
6516;61;7
6517;61;7
6518;61;7
6519;61;7
6520;61;7
6521;61;7
6522;61;7
6523;61;7
6524;61;7
6525;61;7
6526;61;7
6527;61;7
6528;61;7
6529;62;7
6530;62;7
6531;62;7
6532;62;7
6533;62;7
6534;62;7
6535;61;7
6536;61;7
6537;61;7
6538;62;7
6539;62;7
6540;61;7
6541;61;7
6542;62;7
6543;61;7
6544;61;7
6545;61;7
6546;61;7
6547;61;7
6548;62;7
6549;61;7
6550;60;7
6551;60;7
6552;60;7
6553;60;7
6554;61;7
6555;61;7
6556;61;7
6557;61;7
6558;61;7
6559;60;7
6560;61;7
6561;61;7
6562;61;7
6563;61;7
6564;61;7
6565;61;7
6566;61;7
6567;61;7
6568;61;7
6569;61;7
6570;61;7
6571;60;7
6572;60;7
6573;60;7
6574;61;7
6575;60;7
6576;60;7
6577;60;7
6578;60;7
6579;60;7
6580;60;7
6581;60;7
6582;60;7
6583;60;7
6584;60;7
6585;60;7
6586;60;7
6587;60;7
6588;60;7
6589;60;7
6590;60;7
6591;60;7
6592;60;7
6593;60;7
6594;60;7
6595;60;7
6596;60;7
6597;60;7
6598;59;7
6599;60;7
6600;60;7
6601;60;7
6602;60;7
6603;60;7
6604;60;7
6605;60;7
6606;60;7
6607;60;7
6608;60;7
6609;60;7
6610;60;7
6611;60;7
6612;60;7
6613;60;7
6614;60;7
6615;60;7
6616;60;7
6617;60;7
6618;60;7
6619;60;7
6620;60;7
6621;60;7
6622;61;7
6623;60;7
6624;59;7
6625;60;7
6626;60;7
6627;60;7
6628;60;7
6629;60;7
6630;60;7
6631;60;7
6632;60;7
6633;60;7
6634;60;7
6635;61;7
6636;61;7
6637;61;7
6638;61;7
6639;61;7
6640;61;7
6641;60;7
6642;60;7
6643;60;7
6644;60;7
6645;60;7
6646;59;7
6647;59;7
6648;59;7
6649;59;7
6650;59;7
6651;59;7
6652;59;7
6653;59;7
6654;59;7
6655;59;7
6656;59;7
6657;59;7
6658;59;7
6659;59;7
6660;59;7
6661;60;7
6662;59;7
6663;59;7
6664;59;7
6665;60;7
6666;60;7
6667;60;7
6668;60;7
6669;60;7
6670;60;7
6671;60;7
6672;60;7
6673;60;7
6674;60;7
6675;60;7
6676;60;7
6677;60;7
6678;60;7
6679;60;7
6680;60;7
6681;60;7
6682;60;7
6683;60;7
6684;60;7
6685;60;7
6686;60;7
6687;60;7
6688;60;7
6689;60;7
6690;60;7
6691;60;7
6692;60;7
6693;60;7
6694;60;7
6695;60;7
6696;60;7
6697;60;7
6698;60;7
6699;60;7
6700;60;7
6701;60;7
6702;60;7
6703;60;7
6704;60;7
6705;60;7
6706;59;7
6707;59;7
6708;59;7
6709;59;7
6710;59;7
6711;59;7
6712;59;7
6713;59;7
6714;59;7
6715;59;7
6716;59;7
6717;59;7
6718;59;7
6719;59;7
6720;59;7
6721;59;7
6722;59;7
6723;58;7
6724;58;7
6725;58;7
6726;58;7
6727;58;7
6728;58;7
6729;58;7
6730;59;7
6731;59;7
6732;59;7
6733;59;7
6734;59;7
6735;59;7
6736;60;7
6737;60;7
6738;60;7
6739;61;7
6740;61;7
6741;61;7
6742;61;7
6743;61;7
6744;60;7
6745;61;7
6746;61;7
6747;60;7
6748;60;7
6749;60;7
6750;60;7
6751;60;7
6752;60;7
6753;59;7
6754;59;7
6755;59;7
6756;59;7
6757;59;7
6758;59;7
6759;59;7
6760;59;7
6761;59;7
6762;59;7
6763;59;7
6764;60;7
6765;60;7
6766;60;7
6767;60;7
6768;60;7
6769;60;7
6770;60;7
6771;60;7
6772;60;7
6773;60;7
6774;61;7
6775;61;7
6776;60;7
6777;60;7
6778;59;7
6779;59;7
6780;59;7
6781;59;7
6782;59;7
6783;59;7
6784;60;7
6785;59;7
6786;60;7
6787;59;7
6788;59;7
6789;59;7
6790;62;7
6791;62;7
6792;62;7
6793;60;7
6794;61;7
6795;61;7
6796;61;7
6797;61;7
6798;60;7
6799;60;7
6800;61;7
6801;61;7
6802;61;7
6803;61;7
6804;61;7
6805;61;7
6806;61;7
6807;61;7
6808;61;7
6809;60;7
6810;60;7
6811;61;7
6812;60;7
6813;60;7
6814;60;7
6815;60;7
6816;60;7
6817;60;7
6818;60;7
6819;60;7
6820;61;7
6821;61;7
6822;61;7
6823;61;7
6824;61;7
6825;61;7
6826;62;7
6827;62;7
6828;62;7
6829;61;7
6830;62;7
6831;62;7
6832;62;7
6833;62;7
6834;62;7
6835;62;7
6836;62;7
6837;62;7
6838;62;7
6839;62;7
6840;62;7
6841;62;7
6842;62;7
6843;62;7
6844;62;7
6845;62;7
6846;62;7
6847;62;7
6848;62;7
6849;62;7
6850;62;7
6851;62;7
6852;62;7
6853;62;7
6854;62;7
6855;62;7
6856;62;7
6857;62;7
6858;62;7
6859;62;7
6860;62;7
6861;62;7
6862;63;7
6863;63;7
6864;63;7
6865;63;7
6866;63;7
6867;63;7
6868;63;7
6869;63;7
6870;63;7
6871;63;7
6872;63;7
6873;63;7
6874;63;7
6875;63;7
6876;63;7
6877;63;7
6878;62;7
6879;62;7
6880;62;7
6881;62;7
6882;62;7
6883;62;7
6884;62;7
6885;62;7
6886;62;7
6887;61;7
6888;61;7
6889;61;7
6890;61;7
6891;62;7
6892;62;7
6893;62;7
6894;62;7
6895;62;7
6896;62;7
6897;62;7
6898;62;7
6899;62;7
6900;62;7
6901;62;7
6902;62;7
6903;62;7
6904;62;7
6905;62;7
6906;63;7
6907;63;7
6908;63;7
6909;63;7
6910;63;7
6911;63;7
6912;63;7
6913;63;7
6914;63;7
6915;63;7
6916;63;7
6917;63;7
6918;63;7
6919;62;7
6920;62;7
6921;62;7
6922;62;7
6923;62;7
6924;62;7
6925;62;7
6926;62;7
6927;62;7
6928;62;7
6929;62;7
6930;62;7
6931;62;7
6932;62;7
6933;62;7
6934;62;7
6935;62;7
6936;63;7
6937;63;7
6938;63;7
6939;62;7
6940;62;7
6941;62;7
6942;62;7
6943;62;7
6944;62;7
6945;63;7
6946;62;7
6947;63;7
6948;64;7
6949;63;7
6950;64;7
6951;64;7
6952;64;7
6953;64;7
6954;64;7
6955;64;7
6956;64;7
6957;64;7
6958;64;7
6959;65;7
6960;65;7
6961;65;7
6962;65;7
6963;65;7
6964;65;7
6965;65;7
6966;65;7
6967;65;7
6968;65;7
6969;65;7
6970;65;7
6971;65;7
6972;65;7
6973;65;7
6974;65;7
6975;65;7
6976;65;7
6977;65;7
6978;65;7
6979;65;7
6980;66;7
6981;66;7
6982;65;7
6983;65;7
6984;65;7
6985;65;7
6986;65;7
6987;65;7
6988;65;7
6989;65;7
6990;65;7
6991;65;7
6992;65;7
6993;65;7
6994;65;7
6995;65;7
6996;65;7
6997;65;7
6998;65;7
6999;65;7
7000;65;7
