"gen";"sp";"sim"
0;1;0
25;1;0
50;1;0
75;1;0
100;1;0
125;1;0
150;1;0
175;1;0
200;1;0
225;1;0
250;1;0
275;3;0
300;3;0
325;5;0
350;7;0
375;5;0
400;6;0
425;7;0
450;7;0
475;8;0
500;11;0
525;11;0
550;13;0
575;14;0
600;15;0
625;17;0
650;22;0
675;26;0
700;28;0
725;28;0
750;33;0
775;37;0
800;39;0
825;38;0
850;39;0
875;38;0
900;41;0
925;45;0
950;46;0
975;47;0
1000;47;0
1025;49;0
1050;49;0
1075;51;0
1100;53;0
1125;54;0
1150;54;0
1175;52;0
1200;55;0
1225;55;0
1250;56;0
1275;57;0
1300;58;0
1325;57;0
1350;59;0
1375;58;0
1400;60;0
1425;61;0
1450;60;0
1475;60;0
1500;60;0
1525;60;0
1550;64;0
1575;65;0
1600;68;0
1625;67;0
1650;68;0
1675;67;0
1700;66;0
1725;66;0
1750;67;0
1775;67;0
1800;67;0
1825;69;0
1850;70;0
1875;70;0
1900;71;0
1925;72;0
1950;67;0
1975;68;0
2000;69;0
2025;68;0
2050;69;0
2075;69;0
2100;70;0
2125;72;0
2150;74;0
2175;74;0
2200;73;0
2225;72;0
2250;76;0
2275;76;0
2300;76;0
2325;74;0
2350;76;0
2375;75;0
2400;77;0
2425;77;0
2450;76;0
2475;76;0
2500;78;0
2525;78;0
2550;79;0
2575;80;0
2600;79;0
2625;80;0
2650;80;0
2675;81;0
2700;81;0
2725;80;0
2750;82;0
2775;83;0
2800;84;0
2825;85;0
2850;85;0
2875;85;0
2900;85;0
2925;86;0
2950;88;0
2975;88;0
3000;90;0
3025;90;0
3050;89;0
3075;87;0
3100;86;0
3125;84;0
3150;86;0
3175;88;0
3200;89;0
3225;89;0
3250;89;0
3275;89;0
3300;88;0
3325;90;0
3350;88;0
3375;88;0
3400;87;0
3425;88;0
3450;87;0
3475;87;0
3500;87;0
3525;91;0
3550;91;0
3575;92;0
3600;92;0
3625;88;0
3650;88;0
3675;89;0
3700;90;0
3725;91;0
3750;93;0
3775;93;0
3800;94;0
3825;96;0
3850;90;0
3875;91;0
3900;88;0
3925;88;0
3950;88;0
3975;90;0
4000;89;0
4025;92;0
4050;91;0
4075;90;0
4100;84;0
4125;83;0
4150;86;0
4175;86;0
4200;87;0
4225;89;0
4250;91;0
4275;91;0
4300;90;0
4325;93;0
4350;93;0
4375;93;0
4400;94;0
4425;95;0
4450;97;0
4475;98;0
4500;98;0
4525;98;0
4550;98;0
4575;95;0
4600;95;0
4625;92;0
4650;94;0
4675;93;0
4700;93;0
4725;93;0
4750;91;0
4775;93;0
4800;92;0
4825;89;0
4850;86;0
4875;86;0
4900;88;0
4925;88;0
4950;87;0
4975;89;0
5000;86;0
5025;86;0
5050;88;0
5075;89;0
5100;88;0
5125;89;0
5150;88;0
5175;88;0
5200;88;0
5225;87;0
5250;87;0
5275;86;0
5300;85;0
5325;82;0
5350;83;0
5375;83;0
5400;85;0
5425;85;0
5450;85;0
5475;88;0
5500;90;0
5525;90;0
5550;91;0
5575;87;0
5600;87;0
5625;85;0
5650;86;0
5675;90;0
5700;90;0
5725;93;0
5750;93;0
5775;92;0
5800;91;0
5825;92;0
5850;92;0
5875;91;0
5900;88;0
5925;88;0
5950;90;0
5975;90;0
6000;91;0
6025;90;0
6050;89;0
6075;91;0
6100;92;0
6125;93;0
6150;90;0
6175;89;0
6200;88;0
6225;87;0
6250;88;0
6275;85;0
6300;84;0
6325;88;0
6350;86;0
6375;82;0
6400;82;0
6425;81;0
6450;82;0
6475;83;0
6500;83;0
6525;83;0
6550;81;0
6575;83;0
6600;84;0
6625;85;0
6650;81;0
6675;81;0
6700;81;0
6725;81;0
6750;80;0
6775;80;0
6800;80;0
6825;80;0
6850;80;0
6875;80;0
6900;81;0
6925;82;0
6950;82;0
6975;82;0
7000;82;0
0;1;1
25;1;1
50;1;1
75;1;1
100;1;1
125;1;1
150;1;1
175;2;1
200;2;1
225;2;1
250;2;1
275;2;1
300;1;1
325;1;1
350;1;1
375;2;1
400;2;1
425;2;1
450;2;1
475;3;1
500;3;1
525;4;1
550;8;1
575;10;1
600;12;1
625;12;1
650;14;1
675;19;1
700;19;1
725;23;1
750;21;1
775;22;1
800;25;1
825;26;1
850;27;1
875;27;1
900;27;1
925;30;1
950;32;1
975;38;1
1000;38;1
1025;38;1
1050;38;1
1075;40;1
1100;41;1
1125;41;1
1150;42;1
1175;46;1
1200;48;1
1225;47;1
1250;46;1
1275;46;1
1300;49;1
1325;49;1
1350;50;1
1375;51;1
1400;52;1
1425;52;1
1450;51;1
1475;53;1
1500;54;1
1525;54;1
1550;54;1
1575;55;1
1600;55;1
1625;55;1
1650;58;1
1675;62;1
1700;63;1
1725;63;1
1750;63;1
1775;65;1
1800;64;1
1825;64;1
1850;67;1
1875;67;1
1900;68;1
1925;71;1
1950;73;1
1975;74;1
2000;74;1
2025;73;1
2050;73;1
2075;72;1
2100;70;1
2125;73;1
2150;77;1
2175;77;1
2200;77;1
2225;79;1
2250;79;1
2275;81;1
2300;81;1
2325;81;1
2350;80;1
2375;81;1
2400;84;1
2425;84;1
2450;85;1
2475;85;1
2500;84;1
2525;83;1
2550;81;1
2575;79;1
2600;78;1
2625;78;1
2650;80;1
2675;80;1
2700;83;1
2725;84;1
2750;84;1
2775;84;1
2800;86;1
2825;88;1
2850;88;1
2875;86;1
2900;86;1
2925;87;1
2950;88;1
2975;88;1
3000;88;1
3025;87;1
3050;86;1
3075;84;1
3100;84;1
3125;83;1
3150;82;1
3175;83;1
3200;83;1
3225;83;1
3250;84;1
3275;86;1
3300;85;1
3325;87;1
3350;88;1
3375;89;1
3400;84;1
3425;84;1
3450;84;1
3475;84;1
3500;86;1
3525;89;1
3550;89;1
3575;88;1
3600;88;1
3625;87;1
3650;87;1
3675;89;1
3700;90;1
3725;90;1
3750;91;1
3775;91;1
3800;91;1
3825;90;1
3850;89;1
3875;88;1
3900;89;1
3925;89;1
3950;90;1
3975;91;1
4000;92;1
4025;91;1
4050;92;1
4075;94;1
4100;95;1
4125;96;1
4150;94;1
4175;93;1
4200;93;1
4225;94;1
4250;94;1
4275;96;1
4300;97;1
4325;98;1
4350;98;1
4375;99;1
4400;98;1
4425;99;1
4450;99;1
4475;98;1
4500;99;1
4525;99;1
4550;100;1
4575;99;1
4600;97;1
4625;97;1
4650;97;1
4675;95;1
4700;95;1
4725;94;1
4750;95;1
4775;95;1
4800;97;1
4825;98;1
4850;100;1
4875;101;1
4900;101;1
4925;102;1
4950;100;1
4975;95;1
5000;96;1
5025;96;1
5050;95;1
5075;94;1
5100;93;1
5125;92;1
5150;90;1
5175;90;1
5200;87;1
5225;88;1
5250;89;1
5275;88;1
5300;88;1
5325;89;1
5350;89;1
5375;88;1
5400;93;1
5425;91;1
5450;90;1
5475;89;1
5500;90;1
5525;90;1
5550;89;1
5575;90;1
5600;91;1
5625;91;1
5650;91;1
5675;93;1
5700;93;1
5725;91;1
5750;88;1
5775;89;1
5800;91;1
5825;93;1
5850;93;1
5875;95;1
5900;97;1
5925;97;1
5950;96;1
5975;95;1
6000;92;1
6025;88;1
6050;89;1
6075;91;1
6100;91;1
6125;91;1
6150;91;1
6175;88;1
6200;90;1
6225;90;1
6250;91;1
6275;89;1
6300;91;1
6325;92;1
6350;92;1
6375;91;1
6400;93;1
6425;95;1
6450;95;1
6475;94;1
6500;97;1
6525;98;1
6550;96;1
6575;97;1
6600;97;1
6625;97;1
6650;96;1
6675;96;1
6700;96;1
6725;97;1
6750;98;1
6775;97;1
6800;94;1
6825;94;1
6850;95;1
6875;95;1
6900;95;1
6925;95;1
6950;96;1
6975;94;1
7000;94;1
0;1;2
25;1;2
50;1;2
75;1;2
100;1;2
125;1;2
150;1;2
175;1;2
200;1;2
225;1;2
250;1;2
275;1;2
300;1;2
325;1;2
350;1;2
375;1;2
400;1;2
425;1;2
450;2;2
475;2;2
500;2;2
525;2;2
550;2;2
575;2;2
600;2;2
625;4;2
650;8;2
675;8;2
700;11;2
725;14;2
750;18;2
775;18;2
800;22;2
825;24;2
850;23;2
875;26;2
900;25;2
925;26;2
950;28;2
975;28;2
1000;32;2
1025;34;2
1050;36;2
1075;37;2
1100;40;2
1125;43;2
1150;42;2
1175;43;2
1200;45;2
1225;47;2
1250;47;2
1275;50;2
1300;50;2
1325;52;2
1350;51;2
1375;49;2
1400;49;2
1425;50;2
1450;53;2
1475;56;2
1500;57;2
1525;58;2
1550;60;2
1575;60;2
1600;63;2
1625;63;2
1650;62;2
1675;63;2
1700;63;2
1725;63;2
1750;64;2
1775;64;2
1800;66;2
1825;67;2
1850;68;2
1875;68;2
1900;68;2
1925;64;2
1950;64;2
1975;64;2
2000;62;2
2025;63;2
2050;63;2
2075;64;2
2100;64;2
2125;68;2
2150;69;2
2175;72;2
2200;71;2
2225;71;2
2250;73;2
2275;74;2
2300;75;2
2325;76;2
2350;76;2
2375;79;2
2400;78;2
2425;80;2
2450;80;2
2475;78;2
2500;79;2
2525;80;2
2550;81;2
2575;81;2
2600;83;2
2625;83;2
2650;82;2
2675;81;2
2700;81;2
2725;78;2
2750;78;2
2775;78;2
2800;79;2
2825;80;2
2850;85;2
2875;83;2
2900;83;2
2925;85;2
2950;83;2
2975;82;2
3000;82;2
3025;82;2
3050;82;2
3075;85;2
3100;84;2
3125;84;2
3150;83;2
3175;81;2
3200;80;2
3225;80;2
3250;80;2
3275;80;2
3300;80;2
3325;80;2
3350;80;2
3375;81;2
3400;81;2
3425;80;2
3450;78;2
3475;75;2
3500;74;2
3525;74;2
3550;77;2
3575;77;2
3600;78;2
3625;82;2
3650;85;2
3675;84;2
3700;85;2
3725;85;2
3750;83;2
3775;81;2
3800;81;2
3825;83;2
3850;83;2
3875;84;2
3900;83;2
3925;83;2
3950;83;2
3975;83;2
4000;83;2
4025;83;2
4050;80;2
4075;80;2
4100;80;2
4125;80;2
4150;82;2
4175;83;2
4200;85;2
4225;84;2
4250;85;2
4275;84;2
4300;82;2
4325;82;2
4350;83;2
4375;82;2
4400;84;2
4425;83;2
4450;86;2
4475;87;2
4500;88;2
4525;90;2
4550;93;2
4575;90;2
4600;88;2
4625;90;2
4650;91;2
4675;92;2
4700;93;2
4725;93;2
4750;96;2
4775;97;2
4800;95;2
4825;96;2
4850;96;2
4875;96;2
4900;94;2
4925;95;2
4950;96;2
4975;97;2
5000;97;2
5025;98;2
5050;99;2
5075;99;2
5100;97;2
5125;96;2
5150;95;2
5175;94;2
5200;95;2
5225;97;2
5250;97;2
5275;98;2
5300;99;2
5325;98;2
5350;96;2
5375;95;2
5400;95;2
5425;92;2
5450;92;2
5475;93;2
5500;93;2
5525;93;2
5550;93;2
5575;96;2
5600;97;2
5625;95;2
5650;95;2
5675;95;2
5700;94;2
5725;91;2
5750;91;2
5775;92;2
5800;93;2
5825;93;2
5850;94;2
5875;96;2
5900;95;2
5925;94;2
5950;90;2
5975;92;2
6000;92;2
6025;91;2
6050;93;2
6075;93;2
6100;93;2
6125;94;2
6150;94;2
6175;96;2
6200;94;2
6225;93;2
6250;93;2
6275;92;2
6300;94;2
6325;96;2
6350;96;2
6375;96;2
6400;96;2
6425;97;2
6450;97;2
6475;95;2
6500;95;2
6525;95;2
6550;96;2
6575;98;2
6600;100;2
6625;103;2
6650;100;2
6675;100;2
6700;100;2
6725;98;2
6750;99;2
6775;101;2
6800;101;2
6825;102;2
6850;104;2
6875;106;2
6900;103;2
6925;104;2
6950;103;2
6975;99;2
7000;96;2
0;1;3
25;1;3
50;1;3
75;1;3
100;1;3
125;1;3
150;1;3
175;1;3
200;1;3
225;1;3
250;1;3
275;1;3
300;2;3
325;2;3
350;4;3
375;5;3
400;5;3
425;6;3
450;6;3
475;7;3
500;7;3
525;8;3
550;9;3
575;9;3
600;9;3
625;10;3
650;14;3
675;15;3
700;15;3
725;15;3
750;21;3
775;22;3
800;22;3
825;23;3
850;28;3
875;32;3
900;34;3
925;38;3
950;40;3
975;42;3
1000;42;3
1025;42;3
1050;43;3
1075;44;3
1100;46;3
1125;46;3
1150;48;3
1175;50;3
1200;49;3
1225;53;3
1250;53;3
1275;54;3
1300;54;3
1325;56;3
1350;54;3
1375;57;3
1400;60;3
1425;61;3
1450;62;3
1475;61;3
1500;61;3
1525;62;3
1550;63;3
1575;62;3
1600;63;3
1625;63;3
1650;61;3
1675;61;3
1700;61;3
1725;62;3
1750;64;3
1775;65;3
1800;66;3
1825;67;3
1850;67;3
1875;67;3
1900;71;3
1925;71;3
1950;70;3
1975;70;3
2000;72;3
2025;73;3
2050;75;3
2075;72;3
2100;73;3
2125;73;3
2150;72;3
2175;71;3
2200;71;3
2225;71;3
2250;71;3
2275;71;3
2300;72;3
2325;75;3
2350;73;3
2375;72;3
2400;75;3
2425;75;3
2450;75;3
2475;75;3
2500;75;3
2525;74;3
2550;74;3
2575;73;3
2600;73;3
2625;72;3
2650;73;3
2675;74;3
2700;74;3
2725;74;3
2750;74;3
2775;75;3
2800;76;3
2825;76;3
2850;77;3
2875;80;3
2900;79;3
2925;77;3
2950;78;3
2975;76;3
3000;76;3
3025;76;3
3050;74;3
3075;73;3
3100;73;3
3125;73;3
3150;72;3
3175;73;3
3200;71;3
3225;72;3
3250;72;3
3275;72;3
3300;72;3
3325;73;3
3350;74;3
3375;75;3
3400;74;3
3425;73;3
3450;72;3
3475;70;3
3500;72;3
3525;73;3
3550;73;3
3575;75;3
3600;75;3
3625;75;3
3650;75;3
3675;76;3
3700;74;3
3725;76;3
3750;76;3
3775;75;3
3800;75;3
3825;75;3
3850;75;3
3875;76;3
3900;76;3
3925;76;3
3950;75;3
3975;76;3
4000;78;3
4025;77;3
4050;77;3
4075;77;3
4100;77;3
4125;79;3
4150;80;3
4175;81;3
4200;83;3
4225;82;3
4250;83;3
4275;82;3
4300;81;3
4325;79;3
4350;79;3
4375;80;3
4400;82;3
4425;82;3
4450;82;3
4475;79;3
4500;82;3
4525;81;3
4550;80;3
4575;81;3
4600;81;3
4625;82;3
4650;83;3
4675;83;3
4700;84;3
4725;83;3
4750;86;3
4775;87;3
4800;86;3
4825;86;3
4850;83;3
4875;87;3
4900;87;3
4925;87;3
4950;87;3
4975;88;3
5000;90;3
5025;91;3
5050;91;3
5075;89;3
5100;89;3
5125;89;3
5150;91;3
5175;93;3
5200;93;3
5225;93;3
5250;94;3
5275;94;3
5300;98;3
5325;96;3
5350;95;3
5375;95;3
5400;97;3
5425;97;3
5450;97;3
5475;100;3
5500;98;3
5525;97;3
5550;97;3
5575;94;3
5600;96;3
5625;97;3
5650;96;3
5675;97;3
5700;97;3
5725;97;3
5750;99;3
5775;99;3
5800;100;3
5825;97;3
5850;94;3
5875;94;3
5900;95;3
5925;96;3
5950;97;3
5975;99;3
6000;100;3
6025;103;3
6050;105;3
6075;104;3
6100;101;3
6125;102;3
6150;99;3
6175;99;3
6200;99;3
6225;99;3
6250;100;3
6275;100;3
6300;103;3
6325;106;3
6350;101;3
6375;99;3
6400;96;3
6425;95;3
6450;97;3
6475;97;3
6500;98;3
6525;98;3
6550;99;3
6575;100;3
6600;100;3
6625;95;3
6650;95;3
6675;95;3
6700;95;3
6725;95;3
6750;96;3
6775;98;3
6800;95;3
6825;93;3
6850;94;3
6875;95;3
6900;94;3
6925;93;3
6950;94;3
6975;95;3
7000;96;3
0;1;4
25;1;4
50;1;4
75;1;4
100;1;4
125;1;4
150;1;4
175;1;4
200;1;4
225;1;4
250;1;4
275;2;4
300;1;4
325;2;4
350;3;4
375;3;4
400;4;4
425;5;4
450;6;4
475;7;4
500;7;4
525;8;4
550;8;4
575;11;4
600;11;4
625;12;4
650;14;4
675;17;4
700;18;4
725;21;4
750;24;4
775;25;4
800;26;4
825;27;4
850;27;4
875;28;4
900;28;4
925;28;4
950;29;4
975;30;4
1000;31;4
1025;34;4
1050;36;4
1075;37;4
1100;37;4
1125;37;4
1150;38;4
1175;44;4
1200;43;4
1225;48;4
1250;48;4
1275;48;4
1300;47;4
1325;50;4
1350;51;4
1375;50;4
1400;50;4
1425;49;4
1450;50;4
1475;53;4
1500;55;4
1525;58;4
1550;59;4
1575;60;4
1600;60;4
1625;60;4
1650;62;4
1675;61;4
1700;62;4
1725;64;4
1750;64;4
1775;64;4
1800;67;4
1825;67;4
1850;68;4
1875;69;4
1900;69;4
1925;69;4
1950;69;4
1975;69;4
2000;70;4
2025;67;4
2050;68;4
2075;68;4
2100;68;4
2125;68;4
2150;69;4
2175;69;4
2200;69;4
2225;68;4
2250;67;4
2275;67;4
2300;68;4
2325;68;4
2350;66;4
2375;69;4
2400;69;4
2425;69;4
2450;69;4
2475;71;4
2500;71;4
2525;71;4
2550;71;4
2575;74;4
2600;72;4
2625;72;4
2650;72;4
2675;72;4
2700;72;4
2725;73;4
2750;74;4
2775;75;4
2800;77;4
2825;74;4
2850;74;4
2875;73;4
2900;73;4
2925;73;4
2950;72;4
2975;75;4
3000;76;4
3025;77;4
3050;79;4
3075;80;4
3100;80;4
3125;80;4
3150;82;4
3175;83;4
3200;85;4
3225;88;4
3250;89;4
3275;92;4
3300;93;4
3325;97;4
3350;98;4
3375;94;4
3400;91;4
3425;91;4
3450;93;4
3475;94;4
3500;94;4
3525;94;4
3550;95;4
3575;95;4
3600;94;4
3625;93;4
3650;89;4
3675;90;4
3700;90;4
3725;89;4
3750;90;4
3775;92;4
3800;91;4
3825;90;4
3850;90;4
3875;92;4
3900;94;4
3925;90;4
3950;91;4
3975;92;4
4000;93;4
4025;93;4
4050;93;4
4075;94;4
4100;94;4
4125;93;4
4150;92;4
4175;92;4
4200;91;4
4225;92;4
4250;91;4
4275;91;4
4300;91;4
4325;91;4
4350;91;4
4375;89;4
4400;88;4
4425;91;4
4450;90;4
4475;92;4
4500;94;4
4525;95;4
4550;96;4
4575;97;4
4600;98;4
4625;97;4
4650;96;4
4675;96;4
4700;95;4
4725;95;4
4750;96;4
4775;97;4
4800;96;4
4825;99;4
4850;98;4
4875;101;4
4900;104;4
4925;102;4
4950;102;4
4975;100;4
5000;102;4
5025;103;4
5050;103;4
5075;102;4
5100;103;4
5125;103;4
5150;104;4
5175;102;4
5200;101;4
5225;101;4
5250;102;4
5275;103;4
5300;105;4
5325;104;4
5350;103;4
5375;105;4
5400;103;4
5425;106;4
5450;104;4
5475;103;4
5500;102;4
5525;104;4
5550;106;4
5575;106;4
5600;108;4
5625;108;4
5650;107;4
5675;107;4
5700;107;4
5725;105;4
5750;105;4
5775;105;4
5800;104;4
5825;105;4
5850;105;4
5875;105;4
5900;102;4
5925;99;4
5950;97;4
5975;95;4
6000;95;4
6025;95;4
6050;95;4
6075;95;4
6100;98;4
6125;98;4
6150;98;4
6175;98;4
6200;99;4
6225;98;4
6250;97;4
6275;95;4
6300;94;4
6325;95;4
6350;95;4
6375;94;4
6400;95;4
6425;96;4
6450;94;4
6475;95;4
6500;93;4
6525;95;4
6550;94;4
6575;95;4
6600;96;4
6625;97;4
6650;97;4
6675;98;4
6700;99;4
6725;99;4
6750;98;4
6775;96;4
6800;94;4
6825;95;4
6850;95;4
6875;99;4
6900;99;4
6925;100;4
6950;100;4
6975;99;4
7000;97;4
0;1;5
25;1;5
50;1;5
75;1;5
100;1;5
125;1;5
150;1;5
175;1;5
200;1;5
225;2;5
250;2;5
275;3;5
300;2;5
325;5;5
350;7;5
375;6;5
400;7;5
425;7;5
450;8;5
475;9;5
500;9;5
525;12;5
550;14;5
575;15;5
600;18;5
625;18;5
650;21;5
675;21;5
700;23;5
725;25;5
750;27;5
775;27;5
800;28;5
825;28;5
850;29;5
875;33;5
900;36;5
925;36;5
950;37;5
975;37;5
1000;39;5
1025;42;5
1050;44;5
1075;45;5
1100;47;5
1125;47;5
1150;49;5
1175;52;5
1200;53;5
1225;52;5
1250;52;5
1275;51;5
1300;54;5
1325;58;5
1350;59;5
1375;60;5
1400;62;5
1425;62;5
1450;62;5
1475;61;5
1500;61;5
1525;63;5
1550;63;5
1575;64;5
1600;65;5
1625;66;5
1650;66;5
1675;65;5
1700;68;5
1725;67;5
1750;67;5
1775;68;5
1800;68;5
1825;70;5
1850;72;5
1875;74;5
1900;75;5
1925;76;5
1950;76;5
1975;74;5
2000;76;5
2025;71;5
2050;70;5
2075;70;5
2100;70;5
2125;72;5
2150;73;5
2175;74;5
2200;75;5
2225;74;5
2250;75;5
2275;74;5
2300;75;5
2325;75;5
2350;76;5
2375;76;5
2400;78;5
2425;78;5
2450;79;5
2475;80;5
2500;78;5
2525;78;5
2550;76;5
2575;76;5
2600;75;5
2625;76;5
2650;75;5
2675;78;5
2700;82;5
2725;84;5
2750;85;5
2775;86;5
2800;83;5
2825;84;5
2850;80;5
2875;81;5
2900;82;5
2925;83;5
2950;83;5
2975;82;5
3000;84;5
3025;82;5
3050;81;5
3075;80;5
3100;81;5
3125;81;5
3150;81;5
3175;82;5
3200;85;5
3225;88;5
3250;88;5
3275;89;5
3300;89;5
3325;89;5
3350;88;5
3375;89;5
3400;88;5
3425;88;5
3450;88;5
3475;89;5
3500;90;5
3525;90;5
3550;90;5
3575;90;5
3600;87;5
3625;87;5
3650;84;5
3675;84;5
3700;85;5
3725;85;5
3750;87;5
3775;86;5
3800;88;5
3825;88;5
3850;87;5
3875;87;5
3900;86;5
3925;86;5
3950;84;5
3975;85;5
4000;85;5
4025;86;5
4050;86;5
4075;87;5
4100;88;5
4125;88;5
4150;85;5
4175;85;5
4200;85;5
4225;83;5
4250;83;5
4275;83;5
4300;84;5
4325;85;5
4350;86;5
4375;86;5
4400;87;5
4425;86;5
4450;85;5
4475;82;5
4500;82;5
4525;82;5
4550;82;5
4575;82;5
4600;85;5
4625;86;5
4650;88;5
4675;88;5
4700;88;5
4725;85;5
4750;87;5
4775;88;5
4800;89;5
4825;91;5
4850;91;5
4875;92;5
4900;92;5
4925;91;5
4950;92;5
4975;91;5
5000;90;5
5025;90;5
5050;90;5
5075;90;5
5100;90;5
5125;90;5
5150;89;5
5175;89;5
5200;86;5
5225;88;5
5250;89;5
5275;89;5
5300;89;5
5325;90;5
5350;90;5
5375;93;5
5400;92;5
5425;94;5
5450;92;5
5475;88;5
5500;88;5
5525;88;5
5550;88;5
5575;88;5
5600;87;5
5625;87;5
5650;86;5
5675;85;5
5700;84;5
5725;85;5
5750;85;5
5775;84;5
5800;85;5
5825;87;5
5850;88;5
5875;89;5
5900;90;5
5925;90;5
5950;89;5
5975;89;5
6000;89;5
6025;88;5
6050;89;5
6075;90;5
6100;92;5
6125;92;5
6150;94;5
6175;95;5
6200;95;5
6225;91;5
6250;88;5
6275;86;5
6300;86;5
6325;87;5
6350;88;5
6375;90;5
6400;88;5
6425;88;5
6450;91;5
6475;92;5
6500;93;5
6525;93;5
6550;92;5
6575;92;5
6600;92;5
6625;93;5
6650;94;5
6675;92;5
6700;95;5
6725;95;5
6750;96;5
6775;95;5
6800;94;5
6825;93;5
6850;93;5
6875;94;5
6900;96;5
6925;97;5
6950;99;5
6975;99;5
7000;96;5
0;1;6
25;1;6
50;1;6
75;1;6
100;1;6
125;1;6
150;1;6
175;1;6
200;1;6
225;1;6
250;1;6
275;1;6
300;1;6
325;1;6
350;1;6
375;2;6
400;2;6
425;4;6
450;6;6
475;8;6
500;7;6
525;10;6
550;10;6
575;11;6
600;12;6
625;15;6
650;15;6
675;17;6
700;19;6
725;19;6
750;20;6
775;24;6
800;24;6
825;23;6
850;25;6
875;28;6
900;30;6
925;33;6
950;37;6
975;40;6
1000;41;6
1025;46;6
1050;47;6
1075;48;6
1100;50;6
1125;52;6
1150;51;6
1175;52;6
1200;52;6
1225;52;6
1250;51;6
1275;53;6
1300;55;6
1325;55;6
1350;57;6
1375;58;6
1400;58;6
1425;60;6
1450;59;6
1475;59;6
1500;59;6
1525;60;6
1550;63;6
1575;67;6
1600;69;6
1625;71;6
1650;71;6
1675;72;6
1700;69;6
1725;69;6
1750;66;6
1775;67;6
1800;67;6
1825;68;6
1850;68;6
1875;68;6
1900;68;6
1925;70;6
1950;70;6
1975;70;6
2000;72;6
2025;71;6
2050;71;6
2075;71;6
2100;70;6
2125;73;6
2150;73;6
2175;73;6
2200;73;6
2225;73;6
2250;75;6
2275;77;6
2300;80;6
2325;81;6
2350;82;6
2375;82;6
2400;83;6
2425;82;6
2450;82;6
2475;82;6
2500;80;6
2525;77;6
2550;77;6
2575;77;6
2600;77;6
2625;78;6
2650;78;6
2675;77;6
2700;77;6
2725;76;6
2750;77;6
2775;76;6
2800;75;6
2825;75;6
2850;75;6
2875;78;6
2900;80;6
2925;80;6
2950;80;6
2975;82;6
3000;83;6
3025;83;6
3050;84;6
3075;83;6
3100;84;6
3125;84;6
3150;84;6
3175;84;6
3200;85;6
3225;84;6
3250;83;6
3275;84;6
3300;84;6
3325;82;6
3350;83;6
3375;83;6
3400;84;6
3425;86;6
3450;85;6
3475;87;6
3500;87;6
3525;84;6
3550;81;6
3575;81;6
3600;82;6
3625;81;6
3650;82;6
3675;84;6
3700;86;6
3725;86;6
3750;87;6
3775;88;6
3800;89;6
3825;87;6
3850;87;6
3875;87;6
3900;88;6
3925;88;6
3950;90;6
3975;89;6
4000;89;6
4025;89;6
4050;89;6
4075;87;6
4100;86;6
4125;87;6
4150;87;6
4175;88;6
4200;89;6
4225;89;6
4250;89;6
4275;91;6
4300;92;6
4325;92;6
4350;89;6
4375;89;6
4400;87;6
4425;87;6
4450;87;6
4475;87;6
4500;86;6
4525;87;6
4550;86;6
4575;85;6
4600;83;6
4625;83;6
4650;82;6
4675;83;6
4700;83;6
4725;83;6
4750;83;6
4775;82;6
4800;83;6
4825;80;6
4850;79;6
4875;80;6
4900;77;6
4925;78;6
4950;78;6
4975;81;6
5000;82;6
5025;83;6
5050;86;6
5075;87;6
5100;86;6
5125;83;6
5150;85;6
5175;83;6
5200;83;6
5225;83;6
5250;84;6
5275;84;6
5300;85;6
5325;87;6
5350;87;6
5375;86;6
5400;84;6
5425;82;6
5450;84;6
5475;85;6
5500;85;6
5525;86;6
5550;88;6
5575;87;6
5600;86;6
5625;86;6
5650;85;6
5675;85;6
5700;85;6
5725;86;6
5750;86;6
5775;87;6
5800;88;6
5825;87;6
5850;86;6
5875;84;6
5900;86;6
5925;88;6
5950;85;6
5975;85;6
6000;84;6
6025;85;6
6050;87;6
6075;87;6
6100;88;6
6125;90;6
6150;90;6
6175;91;6
6200;91;6
6225;87;6
6250;88;6
6275;88;6
6300;89;6
6325;92;6
6350;93;6
6375;92;6
6400;94;6
6425;92;6
6450;94;6
6475;93;6
6500;90;6
6525;90;6
6550;91;6
6575;92;6
6600;93;6
6625;93;6
6650;92;6
6675;92;6
6700;91;6
6725;88;6
6750;89;6
6775;90;6
6800;91;6
6825;93;6
6850;94;6
6875;95;6
6900;96;6
6925;94;6
6950;94;6
6975;92;6
7000;92;6
0;1;7
25;1;7
50;1;7
75;1;7
100;1;7
125;1;7
150;1;7
175;1;7
200;1;7
225;1;7
250;1;7
275;3;7
300;3;7
325;3;7
350;3;7
375;3;7
400;4;7
425;4;7
450;4;7
475;5;7
500;5;7
525;5;7
550;6;7
575;8;7
600;8;7
625;10;7
650;11;7
675;14;7
700;16;7
725;16;7
750;17;7
775;17;7
800;18;7
825;18;7
850;17;7
875;20;7
900;21;7
925;23;7
950;25;7
975;28;7
1000;31;7
1025;35;7
1050;39;7
1075;42;7
1100;44;7
1125;44;7
1150;47;7
1175;48;7
1200;51;7
1225;52;7
1250;51;7
1275;51;7
1300;52;7
1325;55;7
1350;55;7
1375;54;7
1400;56;7
1425;58;7
1450;57;7
1475;58;7
1500;57;7
1525;56;7
1550;56;7
1575;56;7
1600;57;7
1625;58;7
1650;59;7
1675;61;7
1700;62;7
1725;65;7
1750;66;7
1775;65;7
1800;64;7
1825;64;7
1850;64;7
1875;64;7
1900;63;7
1925;64;7
1950;66;7
1975;65;7
2000;65;7
2025;64;7
2050;64;7
2075;65;7
2100;65;7
2125;66;7
2150;66;7
2175;67;7
2200;66;7
2225;67;7
2250;68;7
2275;69;7
2300;68;7
2325;68;7
2350;69;7
2375;69;7
2400;70;7
2425;69;7
2450;70;7
2475;69;7
2500;70;7
2525;69;7
2550;70;7
2575;70;7
2600;71;7
2625;72;7
2650;72;7
2675;71;7
2700;69;7
2725;70;7
2750;70;7
2775;71;7
2800;71;7
2825;69;7
2850;70;7
2875;70;7
2900;71;7
2925;72;7
2950;74;7
2975;74;7
3000;75;7
3025;75;7
3050;79;7
3075;78;7
3100;78;7
3125;78;7
3150;78;7
3175;81;7
3200;82;7
3225;83;7
3250;83;7
3275;82;7
3300;81;7
3325;82;7
3350;81;7
3375;85;7
3400;86;7
3425;87;7
3450;88;7
3475;88;7
3500;90;7
3525;89;7
3550;93;7
3575;87;7
3600;88;7
3625;90;7
3650;91;7
3675;92;7
3700;93;7
3725;93;7
3750;91;7
3775;90;7
3800;89;7
3825;88;7
3850;87;7
3875;87;7
3900;88;7
3925;87;7
3950;87;7
3975;87;7
4000;88;7
4025;88;7
4050;84;7
4075;83;7
4100;83;7
4125;81;7
4150;81;7
4175;83;7
4200;84;7
4225;83;7
4250;84;7
4275;86;7
4300;85;7
4325;82;7
4350;82;7
4375;81;7
4400;82;7
4425;83;7
4450;82;7
4475;81;7
4500;81;7
4525;83;7
4550;83;7
4575;84;7
4600;81;7
4625;79;7
4650;78;7
4675;79;7
4700;79;7
4725;78;7
4750;79;7
4775;77;7
4800;75;7
4825;76;7
4850;76;7
4875;77;7
4900;77;7
4925;77;7
4950;78;7
4975;78;7
5000;81;7
5025;84;7
5050;87;7
5075;87;7
5100;87;7
5125;84;7
5150;84;7
5175;84;7
5200;85;7
5225;86;7
5250;88;7
5275;91;7
5300;92;7
5325;91;7
5350;90;7
5375;92;7
5400;92;7
5425;89;7
5450;90;7
5475;89;7
5500;89;7
5525;89;7
5550;88;7
5575;89;7
5600;90;7
5625;90;7
5650;92;7
5675;91;7
5700;89;7
5725;91;7
5750;91;7
5775;91;7
5800;92;7
5825;93;7
5850;93;7
5875;93;7
5900;94;7
5925;92;7
5950;90;7
5975;89;7
6000;90;7
6025;92;7
6050;92;7
6075;92;7
6100;92;7
6125;92;7
6150;91;7
6175;89;7
6200;89;7
6225;87;7
6250;88;7
6275;88;7
6300;89;7
6325;90;7
6350;90;7
6375;91;7
6400;92;7
6425;93;7
6450;92;7
6475;90;7
6500;88;7
6525;88;7
6550;88;7
6575;87;7
6600;87;7
6625;88;7
6650;87;7
6675;85;7
6700;84;7
6725;83;7
6750;81;7
6775;81;7
6800;81;7
6825;82;7
6850;83;7
6875;84;7
6900;84;7
6925;84;7
6950;85;7
6975;84;7
7000;83;7
0;1;8
25;1;8
50;1;8
75;1;8
100;1;8
125;1;8
150;1;8
175;1;8
200;1;8
225;1;8
250;2;8
275;3;8
300;4;8
325;5;8
350;6;8
375;6;8
400;9;8
425;10;8
450;14;8
475;17;8
500;20;8
525;20;8
550;22;8
575;22;8
600;22;8
625;22;8
650;25;8
675;28;8
700;30;8
725;32;8
750;37;8
775;41;8
800;41;8
825;43;8
850;44;8
875;44;8
900;45;8
925;50;8
950;53;8
975;55;8
1000;54;8
1025;53;8
1050;52;8
1075;53;8
1100;55;8
1125;57;8
1150;56;8
1175;55;8
1200;55;8
1225;54;8
1250;53;8
1275;54;8
1300;57;8
1325;57;8
1350;59;8
1375;59;8
1400;61;8
1425;63;8
1450;63;8
1475;64;8
1500;65;8
1525;64;8
1550;64;8
1575;66;8
1600;65;8
1625;65;8
1650;65;8
1675;67;8
1700;66;8
1725;67;8
1750;68;8
1775;67;8
1800;67;8
1825;66;8
1850;67;8
1875;68;8
1900;71;8
1925;71;8
1950;71;8
1975;70;8
2000;72;8
2025;72;8
2050;71;8
2075;69;8
2100;70;8
2125;70;8
2150;71;8
2175;72;8
2200;72;8
2225;73;8
2250;73;8
2275;74;8
2300;74;8
2325;70;8
2350;71;8
2375;71;8
2400;75;8
2425;77;8
2450;79;8
2475;78;8
2500;80;8
2525;79;8
2550;79;8
2575;78;8
2600;76;8
2625;74;8
2650;73;8
2675;73;8
2700;73;8
2725;75;8
2750;75;8
2775;75;8
2800;80;8
2825;79;8
2850;78;8
2875;75;8
2900;76;8
2925;76;8
2950;77;8
2975;77;8
3000;79;8
3025;82;8
3050;83;8
3075;84;8
3100;86;8
3125;85;8
3150;83;8
3175;82;8
3200;82;8
3225;83;8
3250;85;8
3275;85;8
3300;86;8
3325;85;8
3350;86;8
3375;86;8
3400;87;8
3425;85;8
3450;85;8
3475;87;8
3500;88;8
3525;88;8
3550;88;8
3575;89;8
3600;89;8
3625;89;8
3650;90;8
3675;91;8
3700;90;8
3725;92;8
3750;93;8
3775;94;8
3800;95;8
3825;96;8
3850;95;8
3875;95;8
3900;95;8
3925;94;8
3950;94;8
3975;98;8
4000;100;8
4025;99;8
4050;101;8
4075;97;8
4100;97;8
4125;96;8
4150;96;8
4175;94;8
4200;94;8
4225;94;8
4250;94;8
4275;92;8
4300;92;8
4325;91;8
4350;88;8
4375;83;8
4400;84;8
4425;84;8
4450;85;8
4475;86;8
4500;88;8
4525;87;8
4550;88;8
4575;88;8
4600;88;8
4625;84;8
4650;83;8
4675;83;8
4700;83;8
4725;84;8
4750;84;8
4775;84;8
4800;85;8
4825;86;8
4850;87;8
4875;87;8
4900;89;8
4925;88;8
4950;86;8
4975;86;8
5000;87;8
5025;89;8
5050;89;8
5075;89;8
5100;90;8
5125;92;8
5150;88;8
5175;86;8
5200;87;8
5225;86;8
5250;87;8
5275;87;8
5300;88;8
5325;90;8
5350;90;8
5375;88;8
5400;88;8
5425;88;8
5450;87;8
5475;87;8
5500;85;8
5525;88;8
5550;89;8
5575;88;8
5600;88;8
5625;89;8
5650;89;8
5675;90;8
5700;89;8
5725;87;8
5750;88;8
5775;88;8
5800;87;8
5825;87;8
5850;88;8
5875;86;8
5900;88;8
5925;90;8
5950;89;8
5975;87;8
6000;89;8
6025;91;8
6050;91;8
6075;91;8
6100;91;8
6125;92;8
6150;92;8
6175;94;8
6200;94;8
6225;93;8
6250;91;8
6275;93;8
6300;94;8
6325;94;8
6350;94;8
6375;92;8
6400;92;8
6425;93;8
6450;93;8
6475;94;8
6500;94;8
6525;93;8
6550;93;8
6575;94;8
6600;95;8
6625;94;8
6650;96;8
6675;93;8
6700;91;8
6725;90;8
6750;91;8
6775;89;8
6800;90;8
6825;92;8
6850;93;8
6875;92;8
6900;92;8
6925;91;8
6950;90;8
6975;88;8
7000;88;8
0;1;9
25;1;9
50;1;9
75;1;9
100;1;9
125;1;9
150;1;9
175;1;9
200;2;9
225;1;9
250;2;9
275;2;9
300;2;9
325;3;9
350;3;9
375;5;9
400;5;9
425;5;9
450;5;9
475;7;9
500;8;9
525;9;9
550;9;9
575;10;9
600;12;9
625;14;9
650;13;9
675;13;9
700;14;9
725;15;9
750;16;9
775;18;9
800;21;9
825;23;9
850;25;9
875;28;9
900;28;9
925;28;9
950;28;9
975;28;9
1000;28;9
1025;29;9
1050;31;9
1075;32;9
1100;35;9
1125;35;9
1150;36;9
1175;36;9
1200;36;9
1225;36;9
1250;37;9
1275;38;9
1300;38;9
1325;39;9
1350;43;9
1375;47;9
1400;50;9
1425;50;9
1450;53;9
1475;54;9
1500;56;9
1525;55;9
1550;58;9
1575;59;9
1600;58;9
1625;58;9
1650;60;9
1675;60;9
1700;62;9
1725;60;9
1750;61;9
1775;60;9
1800;61;9
1825;62;9
1850;62;9
1875;60;9
1900;61;9
1925;63;9
1950;64;9
1975;64;9
2000;65;9
2025;65;9
2050;67;9
2075;67;9
2100;64;9
2125;64;9
2150;64;9
2175;64;9
2200;65;9
2225;66;9
2250;66;9
2275;66;9
2300;66;9
2325;68;9
2350;69;9
2375;66;9
2400;66;9
2425;67;9
2450;68;9
2475;70;9
2500;70;9
2525;70;9
2550;69;9
2575;71;9
2600;71;9
2625;71;9
2650;71;9
2675;72;9
2700;73;9
2725;74;9
2750;79;9
2775;81;9
2800;82;9
2825;81;9
2850;81;9
2875;80;9
2900;82;9
2925;81;9
2950;80;9
2975;80;9
3000;79;9
3025;80;9
3050;81;9
3075;81;9
3100;82;9
3125;84;9
3150;82;9
3175;84;9
3200;84;9
3225;82;9
3250;80;9
3275;81;9
3300;82;9
3325;82;9
3350;83;9
3375;82;9
3400;82;9
3425;83;9
3450;83;9
3475;84;9
3500;87;9
3525;88;9
3550;90;9
3575;91;9
3600;92;9
3625;92;9
3650;92;9
3675;94;9
3700;94;9
3725;96;9
3750;93;9
3775;94;9
3800;94;9
3825;95;9
3850;95;9
3875;94;9
3900;94;9
3925;95;9
3950;94;9
3975;94;9
4000;94;9
4025;94;9
4050;94;9
4075;95;9
4100;96;9
4125;96;9
4150;96;9
4175;96;9
4200;97;9
4225;95;9
4250;96;9
4275;97;9
4300;98;9
4325;97;9
4350;98;9
4375;98;9
4400;97;9
4425;97;9
4450;97;9
4475;97;9
4500;96;9
4525;98;9
4550;98;9
4575;98;9
4600;97;9
4625;97;9
4650;96;9
4675;98;9
4700;98;9
4725;96;9
4750;95;9
4775;93;9
4800;96;9
4825;95;9
4850;96;9
4875;96;9
4900;96;9
4925;97;9
4950;96;9
4975;93;9
5000;93;9
5025;90;9
5050;91;9
5075;92;9
5100;91;9
5125;92;9
5150;93;9
5175;94;9
5200;92;9
5225;92;9
5250;93;9
5275;93;9
5300;91;9
5325;91;9
5350;92;9
5375;94;9
5400;94;9
5425;98;9
5450;96;9
5475;97;9
5500;95;9
5525;95;9
5550;95;9
5575;96;9
5600;97;9
5625;98;9
5650;98;9
5675;98;9
5700;101;9
5725;101;9
5750;97;9
5775;93;9
5800;89;9
5825;89;9
5850;89;9
5875;90;9
5900;92;9
5925;94;9
5950;93;9
5975;96;9
6000;99;9
6025;97;9
6050;95;9
6075;95;9
6100;96;9
6125;95;9
6150;95;9
6175;95;9
6200;96;9
6225;97;9
6250;96;9
6275;96;9
6300;97;9
6325;95;9
6350;95;9
6375;95;9
6400;95;9
6425;94;9
6450;94;9
6475;95;9
6500;95;9
6525;95;9
6550;95;9
6575;99;9
6600;99;9
6625;99;9
6650;99;9
6675;101;9
6700;100;9
6725;102;9
6750;101;9
6775;102;9
6800;102;9
6825;101;9
6850;99;9
6875;99;9
6900;99;9
6925;102;9
6950;101;9
6975;100;9
7000;99;9
0;1;10
25;1;10
50;1;10
75;1;10
100;1;10
125;1;10
150;1;10
175;1;10
200;2;10
225;2;10
250;1;10
275;2;10
300;2;10
325;2;10
350;1;10
375;1;10
400;2;10
425;2;10
450;3;10
475;4;10
500;4;10
525;4;10
550;4;10
575;4;10
600;5;10
625;7;10
650;8;10
675;7;10
700;7;10
725;8;10
750;10;10
775;12;10
800;14;10
825;13;10
850;15;10
875;17;10
900;18;10
925;17;10
950;19;10
975;20;10
1000;25;10
1025;25;10
1050;27;10
1075;32;10
1100;35;10
1125;40;10
1150;40;10
1175;42;10
1200;43;10
1225;46;10
1250;46;10
1275;46;10
1300;47;10
1325;48;10
1350;49;10
1375;52;10
1400;55;10
1425;56;10
1450;56;10
1475;55;10
1500;54;10
1525;55;10
1550;55;10
1575;57;10
1600;58;10
1625;59;10
1650;59;10
1675;58;10
1700;60;10
1725;59;10
1750;59;10
1775;60;10
1800;59;10
1825;60;10
1850;60;10
1875;60;10
1900;60;10
1925;62;10
1950;63;10
1975;63;10
2000;62;10
2025;63;10
2050;63;10
2075;63;10
2100;62;10
2125;64;10
2150;68;10
2175;69;10
2200;69;10
2225;68;10
2250;69;10
2275;70;10
2300;70;10
2325;72;10
2350;72;10
2375;73;10
2400;73;10
2425;72;10
2450;72;10
2475;75;10
2500;77;10
2525;78;10
2550;77;10
2575;78;10
2600;78;10
2625;77;10
2650;77;10
2675;77;10
2700;77;10
2725;79;10
2750;79;10
2775;81;10
2800;81;10
2825;79;10
2850;80;10
2875;79;10
2900;79;10
2925;82;10
2950;83;10
2975;82;10
3000;83;10
3025;83;10
3050;83;10
3075;79;10
3100;83;10
3125;82;10
3150;79;10
3175;80;10
3200;81;10
3225;84;10
3250;86;10
3275;88;10
3300;93;10
3325;93;10
3350;94;10
3375;94;10
3400;94;10
3425;91;10
3450;91;10
3475;91;10
3500;91;10
3525;91;10
3550;91;10
3575;94;10
3600;94;10
3625;93;10
3650;94;10
3675;93;10
3700;92;10
3725;92;10
3750;95;10
3775;94;10
3800;97;10
3825;98;10
3850;98;10
3875;94;10
3900;94;10
3925;90;10
3950;93;10
3975;94;10
4000;94;10
4025;95;10
4050;96;10
4075;97;10
4100;96;10
4125;96;10
4150;95;10
4175;94;10
4200;94;10
4225;93;10
4250;94;10
4275;94;10
4300;95;10
4325;94;10
4350;96;10
4375;96;10
4400;94;10
4425;92;10
4450;89;10
4475;89;10
4500;91;10
4525;92;10
4550;91;10
4575;90;10
4600;92;10
4625;90;10
4650;86;10
4675;85;10
4700;84;10
4725;84;10
4750;84;10
4775;86;10
4800;87;10
4825;89;10
4850;89;10
4875;90;10
4900;88;10
4925;87;10
4950;84;10
4975;83;10
5000;83;10
5025;83;10
5050;82;10
5075;85;10
5100;86;10
5125;86;10
5150;86;10
5175;85;10
5200;84;10
5225;84;10
5250;83;10
5275;85;10
5300;84;10
5325;84;10
5350;85;10
5375;85;10
5400;85;10
5425;84;10
5450;83;10
5475;82;10
5500;82;10
5525;85;10
5550;85;10
5575;87;10
5600;90;10
5625;90;10
5650;91;10
5675;90;10
5700;91;10
5725;91;10
5750;92;10
5775;93;10
5800;93;10
5825;95;10
5850;94;10
5875;94;10
5900;96;10
5925;95;10
5950;91;10
5975;91;10
6000;89;10
6025;88;10
6050;88;10
6075;90;10
6100;91;10
6125;92;10
6150;94;10
6175;95;10
6200;95;10
6225;94;10
6250;93;10
6275;95;10
6300;94;10
6325;92;10
6350;94;10
6375;95;10
6400;96;10
6425;96;10
6450;98;10
6475;97;10
6500;98;10
6525;92;10
6550;94;10
6575;91;10
6600;91;10
6625;92;10
6650;91;10
6675;94;10
6700;95;10
6725;97;10
6750;96;10
6775;95;10
6800;93;10
6825;94;10
6850;93;10
6875;93;10
6900;95;10
6925;96;10
6950;94;10
6975;94;10
7000;92;10
0;1;11
25;1;11
50;1;11
75;1;11
100;1;11
125;1;11
150;1;11
175;1;11
200;1;11
225;1;11
250;2;11
275;2;11
300;2;11
325;3;11
350;3;11
375;3;11
400;4;11
425;4;11
450;6;11
475;6;11
500;10;11
525;10;11
550;10;11
575;15;11
600;18;11
625;21;11
650;21;11
675;24;11
700;26;11
725;27;11
750;28;11
775;30;11
800;32;11
825;33;11
850;34;11
875;34;11
900;35;11
925;36;11
950;38;11
975;40;11
1000;40;11
1025;41;11
1050;42;11
1075;43;11
1100;45;11
1125;48;11
1150;50;11
1175;50;11
1200;49;11
1225;48;11
1250;48;11
1275;49;11
1300;49;11
1325;50;11
1350;52;11
1375;53;11
1400;52;11
1425;53;11
1450;54;11
1475;55;11
1500;56;11
1525;55;11
1550;55;11
1575;56;11
1600;56;11
1625;56;11
1650;57;11
1675;58;11
1700;55;11
1725;54;11
1750;56;11
1775;56;11
1800;60;11
1825;59;11
1850;61;11
1875;61;11
1900;57;11
1925;56;11
1950;59;11
1975;57;11
2000;58;11
2025;61;11
2050;62;11
2075;64;11
2100;65;11
2125;65;11
2150;66;11
2175;66;11
2200;67;11
2225;70;11
2250;71;11
2275;69;11
2300;70;11
2325;72;11
2350;72;11
2375;74;11
2400;75;11
2425;76;11
2450;77;11
2475;77;11
2500;78;11
2525;78;11
2550;76;11
2575;76;11
2600;75;11
2625;75;11
2650;77;11
2675;81;11
2700;80;11
2725;81;11
2750;81;11
2775;79;11
2800;78;11
2825;78;11
2850;79;11
2875;78;11
2900;77;11
2925;77;11
2950;78;11
2975;82;11
3000;82;11
3025;83;11
3050;82;11
3075;81;11
3100;78;11
3125;77;11
3150;76;11
3175;76;11
3200;77;11
3225;78;11
3250;77;11
3275;76;11
3300;78;11
3325;80;11
3350;81;11
3375;79;11
3400;77;11
3425;77;11
3450;78;11
3475;81;11
3500;83;11
3525;82;11
3550;82;11
3575;82;11
3600;82;11
3625;84;11
3650;83;11
3675;85;11
3700;82;11
3725;83;11
3750;85;11
3775;85;11
3800;86;11
3825;86;11
3850;86;11
3875;87;11
3900;87;11
3925;85;11
3950;84;11
3975;86;11
4000;86;11
4025;88;11
4050;89;11
4075;89;11
4100;91;11
4125;90;11
4150;88;11
4175;89;11
4200;87;11
4225;88;11
4250;88;11
4275;88;11
4300;88;11
4325;86;11
4350;86;11
4375;87;11
4400;90;11
4425;87;11
4450;84;11
4475;86;11
4500;87;11
4525;88;11
4550;87;11
4575;89;11
4600;89;11
4625;88;11
4650;89;11
4675;89;11
4700;88;11
4725;88;11
4750;89;11
4775;89;11
4800;91;11
4825;91;11
4850;92;11
4875;92;11
4900;93;11
4925;92;11
4950;92;11
4975;90;11
5000;89;11
5025;89;11
5050;92;11
5075;94;11
5100;94;11
5125;94;11
5150;94;11
5175;93;11
5200;92;11
5225;91;11
5250;92;11
5275;92;11
5300;92;11
5325;94;11
5350;96;11
5375;95;11
5400;96;11
5425;91;11
5450;91;11
5475;89;11
5500;90;11
5525;89;11
5550;89;11
5575;89;11
5600;90;11
5625;89;11
5650;91;11
5675;91;11
5700;92;11
5725;93;11
5750;92;11
5775;89;11
5800;89;11
5825;90;11
5850;90;11
5875;92;11
5900;92;11
5925;89;11
5950;89;11
5975;89;11
6000;87;11
6025;86;11
6050;86;11
6075;86;11
6100;88;11
6125;90;11
6150;90;11
6175;92;11
6200;94;11
6225;95;11
6250;94;11
6275;93;11
6300;89;11
6325;91;11
6350;93;11
6375;94;11
6400;94;11
6425;94;11
6450;93;11
6475;95;11
6500;95;11
6525;94;11
6550;92;11
6575;94;11
6600;94;11
6625;93;11
6650;96;11
6675;95;11
6700;93;11
6725;92;11
6750;90;11
6775;88;11
6800;88;11
6825;88;11
6850;88;11
6875;89;11
6900;89;11
6925;87;11
6950;88;11
6975;87;11
7000;89;11
0;1;12
25;1;12
50;1;12
75;1;12
100;1;12
125;1;12
150;2;12
175;2;12
200;2;12
225;2;12
250;2;12
275;2;12
300;2;12
325;2;12
350;3;12
375;3;12
400;4;12
425;3;12
450;5;12
475;7;12
500;7;12
525;10;12
550;11;12
575;10;12
600;12;12
625;13;12
650;14;12
675;18;12
700;19;12
725;19;12
750;24;12
775;24;12
800;26;12
825;28;12
850;30;12
875;32;12
900;32;12
925;37;12
950;38;12
975;42;12
1000;43;12
1025;45;12
1050;44;12
1075;47;12
1100;51;12
1125;54;12
1150;52;12
1175;55;12
1200;55;12
1225;55;12
1250;55;12
1275;58;12
1300;57;12
1325;58;12
1350;59;12
1375;59;12
1400;59;12
1425;59;12
1450;61;12
1475;62;12
1500;64;12
1525;64;12
1550;65;12
1575;67;12
1600;67;12
1625;66;12
1650;67;12
1675;68;12
1700;69;12
1725;70;12
1750;70;12
1775;70;12
1800;73;12
1825;74;12
1850;76;12
1875;79;12
1900;74;12
1925;75;12
1950;75;12
1975;77;12
2000;77;12
2025;79;12
2050;79;12
2075;78;12
2100;80;12
2125;80;12
2150;82;12
2175;79;12
2200;81;12
2225;82;12
2250;84;12
2275;84;12
2300;86;12
2325;86;12
2350;85;12
2375;84;12
2400;81;12
2425;79;12
2450;79;12
2475;79;12
2500;81;12
2525;82;12
2550;82;12
2575;84;12
2600;84;12
2625;83;12
2650;84;12
2675;84;12
2700;83;12
2725;84;12
2750;85;12
2775;84;12
2800;84;12
2825;85;12
2850;87;12
2875;89;12
2900;88;12
2925;87;12
2950;89;12
2975;85;12
3000;84;12
3025;86;12
3050;87;12
3075;87;12
3100;87;12
3125;87;12
3150;87;12
3175;88;12
3200;89;12
3225;85;12
3250;86;12
3275;86;12
3300;86;12
3325;86;12
3350;86;12
3375;86;12
3400;84;12
3425;84;12
3450;82;12
3475;82;12
3500;80;12
3525;80;12
3550;80;12
3575;81;12
3600;81;12
3625;81;12
3650;81;12
3675;82;12
3700;83;12
3725;84;12
3750;85;12
3775;83;12
3800;82;12
3825;83;12
3850;83;12
3875;83;12
3900;83;12
3925;83;12
3950;82;12
3975;83;12
4000;83;12
4025;82;12
4050;80;12
4075;79;12
4100;80;12
4125;82;12
4150;82;12
4175;81;12
4200;85;12
4225;85;12
4250;85;12
4275;82;12
4300;82;12
4325;82;12
4350;83;12
4375;83;12
4400;83;12
4425;83;12
4450;83;12
4475;86;12
4500;87;12
4525;86;12
4550;86;12
4575;84;12
4600;81;12
4625;81;12
4650;82;12
4675;82;12
4700;82;12
4725;83;12
4750;81;12
4775;79;12
4800;78;12
4825;78;12
4850;75;12
4875;78;12
4900;79;12
4925;80;12
4950;81;12
4975;83;12
5000;82;12
5025;83;12
5050;82;12
5075;81;12
5100;78;12
5125;76;12
5150;76;12
5175;78;12
5200;79;12
5225;80;12
5250;81;12
5275;81;12
5300;83;12
5325;87;12
5350;87;12
5375;85;12
5400;86;12
5425;86;12
5450;88;12
5475;87;12
5500;89;12
5525;90;12
5550;90;12
5575;89;12
5600;88;12
5625;86;12
5650;85;12
5675;86;12
5700;85;12
5725;86;12
5750;86;12
5775;85;12
5800;84;12
5825;85;12
5850;85;12
5875;85;12
5900;86;12
5925;87;12
5950;87;12
5975;87;12
6000;88;12
6025;89;12
6050;89;12
6075;88;12
6100;88;12
6125;87;12
6150;88;12
6175;89;12
6200;87;12
6225;85;12
6250;86;12
6275;87;12
6300;88;12
6325;89;12
6350;90;12
6375;92;12
6400;91;12
6425;93;12
6450;90;12
6475;89;12
6500;90;12
6525;88;12
6550;88;12
6575;89;12
6600;90;12
6625;90;12
6650;89;12
6675;88;12
6700;91;12
6725;91;12
6750;91;12
6775;90;12
6800;91;12
6825;92;12
6850;93;12
6875;94;12
6900;95;12
6925;95;12
6950;93;12
6975;90;12
7000;88;12
0;1;13
25;1;13
50;1;13
75;1;13
100;1;13
125;1;13
150;1;13
175;1;13
200;1;13
225;1;13
250;1;13
275;1;13
300;2;13
325;2;13
350;2;13
375;2;13
400;2;13
425;2;13
450;4;13
475;4;13
500;6;13
525;7;13
550;10;13
575;17;13
600;20;13
625;20;13
650;24;13
675;25;13
700;25;13
725;25;13
750;25;13
775;25;13
800;27;13
825;27;13
850;27;13
875;27;13
900;28;13
925;29;13
950;30;13
975;32;13
1000;32;13
1025;33;13
1050;34;13
1075;34;13
1100;37;13
1125;37;13
1150;34;13
1175;35;13
1200;36;13
1225;36;13
1250;35;13
1275;36;13
1300;36;13
1325;37;13
1350;38;13
1375;40;13
1400;39;13
1425;42;13
1450;44;13
1475;45;13
1500;44;13
1525;46;13
1550;48;13
1575;50;13
1600;54;13
1625;53;13
1650;55;13
1675;56;13
1700;56;13
1725;58;13
1750;58;13
1775;58;13
1800;59;13
1825;59;13
1850;59;13
1875;59;13
1900;59;13
1925;61;13
1950;62;13
1975;62;13
2000;62;13
2025;62;13
2050;64;13
2075;66;13
2100;66;13
2125;66;13
2150;64;13
2175;63;13
2200;62;13
2225;63;13
2250;63;13
2275;64;13
2300;66;13
2325;67;13
2350;68;13
2375;69;13
2400;69;13
2425;69;13
2450;68;13
2475;70;13
2500;71;13
2525;71;13
2550;72;13
2575;72;13
2600;72;13
2625;71;13
2650;71;13
2675;72;13
2700;75;13
2725;79;13
2750;77;13
2775;77;13
2800;78;13
2825;78;13
2850;82;13
2875;82;13
2900;82;13
2925;78;13
2950;78;13
2975;75;13
3000;74;13
3025;75;13
3050;75;13
3075;75;13
3100;78;13
3125;78;13
3150;79;13
3175;78;13
3200;75;13
3225;73;13
3250;76;13
3275;76;13
3300;79;13
3325;79;13
3350;79;13
3375;80;13
3400;80;13
3425;82;13
3450;84;13
3475;80;13
3500;81;13
3525;82;13
3550;84;13
3575;85;13
3600;84;13
3625;86;13
3650;85;13
3675;86;13
3700;84;13
3725;84;13
3750;85;13
3775;85;13
3800;86;13
3825;83;13
3850;84;13
3875;85;13
3900;84;13
3925;84;13
3950;87;13
3975;88;13
4000;88;13
4025;88;13
4050;89;13
4075;89;13
4100;92;13
4125;95;13
4150;95;13
4175;93;13
4200;94;13
4225;94;13
4250;92;13
4275;92;13
4300;94;13
4325;95;13
4350;97;13
4375;97;13
4400;98;13
4425;100;13
4450;98;13
4475;97;13
4500;96;13
4525;95;13
4550;96;13
4575;98;13
4600;100;13
4625;99;13
4650;98;13
4675;99;13
4700;99;13
4725;98;13
4750;97;13
4775;96;13
4800;96;13
4825;98;13
4850;98;13
4875;98;13
4900;98;13
4925;98;13
4950;98;13
4975;97;13
5000;96;13
5025;97;13
5050;98;13
5075;98;13
5100;98;13
5125;99;13
5150;99;13
5175;98;13
5200;99;13
5225;94;13
5250;95;13
5275;97;13
5300;94;13
5325;95;13
5350;95;13
5375;95;13
5400;95;13
5425;95;13
5450;95;13
5475;95;13
5500;95;13
5525;95;13
5550;94;13
5575;94;13
5600;94;13
5625;94;13
5650;96;13
5675;96;13
5700;97;13
5725;97;13
5750;96;13
5775;98;13
5800;97;13
5825;98;13
5850;97;13
5875;100;13
5900;100;13
5925;101;13
5950;102;13
5975;101;13
6000;99;13
6025;100;13
6050;99;13
6075;96;13
6100;95;13
6125;95;13
6150;96;13
6175;94;13
6200;95;13
6225;96;13
6250;97;13
6275;96;13
6300;97;13
6325;95;13
6350;94;13
6375;96;13
6400;93;13
6425;95;13
6450;96;13
6475;99;13
6500;97;13
6525;99;13
6550;101;13
6575;99;13
6600;98;13
6625;95;13
6650;94;13
6675;95;13
6700;95;13
6725;94;13
6750;93;13
6775;92;13
6800;92;13
6825;92;13
6850;91;13
6875;90;13
6900;89;13
6925;88;13
6950;88;13
6975;88;13
7000;88;13
0;1;14
25;1;14
50;1;14
75;1;14
100;1;14
125;1;14
150;1;14
175;1;14
200;1;14
225;1;14
250;2;14
275;3;14
300;4;14
325;3;14
350;4;14
375;4;14
400;4;14
425;4;14
450;4;14
475;6;14
500;9;14
525;9;14
550;10;14
575;12;14
600;13;14
625;15;14
650;19;14
675;19;14
700;22;14
725;25;14
750;26;14
775;29;14
800;29;14
825;31;14
850;33;14
875;35;14
900;36;14
925;37;14
950;38;14
975;39;14
1000;41;14
1025;43;14
1050;45;14
1075;46;14
1100;47;14
1125;47;14
1150;48;14
1175;49;14
1200;49;14
1225;49;14
1250;53;14
1275;54;14
1300;54;14
1325;56;14
1350;56;14
1375;58;14
1400;58;14
1425;58;14
1450;58;14
1475;59;14
1500;61;14
1525;61;14
1550;65;14
1575;64;14
1600;65;14
1625;66;14
1650;68;14
1675;68;14
1700;66;14
1725;68;14
1750;69;14
1775;68;14
1800;70;14
1825;72;14
1850;72;14
1875;73;14
1900;73;14
1925;71;14
1950;70;14
1975;70;14
2000;71;14
2025;71;14
2050;71;14
2075;73;14
2100;72;14
2125;72;14
2150;72;14
2175;72;14
2200;71;14
2225;71;14
2250;71;14
2275;70;14
2300;71;14
2325;72;14
2350;71;14
2375;70;14
2400;69;14
2425;69;14
2450;67;14
2475;66;14
2500;66;14
2525;67;14
2550;68;14
2575;69;14
2600;72;14
2625;74;14
2650;78;14
2675;78;14
2700;76;14
2725;76;14
2750;76;14
2775;76;14
2800;77;14
2825;78;14
2850;79;14
2875;78;14
2900;78;14
2925;80;14
2950;78;14
2975;78;14
3000;81;14
3025;81;14
3050;84;14
3075;86;14
3100;86;14
3125;88;14
3150;87;14
3175;88;14
3200;87;14
3225;86;14
3250;84;14
3275;83;14
3300;83;14
3325;84;14
3350;87;14
3375;89;14
3400;91;14
3425;93;14
3450;92;14
3475;91;14
3500;89;14
3525;92;14
3550;89;14
3575;89;14
3600;89;14
3625;91;14
3650;92;14
3675;94;14
3700;95;14
3725;93;14
3750;92;14
3775;93;14
3800;92;14
3825;92;14
3850;94;14
3875;96;14
3900;96;14
3925;95;14
3950;96;14
3975;97;14
4000;97;14
4025;93;14
4050;92;14
4075;90;14
4100;91;14
4125;94;14
4150;99;14
4175;100;14
4200;103;14
4225;105;14
4250;104;14
4275;103;14
4300;102;14
4325;102;14
4350;98;14
4375;97;14
4400;99;14
4425;101;14
4450;100;14
4475;100;14
4500;99;14
4525;98;14
4550;97;14
4575;97;14
4600;96;14
4625;96;14
4650;97;14
4675;97;14
4700;96;14
4725;94;14
4750;94;14
4775;95;14
4800;92;14
4825;91;14
4850;88;14
4875;87;14
4900;89;14
4925;90;14
4950;91;14
4975;91;14
5000;91;14
5025;93;14
5050;92;14
5075;92;14
5100;89;14
5125;89;14
5150;89;14
5175;90;14
5200;90;14
5225;91;14
5250;91;14
5275;92;14
5300;93;14
5325;93;14
5350;91;14
5375;91;14
5400;87;14
5425;86;14
5450;88;14
5475;88;14
5500;90;14
5525;90;14
5550;89;14
5575;88;14
5600;90;14
5625;90;14
5650;90;14
5675;91;14
5700;92;14
5725;92;14
5750;91;14
5775;92;14
5800;91;14
5825;91;14
5850;89;14
5875;89;14
5900;89;14
5925;89;14
5950;89;14
5975;89;14
6000;90;14
6025;93;14
6050;93;14
6075;94;14
6100;94;14
6125;93;14
6150;92;14
6175;94;14
6200;92;14
6225;92;14
6250;92;14
6275;93;14
6300;93;14
6325;91;14
6350;91;14
6375;92;14
6400;92;14
6425;88;14
6450;87;14
6475;88;14
6500;90;14
6525;90;14
6550;89;14
6575;90;14
6600;92;14
6625;92;14
6650;91;14
6675;92;14
6700;88;14
6725;90;14
6750;90;14
6775;90;14
6800;92;14
6825;92;14
6850;93;14
6875;90;14
6900;89;14
6925;89;14
6950;88;14
6975;88;14
7000;90;14
0;1;15
25;1;15
50;1;15
75;1;15
100;1;15
125;1;15
150;2;15
175;2;15
200;2;15
225;2;15
250;2;15
275;2;15
300;3;15
325;3;15
350;3;15
375;3;15
400;4;15
425;7;15
450;8;15
475;10;15
500;13;15
525;15;15
550;14;15
575;14;15
600;15;15
625;18;15
650;19;15
675;21;15
700;29;15
725;31;15
750;31;15
775;32;15
800;36;15
825;37;15
850;42;15
875;42;15
900;42;15
925;43;15
950;43;15
975;45;15
1000;44;15
1025;43;15
1050;43;15
1075;43;15
1100;44;15
1125;48;15
1150;50;15
1175;53;15
1200;55;15
1225;58;15
1250;60;15
1275;61;15
1300;60;15
1325;61;15
1350;63;15
1375;64;15
1400;67;15
1425;68;15
1450;69;15
1475;70;15
1500;68;15
1525;67;15
1550;66;15
1575;65;15
1600;65;15
1625;65;15
1650;65;15
1675;64;15
1700;67;15
1725;68;15
1750;68;15
1775;68;15
1800;69;15
1825;69;15
1850;69;15
1875;68;15
1900;69;15
1925;72;15
1950;74;15
1975;74;15
2000;72;15
2025;72;15
2050;72;15
2075;71;15
2100;71;15
2125;71;15
2150;71;15
2175;73;15
2200;73;15
2225;73;15
2250;75;15
2275;77;15
2300;76;15
2325;75;15
2350;74;15
2375;75;15
2400;78;15
2425;81;15
2450;82;15
2475;81;15
2500;83;15
2525;82;15
2550;84;15
2575;84;15
2600;84;15
2625;84;15
2650;85;15
2675;85;15
2700;84;15
2725;85;15
2750;85;15
2775;84;15
2800;81;15
2825;81;15
2850;81;15
2875;81;15
2900;81;15
2925;81;15
2950;80;15
2975;80;15
3000;82;15
3025;85;15
3050;84;15
3075;84;15
3100;80;15
3125;80;15
3150;82;15
3175;82;15
3200;82;15
3225;83;15
3250;84;15
3275;85;15
3300;89;15
3325;86;15
3350;86;15
3375;84;15
3400;84;15
3425;85;15
3450;85;15
3475;85;15
3500;85;15
3525;85;15
3550;87;15
3575;86;15
3600;84;15
3625;82;15
3650;84;15
3675;84;15
3700;84;15
3725;84;15
3750;83;15
3775;83;15
3800;82;15
3825;81;15
3850;79;15
3875;81;15
3900;81;15
3925;82;15
3950;82;15
3975;83;15
4000;84;15
4025;86;15
4050;86;15
4075;87;15
4100;85;15
4125;85;15
4150;85;15
4175;82;15
4200;79;15
4225;80;15
4250;80;15
4275;80;15
4300;79;15
4325;76;15
4350;75;15
4375;75;15
4400;77;15
4425;78;15
4450;78;15
4475;79;15
4500;80;15
4525;79;15
4550;80;15
4575;79;15
4600;81;15
4625;83;15
4650;85;15
4675;82;15
4700;82;15
4725;84;15
4750;84;15
4775;83;15
4800;83;15
4825;83;15
4850;85;15
4875;87;15
4900;87;15
4925;88;15
4950;87;15
4975;88;15
5000;88;15
5025;89;15
5050;89;15
5075;89;15
5100;89;15
5125;88;15
5150;86;15
5175;85;15
5200;85;15
5225;86;15
5250;88;15
5275;88;15
5300;88;15
5325;88;15
5350;87;15
5375;89;15
5400;88;15
5425;86;15
5450;86;15
5475;85;15
5500;85;15
5525;86;15
5550;87;15
5575;88;15
5600;88;15
5625;88;15
5650;87;15
5675;88;15
5700;86;15
5725;83;15
5750;83;15
5775;83;15
5800;82;15
5825;82;15
5850;84;15
5875;85;15
5900;86;15
5925;86;15
5950;83;15
5975;84;15
6000;82;15
6025;83;15
6050;85;15
6075;88;15
6100;87;15
6125;88;15
6150;89;15
6175;88;15
6200;87;15
6225;87;15
6250;87;15
6275;87;15
6300;88;15
6325;91;15
6350;92;15
6375;92;15
6400;95;15
6425;97;15
6450;97;15
6475;95;15
6500;96;15
6525;96;15
6550;96;15
6575;96;15
6600;95;15
6625;95;15
6650;95;15
6675;92;15
6700;91;15
6725;90;15
6750;91;15
6775;87;15
6800;88;15
6825;89;15
6850;89;15
6875;90;15
6900;90;15
6925;90;15
6950;91;15
6975;90;15
7000;87;15
0;1;16
25;1;16
50;1;16
75;1;16
100;1;16
125;1;16
150;1;16
175;1;16
200;1;16
225;2;16
250;2;16
275;2;16
300;2;16
325;2;16
350;3;16
375;5;16
400;6;16
425;7;16
450;8;16
475;10;16
500;10;16
525;12;16
550;15;16
575;16;16
600;19;16
625;20;16
650;19;16
675;21;16
700;21;16
725;23;16
750;23;16
775;23;16
800;24;16
825;27;16
850;29;16
875;29;16
900;33;16
925;35;16
950;36;16
975;37;16
1000;41;16
1025;40;16
1050;43;16
1075;44;16
1100;47;16
1125;46;16
1150;51;16
1175;49;16
1200;49;16
1225;51;16
1250;53;16
1275;54;16
1300;55;16
1325;56;16
1350;58;16
1375;60;16
1400;60;16
1425;57;16
1450;56;16
1475;56;16
1500;56;16
1525;59;16
1550;59;16
1575;58;16
1600;61;16
1625;62;16
1650;61;16
1675;59;16
1700;59;16
1725;59;16
1750;61;16
1775;61;16
1800;61;16
1825;62;16
1850;62;16
1875;62;16
1900;65;16
1925;66;16
1950;66;16
1975;65;16
2000;64;16
2025;64;16
2050;66;16
2075;66;16
2100;68;16
2125;71;16
2150;74;16
2175;76;16
2200;76;16
2225;75;16
2250;73;16
2275;72;16
2300;69;16
2325;70;16
2350;72;16
2375;75;16
2400;77;16
2425;78;16
2450;79;16
2475;78;16
2500;77;16
2525;75;16
2550;75;16
2575;75;16
2600;76;16
2625;76;16
2650;78;16
2675;78;16
2700;78;16
2725;79;16
2750;81;16
2775;82;16
2800;81;16
2825;82;16
2850;84;16
2875;83;16
2900;85;16
2925;86;16
2950;83;16
2975;81;16
3000;79;16
3025;80;16
3050;81;16
3075;84;16
3100;89;16
3125;90;16
3150;92;16
3175;91;16
3200;90;16
3225;91;16
3250;88;16
3275;85;16
3300;84;16
3325;83;16
3350;83;16
3375;84;16
3400;83;16
3425;84;16
3450;84;16
3475;85;16
3500;85;16
3525;83;16
3550;80;16
3575;82;16
3600;82;16
3625;84;16
3650;84;16
3675;85;16
3700;86;16
3725;87;16
3750;87;16
3775;87;16
3800;91;16
3825;90;16
3850;86;16
3875;87;16
3900;88;16
3925;90;16
3950;89;16
3975;90;16
4000;90;16
4025;91;16
4050;91;16
4075;90;16
4100;90;16
4125;86;16
4150;86;16
4175;88;16
4200;93;16
4225;93;16
4250;94;16
4275;94;16
4300;95;16
4325;96;16
4350;95;16
4375;94;16
4400;93;16
4425;95;16
4450;95;16
4475;95;16
4500;96;16
4525;97;16
4550;98;16
4575;98;16
4600;96;16
4625;95;16
4650;93;16
4675;92;16
4700;92;16
4725;92;16
4750;92;16
4775;92;16
4800;91;16
4825;92;16
4850;92;16
4875;93;16
4900;93;16
4925;90;16
4950;90;16
4975;90;16
5000;92;16
5025;93;16
5050;91;16
5075;85;16
5100;87;16
5125;90;16
5150;90;16
5175;88;16
5200;88;16
5225;90;16
5250;89;16
5275;89;16
5300;89;16
5325;91;16
5350;94;16
5375;94;16
5400;92;16
5425;91;16
5450;91;16
5475;91;16
5500;92;16
5525;93;16
5550;94;16
5575;94;16
5600;92;16
5625;91;16
5650;89;16
5675;88;16
5700;85;16
5725;84;16
5750;86;16
5775;86;16
5800;86;16
5825;86;16
5850;87;16
5875;86;16
5900;85;16
5925;83;16
5950;83;16
5975;84;16
6000;85;16
6025;86;16
6050;86;16
6075;86;16
6100;86;16
6125;87;16
6150;87;16
6175;87;16
6200;87;16
6225;88;16
6250;88;16
6275;90;16
6300;88;16
6325;90;16
6350;91;16
6375;90;16
6400;90;16
6425;92;16
6450;90;16
6475;90;16
6500;90;16
6525;88;16
6550;88;16
6575;88;16
6600;87;16
6625;89;16
6650;89;16
6675;88;16
6700;90;16
6725;87;16
6750;87;16
6775;88;16
6800;86;16
6825;89;16
6850;90;16
6875;92;16
6900;92;16
6925;89;16
6950;87;16
6975;83;16
7000;82;16
0;1;17
25;1;17
50;1;17
75;1;17
100;1;17
125;1;17
150;1;17
175;1;17
200;1;17
225;1;17
250;1;17
275;1;17
300;1;17
325;1;17
350;1;17
375;1;17
400;1;17
425;1;17
450;1;17
475;2;17
500;2;17
525;2;17
550;3;17
575;5;17
600;5;17
625;6;17
650;5;17
675;7;17
700;9;17
725;11;17
750;12;17
775;16;17
800;18;17
825;24;17
850;26;17
875;28;17
900;28;17
925;27;17
950;30;17
975;29;17
1000;33;17
1025;35;17
1050;38;17
1075;38;17
1100;39;17
1125;41;17
1150;41;17
1175;42;17
1200;43;17
1225;44;17
1250;44;17
1275;44;17
1300;43;17
1325;43;17
1350;45;17
1375;47;17
1400;49;17
1425;49;17
1450;51;17
1475;50;17
1500;52;17
1525;52;17
1550;53;17
1575;56;17
1600;54;17
1625;53;17
1650;53;17
1675;52;17
1700;54;17
1725;54;17
1750;56;17
1775;62;17
1800;64;17
1825;66;17
1850;66;17
1875;66;17
1900;68;17
1925;70;17
1950;69;17
1975;69;17
2000;70;17
2025;71;17
2050;71;17
2075;72;17
2100;73;17
2125;73;17
2150;73;17
2175;71;17
2200;71;17
2225;69;17
2250;68;17
2275;69;17
2300;70;17
2325;72;17
2350;74;17
2375;75;17
2400;75;17
2425;77;17
2450;75;17
2475;74;17
2500;77;17
2525;77;17
2550;79;17
2575;80;17
2600;81;17
2625;81;17
2650;81;17
2675;81;17
2700;82;17
2725;80;17
2750;77;17
2775;77;17
2800;77;17
2825;77;17
2850;77;17
2875;76;17
2900;77;17
2925;81;17
2950;81;17
2975;79;17
3000;78;17
3025;78;17
3050;78;17
3075;79;17
3100;80;17
3125;81;17
3150;80;17
3175;80;17
3200;80;17
3225;80;17
3250;79;17
3275;79;17
3300;81;17
3325;79;17
3350;80;17
3375;81;17
3400;81;17
3425;82;17
3450;82;17
3475;79;17
3500;78;17
3525;79;17
3550;80;17
3575;80;17
3600;80;17
3625;81;17
3650;82;17
3675;80;17
3700;81;17
3725;80;17
3750;79;17
3775;80;17
3800;86;17
3825;88;17
3850;88;17
3875;88;17
3900;89;17
3925;89;17
3950;88;17
3975;86;17
4000;87;17
4025;86;17
4050;86;17
4075;86;17
4100;87;17
4125;88;17
4150;89;17
4175;89;17
4200;89;17
4225;87;17
4250;86;17
4275;85;17
4300;85;17
4325;85;17
4350;87;17
4375;88;17
4400;88;17
4425;89;17
4450;89;17
4475;88;17
4500;90;17
4525;86;17
4550;85;17
4575;86;17
4600;87;17
4625;87;17
4650;89;17
4675;91;17
4700;93;17
4725;92;17
4750;90;17
4775;91;17
4800;90;17
4825;90;17
4850;90;17
4875;90;17
4900;91;17
4925;89;17
4950;90;17
4975;91;17
5000;90;17
5025;90;17
5050;91;17
5075;88;17
5100;88;17
5125;90;17
5150;89;17
5175;90;17
5200;90;17
5225;89;17
5250;89;17
5275;89;17
5300;88;17
5325;87;17
5350;86;17
5375;86;17
5400;88;17
5425;91;17
5450;91;17
5475;90;17
5500;89;17
5525;89;17
5550;88;17
5575;90;17
5600;89;17
5625;87;17
5650;87;17
5675;88;17
5700;89;17
5725;89;17
5750;90;17
5775;90;17
5800;88;17
5825;87;17
5850;86;17
5875;86;17
5900;86;17
5925;87;17
5950;88;17
5975;89;17
6000;92;17
6025;95;17
6050;94;17
6075;92;17
6100;93;17
6125;91;17
6150;91;17
6175;94;17
6200;93;17
6225;91;17
6250;91;17
6275;92;17
6300;92;17
6325;92;17
6350;92;17
6375;92;17
6400;92;17
6425;92;17
6450;91;17
6475;92;17
6500;93;17
6525;92;17
6550;92;17
6575;93;17
6600;92;17
6625;92;17
6650;94;17
6675;95;17
6700;95;17
6725;96;17
6750;96;17
6775;95;17
6800;95;17
6825;94;17
6850;92;17
6875;92;17
6900;93;17
6925;94;17
6950;94;17
6975;97;17
7000;96;17
0;1;18
25;1;18
50;1;18
75;1;18
100;1;18
125;1;18
150;1;18
175;1;18
200;1;18
225;1;18
250;1;18
275;2;18
300;2;18
325;2;18
350;2;18
375;2;18
400;2;18
425;5;18
450;5;18
475;7;18
500;7;18
525;9;18
550;11;18
575;11;18
600;13;18
625;13;18
650;13;18
675;13;18
700;13;18
725;14;18
750;15;18
775;16;18
800;17;18
825;18;18
850;21;18
875;24;18
900;24;18
925;26;18
950;26;18
975;26;18
1000;27;18
1025;28;18
1050;30;18
1075;30;18
1100;33;18
1125;33;18
1150;33;18
1175;35;18
1200;37;18
1225;39;18
1250;40;18
1275;38;18
1300;39;18
1325;41;18
1350;41;18
1375;43;18
1400;45;18
1425;46;18
1450;47;18
1475;48;18
1500;48;18
1525;48;18
1550;49;18
1575;49;18
1600;49;18
1625;52;18
1650;52;18
1675;53;18
1700;54;18
1725;54;18
1750;54;18
1775;55;18
1800;56;18
1825;55;18
1850;59;18
1875;60;18
1900;60;18
1925;60;18
1950;61;18
1975;61;18
2000;61;18
2025;60;18
2050;60;18
2075;61;18
2100;62;18
2125;64;18
2150;64;18
2175;64;18
2200;64;18
2225;68;18
2250;68;18
2275;66;18
2300;66;18
2325;67;18
2350;68;18
2375;71;18
2400;71;18
2425;71;18
2450;73;18
2475;74;18
2500;76;18
2525;79;18
2550;78;18
2575;80;18
2600;81;18
2625;81;18
2650;80;18
2675;86;18
2700;89;18
2725;89;18
2750;89;18
2775;89;18
2800;91;18
2825;89;18
2850;90;18
2875;90;18
2900;92;18
2925;94;18
2950;96;18
2975;99;18
3000;99;18
3025;99;18
3050;98;18
3075;94;18
3100;91;18
3125;91;18
3150;93;18
3175;94;18
3200;95;18
3225;98;18
3250;96;18
3275;96;18
3300;95;18
3325;91;18
3350;87;18
3375;88;18
3400;89;18
3425;91;18
3450;92;18
3475;92;18
3500;94;18
3525;93;18
3550;91;18
3575;89;18
3600;91;18
3625;88;18
3650;87;18
3675;87;18
3700;87;18
3725;88;18
3750;88;18
3775;90;18
3800;95;18
3825;96;18
3850;90;18
3875;90;18
3900;89;18
3925;90;18
3950;91;18
3975;92;18
4000;94;18
4025;95;18
4050;95;18
4075;97;18
4100;94;18
4125;92;18
4150;94;18
4175;95;18
4200;94;18
4225;94;18
4250;95;18
4275;95;18
4300;94;18
4325;90;18
4350;89;18
4375;87;18
4400;87;18
4425;86;18
4450;84;18
4475;84;18
4500;83;18
4525;83;18
4550;83;18
4575;83;18
4600;81;18
4625;80;18
4650;81;18
4675;81;18
4700;82;18
4725;83;18
4750;82;18
4775;82;18
4800;80;18
4825;83;18
4850;83;18
4875;84;18
4900;83;18
4925;82;18
4950;83;18
4975;86;18
5000;88;18
5025;88;18
5050;90;18
5075;90;18
5100;91;18
5125;92;18
5150;89;18
5175;87;18
5200;88;18
5225;90;18
5250;92;18
5275;93;18
5300;95;18
5325;95;18
5350;93;18
5375;92;18
5400;92;18
5425;90;18
5450;90;18
5475;91;18
5500;91;18
5525;91;18
5550;91;18
5575;90;18
5600;90;18
5625;93;18
5650;92;18
5675;91;18
5700;91;18
5725;91;18
5750;90;18
5775;92;18
5800;93;18
5825;93;18
5850;93;18
5875;91;18
5900;91;18
5925;90;18
5950;90;18
5975;91;18
6000;93;18
6025;94;18
6050;92;18
6075;90;18
6100;91;18
6125;89;18
6150;86;18
6175;86;18
6200;84;18
6225;84;18
6250;86;18
6275;88;18
6300;87;18
6325;85;18
6350;84;18
6375;84;18
6400;86;18
6425;85;18
6450;83;18
6475;84;18
6500;85;18
6525;85;18
6550;85;18
6575;86;18
6600;85;18
6625;86;18
6650;83;18
6675;81;18
6700;83;18
6725;82;18
6750;82;18
6775;83;18
6800;81;18
6825;81;18
6850;81;18
6875;82;18
6900;83;18
6925;82;18
6950;81;18
6975;78;18
7000;75;18
0;1;19
25;1;19
50;1;19
75;1;19
100;1;19
125;1;19
150;1;19
175;1;19
200;1;19
225;1;19
250;1;19
275;3;19
300;3;19
325;4;19
350;4;19
375;5;19
400;7;19
425;9;19
450;10;19
475;10;19
500;10;19
525;10;19
550;10;19
575;10;19
600;13;19
625;15;19
650;19;19
675;23;19
700;24;19
725;28;19
750;30;19
775;32;19
800;33;19
825;33;19
850;36;19
875;35;19
900;36;19
925;36;19
950;38;19
975;42;19
1000;41;19
1025;43;19
1050;46;19
1075;46;19
1100;44;19
1125;44;19
1150;41;19
1175;42;19
1200;42;19
1225;43;19
1250;43;19
1275;46;19
1300;49;19
1325;50;19
1350;51;19
1375;51;19
1400;51;19
1425;48;19
1450;48;19
1475;49;19
1500;52;19
1525;52;19
1550;53;19
1575;54;19
1600;54;19
1625;54;19
1650;54;19
1675;54;19
1700;55;19
1725;56;19
1750;56;19
1775;58;19
1800;60;19
1825;61;19
1850;61;19
1875;59;19
1900;58;19
1925;61;19
1950;58;19
1975;59;19
2000;60;19
2025;61;19
2050;61;19
2075;63;19
2100;62;19
2125;67;19
2150;69;19
2175;71;19
2200;72;19
2225;69;19
2250;70;19
2275;71;19
2300;73;19
2325;73;19
2350;73;19
2375;74;19
2400;75;19
2425;74;19
2450;76;19
2475;74;19
2500;74;19
2525;74;19
2550;75;19
2575;77;19
2600;77;19
2625;78;19
2650;78;19
2675;78;19
2700;78;19
2725;77;19
2750;75;19
2775;74;19
2800;75;19
2825;74;19
2850;75;19
2875;75;19
2900;76;19
2925;75;19
2950;75;19
2975;75;19
3000;74;19
3025;75;19
3050;77;19
3075;76;19
3100;76;19
3125;76;19
3150;78;19
3175;78;19
3200;79;19
3225;77;19
3250;75;19
3275;78;19
3300;78;19
3325;78;19
3350;78;19
3375;78;19
3400;78;19
3425;77;19
3450;76;19
3475;73;19
3500;74;19
3525;74;19
3550;75;19
3575;76;19
3600;76;19
3625;76;19
3650;79;19
3675;79;19
3700;77;19
3725;80;19
3750;77;19
3775;79;19
3800;78;19
3825;78;19
3850;80;19
3875;81;19
3900;83;19
3925;83;19
3950;85;19
3975;88;19
4000;87;19
4025;88;19
4050;88;19
4075;88;19
4100;89;19
4125;91;19
4150;91;19
4175;94;19
4200;95;19
4225;93;19
4250;96;19
4275;92;19
4300;92;19
4325;89;19
4350;89;19
4375;90;19
4400;90;19
4425;90;19
4450;91;19
4475;91;19
4500;90;19
4525;91;19
4550;91;19
4575;89;19
4600;87;19
4625;87;19
4650;89;19
4675;89;19
4700;89;19
4725;88;19
4750;89;19
4775;87;19
4800;91;19
4825;90;19
4850;90;19
4875;91;19
4900;93;19
4925;93;19
4950;91;19
4975;93;19
5000;93;19
5025;95;19
5050;94;19
5075;94;19
5100;94;19
5125;94;19
5150;93;19
5175;93;19
5200;93;19
5225;94;19
5250;95;19
5275;97;19
5300;92;19
5325;92;19
5350;91;19
5375;91;19
5400;92;19
5425;92;19
5450;93;19
5475;95;19
5500;98;19
5525;99;19
5550;100;19
5575;97;19
5600;94;19
5625;95;19
5650;97;19
5675;96;19
5700;94;19
5725;93;19
5750;91;19
5775;93;19
5800;93;19
5825;93;19
5850;89;19
5875;90;19
5900;91;19
5925;93;19
5950;93;19
5975;93;19
6000;92;19
6025;92;19
6050;90;19
6075;92;19
6100;90;19
6125;88;19
6150;88;19
6175;90;19
6200;91;19
6225;92;19
6250;93;19
6275;94;19
6300;94;19
6325;94;19
6350;93;19
6375;91;19
6400;90;19
6425;91;19
6450;90;19
6475;90;19
6500;91;19
6525;93;19
6550;95;19
6575;94;19
6600;93;19
6625;90;19
6650;89;19
6675;89;19
6700;93;19
6725;94;19
6750;96;19
6775;94;19
6800;97;19
6825;97;19
6850;96;19
6875;96;19
6900;97;19
6925;97;19
6950;99;19
6975;100;19
7000;101;19
