gen;sp;sim
0;1;8
25;1;8
50;1;8
75;1;8
100;1;8
125;1;8
150;1;8
175;1;8
200;1;8
225;2;8
250;2;8
275;3;8
300;4;8
325;5;8
350;5;8
375;5;8
400;5;8
425;5;8
450;5;8
475;6;8
500;6;8
525;6;8
550;7;8
575;7;8
600;9;8
625;10;8
650;11;8
675;13;8
700;17;8
725;16;8
750;19;8
775;20;8
800;21;8
825;21;8
850;21;8
875;23;8
900;24;8
925;23;8
950;23;8
975;25;8
1000;25;8
1025;26;8
1050;27;8
1075;29;8
1100;29;8
1125;29;8
1150;32;8
1175;35;8
1200;34;8
1225;35;8
1250;36;8
1275;37;8
1300;37;8
1325;38;8
1350;38;8
1375;39;8
1400;40;8
1425;41;8
1450;41;8
1475;42;8
1500;42;8
1525;42;8
1550;43;8
1575;44;8
1600;46;8
1625;45;8
1650;46;8
1675;45;8
1700;44;8
1725;45;8
1750;47;8
1775;48;8
1800;48;8
1825;51;8
1850;53;8
1875;57;8
1900;58;8
1925;58;8
1950;57;8
1975;60;8
2000;59;8
2025;62;8
2050;61;8
2075;59;8
2100;57;8
2125;57;8
2150;57;8
2175;57;8
2200;57;8
2225;56;8
2250;57;8
2275;59;8
2300;62;8
2325;62;8
2350;63;8
2375;63;8
2400;62;8
2425;62;8
2450;63;8
2475;63;8
2500;64;8
2525;63;8
2550;63;8
2575;64;8
2600;61;8
2625;62;8
2650;64;8
2675;63;8
2700;63;8
2725;62;8
2750;65;8
2775;64;8
2800;64;8
2825;63;8
2850;61;8
2875;61;8
2900;62;8
2925;64;8
2950;65;8
2975;65;8
3000;65;8
3025;64;8
3050;65;8
3075;67;8
3100;70;8
3125;68;8
3150;71;8
3175;70;8
3200;71;8
3225;68;8
3250;68;8
3275;68;8
3300;70;8
3325;71;8
3350;72;8
3375;71;8
3400;70;8
3425;71;8
3450;69;8
3475;70;8
3500;68;8
3525;68;8
3550;67;8
3575;66;8
3600;67;8
3625;68;8
3650;64;8
3675;63;8
3700;60;8
3725;59;8
3750;59;8
3775;60;8
3800;62;8
3825;61;8
3850;64;8
3875;63;8
3900;61;8
3925;60;8
3950;61;8
3975;63;8
4000;62;8
4025;61;8
4050;62;8
4075;63;8
4100;62;8
4125;60;8
4150;60;8
4175;60;8
4200;58;8
4225;57;8
4250;58;8
4275;58;8
4300;57;8
4325;56;8
4350;56;8
4375;59;8
4400;59;8
4425;58;8
4450;59;8
4475;59;8
4500;60;8
4525;58;8
4550;59;8
4575;59;8
4600;60;8
4625;60;8
4650;60;8
4675;61;8
4700;65;8
4725;66;8
4750;64;8
4775;62;8
4800;62;8
4825;63;8
4850;63;8
4875;63;8
4900;63;8
4925;63;8
4950;64;8
4975;64;8
5000;67;8
