gen;sp;sim
0;1;17
25;1;17
50;1;17
75;1;17
100;1;17
125;1;17
150;1;17
175;1;17
200;1;17
225;1;17
250;1;17
275;3;17
300;5;17
325;7;17
350;6;17
375;11;17
400;15;17
425;15;17
450;18;17
475;19;17
500;20;17
525;21;17
550;22;17
575;24;17
600;25;17
625;28;17
650;29;17
675;29;17
700;28;17
725;28;17
750;29;17
775;30;17
800;32;17
825;32;17
850;32;17
875;35;17
900;36;17
925;39;17
950;38;17
975;39;17
1000;43;17
1025;43;17
1050;44;17
1075;45;17
1100;49;17
1125;51;17
1150;51;17
1175;49;17
1200;51;17
1225;53;17
1250;52;17
1275;53;17
1300;54;17
1325;55;17
1350;56;17
1375;60;17
1400;59;17
1425;59;17
1450;59;17
1475;57;17
1500;56;17
1525;54;17
1550;54;17
1575;54;17
1600;55;17
1625;56;17
1650;53;17
1675;52;17
1700;53;17
1725;52;17
1750;53;17
1775;56;17
1800;57;17
1825;57;17
1850;57;17
1875;56;17
1900;57;17
1925;56;17
1950;58;17
1975;63;17
2000;64;17
2025;65;17
2050;65;17
2075;64;17
2100;62;17
2125;61;17
2150;61;17
2175;62;17
2200;62;17
2225;64;17
2250;64;17
2275;63;17
2300;66;17
2325;64;17
2350;66;17
2375;66;17
2400;66;17
2425;66;17
2450;67;17
2475;67;17
2500;67;17
2525;66;17
2550;66;17
2575;66;17
2600;65;17
2625;65;17
2650;65;17
2675;63;17
2700;64;17
2725;65;17
2750;66;17
2775;66;17
2800;66;17
2825;66;17
2850;64;17
2875;65;17
2900;63;17
2925;62;17
2950;61;17
2975;60;17
3000;59;17
3025;61;17
3050;60;17
3075;60;17
3100;61;17
3125;60;17
3150;59;17
3175;59;17
3200;60;17
3225;61;17
3250;61;17
3275;64;17
3300;63;17
3325;65;17
3350;64;17
3375;65;17
3400;64;17
3425;64;17
3450;63;17
3475;65;17
3500;65;17
3525;63;17
3550;62;17
3575;62;17
3600;61;17
3625;64;17
3650;64;17
3675;63;17
3700;64;17
3725;63;17
3750;64;17
3775;64;17
3800;61;17
3825;61;17
3850;61;17
3875;60;17
3900;60;17
3925;60;17
3950;59;17
3975;62;17
4000;62;17
4025;62;17
4050;61;17
4075;65;17
4100;65;17
4125;64;17
4150;66;17
4175;66;17
4200;65;17
4225;67;17
4250;66;17
4275;66;17
4300;64;17
4325;62;17
4350;60;17
4375;60;17
4400;59;17
4425;57;17
4450;58;17
4475;59;17
4500;60;17
4525;61;17
4550;64;17
4575;64;17
4600;65;17
4625;67;17
4650;65;17
4675;64;17
4700;64;17
4725;62;17
4750;60;17
4775;61;17
4800;62;17
4825;61;17
4850;61;17
4875;62;17
4900;62;17
4925;61;17
4950;60;17
4975;62;17
5000;60;17
