"gen";"sp";"sim"
0;1;0
25;1;0
50;1;0
75;1;0
100;1;0
125;1;0
150;1;0
175;1;0
200;1;0
225;2;0
250;2;0
275;2;0
300;2;0
325;4;0
350;4;0
375;5;0
400;7;0
425;11;0
450;10;0
475;12;0
500;12;0
525;12;0
550;13;0
575;13;0
600;17;0
625;19;0
650;22;0
675;23;0
700;26;0
725;26;0
750;32;0
775;31;0
800;32;0
825;32;0
850;32;0
875;32;0
900;31;0
925;32;0
950;32;0
975;35;0
1000;36;0
1025;41;0
1050;43;0
1075;43;0
1100;45;0
1125;44;0
1150;44;0
1175;45;0
1200;45;0
1225;46;0
1250;46;0
1275;48;0
1300;49;0
1325;47;0
1350;49;0
1375;48;0
1400;47;0
1425;46;0
1450;47;0
1475;49;0
1500;49;0
1525;51;0
1550;52;0
1575;51;0
1600;56;0
1625;56;0
1650;60;0
1675;59;0
1700;59;0
1725;58;0
1750;58;0
1775;58;0
1800;62;0
1825;64;0
1850;70;0
1875;69;0
1900;67;0
1925;68;0
1950;68;0
1975;68;0
2000;68;0
2025;68;0
2050;68;0
2075;67;0
2100;68;0
2125;70;0
2150;69;0
2175;70;0
2200;65;0
2225;64;0
2250;64;0
2275;63;0
2300;62;0
2325;64;0
2350;65;0
2375;63;0
2400;63;0
2425;62;0
2450;64;0
2475;66;0
2500;63;0
2525;66;0
2550;66;0
2575;67;0
2600;69;0
2625;68;0
2650;67;0
2675;66;0
2700;64;0
2725;61;0
2750;62;0
2775;62;0
2800;62;0
2825;60;0
2850;63;0
2875;63;0
2900;63;0
2925;67;0
2950;66;0
2975;65;0
3000;65;0
3025;64;0
3050;63;0
3075;65;0
3100;64;0
3125;64;0
3150;64;0
3175;62;0
3200;64;0
3225;65;0
3250;64;0
3275;64;0
3300;65;0
3325;67;0
3350;64;0
3375;63;0
3400;65;0
3425;65;0
3450;64;0
3475;64;0
3500;60;0
3525;60;0
3550;61;0
3575;62;0
3600;60;0
3625;61;0
3650;61;0
3675;61;0
3700;63;0
3725;63;0
3750;61;0
3775;61;0
3800;62;0
3825;63;0
3850;64;0
3875;65;0
3900;66;0
3925;67;0
3950;67;0
3975;68;0
4000;67;0
4025;66;0
4050;69;0
4075;72;0
4100;69;0
4125;68;0
4150;66;0
4175;64;0
4200;64;0
4225;64;0
4250;64;0
4275;63;0
4300;62;0
4325;62;0
4350;63;0
4375;62;0
4400;60;0
4425;59;0
4450;59;0
4475;56;0
4500;59;0
4525;58;0
4550;59;0
4575;60;0
4600;60;0
4625;58;0
4650;57;0
4675;58;0
4700;59;0
4725;59;0
4750;58;0
4775;56;0
4800;56;0
4825;58;0
4850;56;0
4875;56;0
4900;59;0
4925;62;0
4950;64;0
4975;62;0
5000;64;0
0;1;1
25;1;1
50;1;1
75;1;1
100;1;1
125;1;1
150;1;1
175;1;1
200;2;1
225;2;1
250;3;1
275;2;1
300;5;1
325;6;1
350;6;1
375;8;1
400;12;1
425;13;1
450;14;1
475;14;1
500;17;1
525;19;1
550;19;1
575;19;1
600;19;1
625;19;1
650;20;1
675;23;1
700;25;1
725;28;1
750;32;1
775;35;1
800;37;1
825;37;1
850;40;1
875;42;1
900;43;1
925;41;1
950;43;1
975;44;1
1000;45;1
1025;45;1
1050;46;1
1075;46;1
1100;46;1
1125;47;1
1150;51;1
1175;49;1
1200;53;1
1225;54;1
1250;55;1
1275;53;1
1300;54;1
1325;53;1
1350;52;1
1375;53;1
1400;54;1
1425;53;1
1450;52;1
1475;54;1
1500;54;1
1525;53;1
1550;55;1
1575;55;1
1600;57;1
1625;56;1
1650;55;1
1675;55;1
1700;55;1
1725;58;1
1750;56;1
1775;58;1
1800;56;1
1825;56;1
1850;56;1
1875;54;1
1900;54;1
1925;56;1
1950;58;1
1975;59;1
2000;59;1
2025;62;1
2050;61;1
2075;62;1
2100;62;1
2125;63;1
2150;61;1
2175;60;1
2200;59;1
2225;59;1
2250;60;1
2275;59;1
2300;60;1
2325;61;1
2350;62;1
2375;63;1
2400;62;1
2425;62;1
2450;63;1
2475;63;1
2500;62;1
2525;61;1
2550;62;1
2575;62;1
2600;61;1
2625;61;1
2650;60;1
2675;64;1
2700;63;1
2725;63;1
2750;64;1
2775;62;1
2800;63;1
2825;64;1
2850;61;1
2875;61;1
2900;61;1
2925;61;1
2950;63;1
2975;62;1
3000;62;1
3025;63;1
3050;61;1
3075;62;1
3100;62;1
3125;62;1
3150;61;1
3175;63;1
3200;64;1
3225;62;1
3250;63;1
3275;61;1
3300;58;1
3325;59;1
3350;59;1
3375;59;1
3400;60;1
3425;61;1
3450;61;1
3475;61;1
3500;60;1
3525;59;1
3550;60;1
3575;60;1
3600;61;1
3625;62;1
3650;61;1
3675;62;1
3700;63;1
3725;64;1
3750;63;1
3775;63;1
3800;64;1
3825;64;1
3850;64;1
3875;64;1
3900;62;1
3925;63;1
3950;61;1
3975;62;1
4000;61;1
4025;62;1
4050;61;1
4075;59;1
4100;59;1
4125;59;1
4150;60;1
4175;61;1
4200;63;1
4225;65;1
4250;64;1
4275;64;1
4300;66;1
4325;67;1
4350;69;1
4375;69;1
4400;67;1
4425;65;1
4450;63;1
4475;64;1
4500;65;1
4525;64;1
4550;63;1
4575;62;1
4600;62;1
4625;62;1
4650;63;1
4675;64;1
4700;65;1
4725;64;1
4750;63;1
4775;63;1
4800;63;1
4825;65;1
4850;66;1
4875;65;1
4900;64;1
4925;64;1
4950;65;1
4975;66;1
5000;67;1
0;1;2
25;1;2
50;1;2
75;1;2
100;1;2
125;1;2
150;1;2
175;1;2
200;1;2
225;1;2
250;2;2
275;2;2
300;2;2
325;3;2
350;4;2
375;4;2
400;4;2
425;8;2
450;9;2
475;11;2
500;16;2
525;16;2
550;17;2
575;20;2
600;19;2
625;21;2
650;23;2
675;24;2
700;25;2
725;26;2
750;28;2
775;29;2
800;30;2
825;32;2
850;32;2
875;35;2
900;38;2
925;36;2
950;39;2
975;40;2
1000;39;2
1025;42;2
1050;43;2
1075;43;2
1100;42;2
1125;46;2
1150;44;2
1175;46;2
1200;50;2
1225;51;2
1250;50;2
1275;51;2
1300;53;2
1325;54;2
1350;52;2
1375;52;2
1400;53;2
1425;55;2
1450;54;2
1475;55;2
1500;52;2
1525;54;2
1550;54;2
1575;55;2
1600;56;2
1625;58;2
1650;59;2
1675;59;2
1700;62;2
1725;63;2
1750;61;2
1775;61;2
1800;61;2
1825;63;2
1850;65;2
1875;64;2
1900;61;2
1925;60;2
1950;60;2
1975;60;2
2000;60;2
2025;58;2
2050;59;2
2075;58;2
2100;58;2
2125;62;2
2150;60;2
2175;63;2
2200;62;2
2225;60;2
2250;61;2
2275;63;2
2300;64;2
2325;65;2
2350;66;2
2375;69;2
2400;71;2
2425;71;2
2450;70;2
2475;71;2
2500;70;2
2525;70;2
2550;70;2
2575;69;2
2600;68;2
2625;68;2
2650;70;2
2675;69;2
2700;68;2
2725;68;2
2750;69;2
2775;71;2
2800;71;2
2825;70;2
2850;69;2
2875;70;2
2900;70;2
2925;70;2
2950;68;2
2975;70;2
3000;66;2
3025;68;2
3050;68;2
3075;68;2
3100;69;2
3125;67;2
3150;67;2
3175;66;2
3200;66;2
3225;69;2
3250;70;2
3275;68;2
3300;70;2
3325;71;2
3350;70;2
3375;68;2
3400;66;2
3425;64;2
3450;64;2
3475;63;2
3500;64;2
3525;64;2
3550;63;2
3575;66;2
3600;67;2
3625;68;2
3650;66;2
3675;64;2
3700;62;2
3725;60;2
3750;62;2
3775;62;2
3800;64;2
3825;64;2
3850;63;2
3875;63;2
3900;65;2
3925;66;2
3950;64;2
3975;64;2
4000;66;2
4025;62;2
4050;66;2
4075;66;2
4100;64;2
4125;63;2
4150;62;2
4175;64;2
4200;63;2
4225;64;2
4250;65;2
4275;66;2
4300;66;2
4325;63;2
4350;64;2
4375;62;2
4400;65;2
4425;67;2
4450;66;2
4475;66;2
4500;65;2
4525;65;2
4550;67;2
4575;67;2
4600;66;2
4625;66;2
4650;65;2
4675;63;2
4700;64;2
4725;64;2
4750;63;2
4775;63;2
4800;62;2
4825;62;2
4850;63;2
4875;63;2
4900;63;2
4925;63;2
4950;63;2
4975;61;2
5000;62;2
0;1;3
25;1;3
50;1;3
75;1;3
100;1;3
125;1;3
150;1;3
175;1;3
200;1;3
225;3;3
250;3;3
275;7;3
300;6;3
325;7;3
350;9;3
375;10;3
400;12;3
425;14;3
450;17;3
475;17;3
500;22;3
525;24;3
550;27;3
575;28;3
600;31;3
625;31;3
650;31;3
675;33;3
700;33;3
725;35;3
750;33;3
775;34;3
800;34;3
825;35;3
850;38;3
875;44;3
900;46;3
925;49;3
950;52;3
975;52;3
1000;52;3
1025;53;3
1050;51;3
1075;51;3
1100;51;3
1125;51;3
1150;51;3
1175;54;3
1200;54;3
1225;52;3
1250;53;3
1275;49;3
1300;51;3
1325;51;3
1350;50;3
1375;49;3
1400;50;3
1425;50;3
1450;50;3
1475;51;3
1500;54;3
1525;55;3
1550;56;3
1575;57;3
1600;57;3
1625;59;3
1650;57;3
1675;57;3
1700;57;3
1725;57;3
1750;58;3
1775;57;3
1800;60;3
1825;59;3
1850;58;3
1875;59;3
1900;60;3
1925;60;3
1950;61;3
1975;63;3
2000;63;3
2025;63;3
2050;62;3
2075;61;3
2100;63;3
2125;63;3
2150;63;3
2175;64;3
2200;65;3
2225;64;3
2250;68;3
2275;68;3
2300;70;3
2325;68;3
2350;68;3
2375;67;3
2400;69;3
2425;71;3
2450;69;3
2475;69;3
2500;69;3
2525;71;3
2550;71;3
2575;70;3
2600;73;3
2625;72;3
2650;73;3
2675;75;3
2700;76;3
2725;74;3
2750;73;3
2775;72;3
2800;70;3
2825;72;3
2850;69;3
2875;70;3
2900;68;3
2925;69;3
2950;69;3
2975;67;3
3000;67;3
3025;67;3
3050;67;3
3075;65;3
3100;67;3
3125;68;3
3150;68;3
3175;69;3
3200;70;3
3225;71;3
3250;71;3
3275;71;3
3300;72;3
3325;72;3
3350;71;3
3375;73;3
3400;73;3
3425;74;3
3450;71;3
3475;69;3
3500;70;3
3525;70;3
3550;69;3
3575;68;3
3600;65;3
3625;63;3
3650;60;3
3675;59;3
3700;59;3
3725;58;3
3750;56;3
3775;57;3
3800;59;3
3825;59;3
3850;61;3
3875;59;3
3900;57;3
3925;58;3
3950;56;3
3975;56;3
4000;58;3
4025;60;3
4050;55;3
4075;56;3
4100;56;3
4125;57;3
4150;59;3
4175;61;3
4200;56;3
4225;57;3
4250;57;3
4275;57;3
4300;56;3
4325;56;3
4350;56;3
4375;58;3
4400;58;3
4425;58;3
4450;58;3
4475;58;3
4500;57;3
4525;57;3
4550;56;3
4575;57;3
4600;58;3
4625;58;3
4650;58;3
4675;59;3
4700;59;3
4725;58;3
4750;59;3
4775;57;3
4800;57;3
4825;58;3
4850;56;3
4875;57;3
4900;58;3
4925;59;3
4950;58;3
4975;58;3
5000;55;3
0;1;4
25;1;4
50;1;4
75;1;4
100;1;4
125;1;4
150;1;4
175;2;4
200;2;4
225;2;4
250;2;4
275;2;4
300;2;4
325;2;4
350;3;4
375;3;4
400;4;4
425;6;4
450;10;4
475;12;4
500;13;4
525;16;4
550;17;4
575;19;4
600;19;4
625;21;4
650;24;4
675;23;4
700;27;4
725;27;4
750;29;4
775;31;4
800;30;4
825;33;4
850;35;4
875;36;4
900;38;4
925;39;4
950;42;4
975;42;4
1000;44;4
1025;44;4
1050;46;4
1075;47;4
1100;46;4
1125;45;4
1150;46;4
1175;49;4
1200;50;4
1225;49;4
1250;50;4
1275;50;4
1300;50;4
1325;50;4
1350;51;4
1375;53;4
1400;51;4
1425;50;4
1450;51;4
1475;51;4
1500;55;4
1525;56;4
1550;53;4
1575;54;4
1600;54;4
1625;53;4
1650;54;4
1675;56;4
1700;57;4
1725;57;4
1750;57;4
1775;56;4
1800;57;4
1825;56;4
1850;57;4
1875;56;4
1900;56;4
1925;57;4
1950;57;4
1975;56;4
2000;59;4
2025;59;4
2050;60;4
2075;60;4
2100;59;4
2125;60;4
2150;62;4
2175;66;4
2200;65;4
2225;63;4
2250;62;4
2275;61;4
2300;61;4
2325;62;4
2350;64;4
2375;62;4
2400;61;4
2425;63;4
2450;62;4
2475;63;4
2500;61;4
2525;59;4
2550;60;4
2575;58;4
2600;57;4
2625;55;4
2650;54;4
2675;55;4
2700;57;4
2725;59;4
2750;59;4
2775;62;4
2800;61;4
2825;64;4
2850;63;4
2875;64;4
2900;66;4
2925;66;4
2950;66;4
2975;65;4
3000;63;4
3025;63;4
3050;64;4
3075;67;4
3100;65;4
3125;65;4
3150;66;4
3175;69;4
3200;68;4
3225;67;4
3250;68;4
3275;67;4
3300;65;4
3325;65;4
3350;64;4
3375;61;4
3400;63;4
3425;61;4
3450;62;4
3475;63;4
3500;60;4
3525;60;4
3550;61;4
3575;59;4
3600;61;4
3625;60;4
3650;63;4
3675;64;4
3700;63;4
3725;62;4
3750;60;4
3775;58;4
3800;58;4
3825;58;4
3850;58;4
3875;59;4
3900;61;4
3925;61;4
3950;62;4
3975;59;4
4000;57;4
4025;58;4
4050;57;4
4075;58;4
4100;59;4
4125;58;4
4150;57;4
4175;57;4
4200;60;4
4225;61;4
4250;61;4
4275;62;4
4300;62;4
4325;64;4
4350;62;4
4375;64;4
4400;59;4
4425;57;4
4450;59;4
4475;59;4
4500;61;4
4525;60;4
4550;60;4
4575;58;4
4600;63;4
4625;65;4
4650;64;4
4675;64;4
4700;64;4
4725;64;4
4750;62;4
4775;62;4
4800;62;4
4825;63;4
4850;61;4
4875;61;4
4900;60;4
4925;60;4
4950;63;4
4975;60;4
5000;59;4
0;1;5
25;1;5
50;1;5
75;1;5
100;1;5
125;1;5
150;1;5
175;2;5
200;2;5
225;2;5
250;2;5
275;2;5
300;2;5
325;4;5
350;7;5
375;6;5
400;8;5
425;6;5
450;10;5
475;13;5
500;15;5
525;18;5
550;21;5
575;24;5
600;24;5
625;26;5
650;29;5
675;27;5
700;30;5
725;30;5
750;34;5
775;34;5
800;35;5
825;36;5
850;38;5
875;39;5
900;39;5
925;39;5
950;38;5
975;40;5
1000;39;5
1025;39;5
1050;39;5
1075;37;5
1100;39;5
1125;39;5
1150;40;5
1175;42;5
1200;43;5
1225;45;5
1250;44;5
1275;45;5
1300;44;5
1325;48;5
1350;48;5
1375;51;5
1400;49;5
1425;49;5
1450;52;5
1475;53;5
1500;55;5
1525;59;5
1550;58;5
1575;61;5
1600;62;5
1625;62;5
1650;62;5
1675;63;5
1700;65;5
1725;64;5
1750;61;5
1775;58;5
1800;59;5
1825;60;5
1850;63;5
1875;62;5
1900;61;5
1925;63;5
1950;60;5
1975;59;5
2000;57;5
2025;57;5
2050;57;5
2075;57;5
2100;57;5
2125;56;5
2150;60;5
2175;60;5
2200;60;5
2225;62;5
2250;57;5
2275;58;5
2300;59;5
2325;59;5
2350;56;5
2375;57;5
2400;56;5
2425;56;5
2450;56;5
2475;56;5
2500;56;5
2525;56;5
2550;58;5
2575;59;5
2600;60;5
2625;61;5
2650;61;5
2675;60;5
2700;60;5
2725;59;5
2750;61;5
2775;65;5
2800;65;5
2825;65;5
2850;64;5
2875;64;5
2900;62;5
2925;63;5
2950;63;5
2975;64;5
3000;63;5
3025;64;5
3050;66;5
3075;66;5
3100;66;5
3125;67;5
3150;67;5
3175;67;5
3200;67;5
3225;69;5
3250;66;5
3275;66;5
3300;68;5
3325;66;5
3350;67;5
3375;69;5
3400;70;5
3425;70;5
3450;71;5
3475;69;5
3500;67;5
3525;64;5
3550;64;5
3575;63;5
3600;63;5
3625;64;5
3650;63;5
3675;61;5
3700;63;5
3725;64;5
3750;64;5
3775;64;5
3800;65;5
3825;64;5
3850;64;5
3875;63;5
3900;63;5
3925;63;5
3950;62;5
3975;65;5
4000;65;5
4025;67;5
4050;67;5
4075;64;5
4100;63;5
4125;62;5
4150;60;5
4175;60;5
4200;60;5
4225;61;5
4250;60;5
4275;61;5
4300;64;5
4325;64;5
4350;64;5
4375;62;5
4400;62;5
4425;64;5
4450;62;5
4475;65;5
4500;64;5
4525;63;5
4550;64;5
4575;64;5
4600;64;5
4625;62;5
4650;62;5
4675;62;5
4700;60;5
4725;62;5
4750;59;5
4775;59;5
4800;62;5
4825;63;5
4850;64;5
4875;64;5
4900;63;5
4925;63;5
4950;65;5
4975;63;5
5000;62;5
0;1;6
25;1;6
50;1;6
75;1;6
100;1;6
125;1;6
150;1;6
175;1;6
200;1;6
225;1;6
250;1;6
275;1;6
300;1;6
325;2;6
350;2;6
375;6;6
400;6;6
425;7;6
450;8;6
475;11;6
500;12;6
525;12;6
550;14;6
575;17;6
600;17;6
625;18;6
650;19;6
675;19;6
700;20;6
725;24;6
750;22;6
775;26;6
800;28;6
825;31;6
850;35;6
875;36;6
900;36;6
925;37;6
950;36;6
975;39;6
1000;40;6
1025;40;6
1050;40;6
1075;40;6
1100;39;6
1125;41;6
1150;45;6
1175;48;6
1200;51;6
1225;51;6
1250;54;6
1275;55;6
1300;60;6
1325;58;6
1350;57;6
1375;56;6
1400;55;6
1425;55;6
1450;57;6
1475;58;6
1500;59;6
1525;60;6
1550;62;6
1575;62;6
1600;62;6
1625;57;6
1650;58;6
1675;58;6
1700;59;6
1725;60;6
1750;58;6
1775;58;6
1800;59;6
1825;62;6
1850;62;6
1875;63;6
1900;65;6
1925;66;6
1950;66;6
1975;68;6
2000;67;6
2025;67;6
2050;67;6
2075;66;6
2100;67;6
2125;65;6
2150;65;6
2175;64;6
2200;62;6
2225;61;6
2250;61;6
2275;60;6
2300;61;6
2325;61;6
2350;64;6
2375;62;6
2400;62;6
2425;59;6
2450;59;6
2475;60;6
2500;64;6
2525;65;6
2550;65;6
2575;65;6
2600;63;6
2625;63;6
2650;61;6
2675;62;6
2700;61;6
2725;60;6
2750;61;6
2775;64;6
2800;64;6
2825;63;6
2850;62;6
2875;63;6
2900;65;6
2925;66;6
2950;64;6
2975;64;6
3000;63;6
3025;63;6
3050;63;6
3075;64;6
3100;63;6
3125;63;6
3150;65;6
3175;66;6
3200;65;6
3225;64;6
3250;68;6
3275;68;6
3300;68;6
3325;65;6
3350;66;6
3375;64;6
3400;64;6
3425;69;6
3450;68;6
3475;69;6
3500;70;6
3525;70;6
3550;71;6
3575;71;6
3600;71;6
3625;70;6
3650;70;6
3675;71;6
3700;71;6
3725;71;6
3750;71;6
3775;69;6
3800;67;6
3825;69;6
3850;66;6
3875;64;6
3900;62;6
3925;60;6
3950;60;6
3975;61;6
4000;60;6
4025;60;6
4050;60;6
4075;60;6
4100;58;6
4125;57;6
4150;56;6
4175;57;6
4200;59;6
4225;61;6
4250;59;6
4275;60;6
4300;63;6
4325;63;6
4350;65;6
4375;68;6
4400;69;6
4425;67;6
4450;65;6
4475;64;6
4500;62;6
4525;64;6
4550;66;6
4575;66;6
4600;64;6
4625;64;6
4650;64;6
4675;63;6
4700;61;6
4725;62;6
4750;61;6
4775;61;6
4800;61;6
4825;63;6
4850;63;6
4875;64;6
4900;63;6
4925;67;6
4950;65;6
4975;63;6
5000;63;6
0;1;7
25;1;7
50;1;7
75;1;7
100;1;7
125;1;7
150;1;7
175;1;7
200;2;7
225;2;7
250;2;7
275;4;7
300;5;7
325;6;7
350;8;7
375;9;7
400;13;7
425;15;7
450;22;7
475;27;7
500;29;7
525;34;7
550;33;7
575;33;7
600;35;7
625;37;7
650;40;7
675;43;7
700;46;7
725;46;7
750;47;7
775;44;7
800;44;7
825;49;7
850;48;7
875;51;7
900;50;7
925;52;7
950;52;7
975;52;7
1000;53;7
1025;51;7
1050;54;7
1075;52;7
1100;51;7
1125;50;7
1150;50;7
1175;50;7
1200;51;7
1225;51;7
1250;50;7
1275;51;7
1300;52;7
1325;53;7
1350;53;7
1375;54;7
1400;55;7
1425;54;7
1450;57;7
1475;57;7
1500;60;7
1525;59;7
1550;61;7
1575;63;7
1600;65;7
1625;64;7
1650;64;7
1675;63;7
1700;62;7
1725;61;7
1750;61;7
1775;61;7
1800;60;7
1825;60;7
1850;60;7
1875;60;7
1900;61;7
1925;61;7
1950;62;7
1975;64;7
2000;63;7
2025;64;7
2050;66;7
2075;67;7
2100;65;7
2125;66;7
2150;68;7
2175;67;7
2200;70;7
2225;69;7
2250;67;7
2275;64;7
2300;63;7
2325;63;7
2350;61;7
2375;61;7
2400;62;7
2425;62;7
2450;63;7
2475;63;7
2500;64;7
2525;65;7
2550;66;7
2575;66;7
2600;65;7
2625;67;7
2650;66;7
2675;69;7
2700;68;7
2725;67;7
2750;67;7
2775;69;7
2800;71;7
2825;70;7
2850;68;7
2875;66;7
2900;64;7
2925;65;7
2950;66;7
2975;68;7
3000;70;7
3025;70;7
3050;69;7
3075;68;7
3100;69;7
3125;69;7
3150;68;7
3175;69;7
3200;70;7
3225;71;7
3250;72;7
3275;72;7
3300;71;7
3325;73;7
3350;72;7
3375;71;7
3400;70;7
3425;69;7
3450;67;7
3475;65;7
3500;66;7
3525;65;7
3550;64;7
3575;64;7
3600;65;7
3625;67;7
3650;68;7
3675;69;7
3700;69;7
3725;69;7
3750;67;7
3775;67;7
3800;66;7
3825;67;7
3850;67;7
3875;67;7
3900;68;7
3925;68;7
3950;69;7
3975;69;7
4000;69;7
4025;70;7
4050;70;7
4075;71;7
4100;70;7
4125;68;7
4150;69;7
4175;68;7
4200;69;7
4225;69;7
4250;69;7
4275;68;7
4300;67;7
4325;66;7
4350;64;7
4375;64;7
4400;63;7
4425;63;7
4450;64;7
4475;64;7
4500;66;7
4525;64;7
4550;65;7
4575;64;7
4600;63;7
4625;62;7
4650;63;7
4675;61;7
4700;60;7
4725;60;7
4750;60;7
4775;59;7
4800;59;7
4825;59;7
4850;61;7
4875;62;7
4900;63;7
4925;62;7
4950;61;7
4975;63;7
5000;64;7
0;1;8
25;1;8
50;1;8
75;1;8
100;1;8
125;1;8
150;1;8
175;1;8
200;1;8
225;2;8
250;2;8
275;3;8
300;4;8
325;5;8
350;5;8
375;5;8
400;5;8
425;5;8
450;5;8
475;6;8
500;6;8
525;6;8
550;7;8
575;7;8
600;9;8
625;10;8
650;11;8
675;13;8
700;17;8
725;16;8
750;19;8
775;20;8
800;21;8
825;21;8
850;21;8
875;23;8
900;24;8
925;23;8
950;23;8
975;25;8
1000;25;8
1025;26;8
1050;27;8
1075;29;8
1100;29;8
1125;29;8
1150;32;8
1175;35;8
1200;34;8
1225;35;8
1250;36;8
1275;37;8
1300;37;8
1325;38;8
1350;38;8
1375;39;8
1400;40;8
1425;41;8
1450;41;8
1475;42;8
1500;42;8
1525;42;8
1550;43;8
1575;44;8
1600;46;8
1625;45;8
1650;46;8
1675;45;8
1700;44;8
1725;45;8
1750;47;8
1775;48;8
1800;48;8
1825;51;8
1850;53;8
1875;57;8
1900;58;8
1925;58;8
1950;57;8
1975;60;8
2000;59;8
2025;62;8
2050;61;8
2075;59;8
2100;57;8
2125;57;8
2150;57;8
2175;57;8
2200;57;8
2225;56;8
2250;57;8
2275;59;8
2300;62;8
2325;62;8
2350;63;8
2375;63;8
2400;62;8
2425;62;8
2450;63;8
2475;63;8
2500;64;8
2525;63;8
2550;63;8
2575;64;8
2600;61;8
2625;62;8
2650;64;8
2675;63;8
2700;63;8
2725;62;8
2750;65;8
2775;64;8
2800;64;8
2825;63;8
2850;61;8
2875;61;8
2900;62;8
2925;64;8
2950;65;8
2975;65;8
3000;65;8
3025;64;8
3050;65;8
3075;67;8
3100;70;8
3125;68;8
3150;71;8
3175;70;8
3200;71;8
3225;68;8
3250;68;8
3275;68;8
3300;70;8
3325;71;8
3350;72;8
3375;71;8
3400;70;8
3425;71;8
3450;69;8
3475;70;8
3500;68;8
3525;68;8
3550;67;8
3575;66;8
3600;67;8
3625;68;8
3650;64;8
3675;63;8
3700;60;8
3725;59;8
3750;59;8
3775;60;8
3800;62;8
3825;61;8
3850;64;8
3875;63;8
3900;61;8
3925;60;8
3950;61;8
3975;63;8
4000;62;8
4025;61;8
4050;62;8
4075;63;8
4100;62;8
4125;60;8
4150;60;8
4175;60;8
4200;58;8
4225;57;8
4250;58;8
4275;58;8
4300;57;8
4325;56;8
4350;56;8
4375;59;8
4400;59;8
4425;58;8
4450;59;8
4475;59;8
4500;60;8
4525;58;8
4550;59;8
4575;59;8
4600;60;8
4625;60;8
4650;60;8
4675;61;8
4700;65;8
4725;66;8
4750;64;8
4775;62;8
4800;62;8
4825;63;8
4850;63;8
4875;63;8
4900;63;8
4925;63;8
4950;64;8
4975;64;8
5000;67;8
0;1;9
25;1;9
50;1;9
75;1;9
100;1;9
125;1;9
150;1;9
175;1;9
200;1;9
225;1;9
250;1;9
275;1;9
300;2;9
325;2;9
350;3;9
375;4;9
400;7;9
425;9;9
450;9;9
475;9;9
500;10;9
525;11;9
550;12;9
575;13;9
600;16;9
625;16;9
650;18;9
675;20;9
700;22;9
725;23;9
750;26;9
775;28;9
800;30;9
825;32;9
850;34;9
875;36;9
900;36;9
925;38;9
950;39;9
975;39;9
1000;41;9
1025;40;9
1050;42;9
1075;44;9
1100;44;9
1125;44;9
1150;50;9
1175;49;9
1200;49;9
1225;50;9
1250;51;9
1275;51;9
1300;49;9
1325;48;9
1350;46;9
1375;46;9
1400;48;9
1425;48;9
1450;47;9
1475;48;9
1500;48;9
1525;50;9
1550;51;9
1575;53;9
1600;50;9
1625;50;9
1650;47;9
1675;52;9
1700;56;9
1725;56;9
1750;56;9
1775;56;9
1800;57;9
1825;58;9
1850;58;9
1875;55;9
1900;55;9
1925;54;9
1950;55;9
1975;54;9
2000;53;9
2025;53;9
2050;54;9
2075;54;9
2100;55;9
2125;53;9
2150;54;9
2175;56;9
2200;56;9
2225;57;9
2250;59;9
2275;60;9
2300;58;9
2325;56;9
2350;57;9
2375;59;9
2400;59;9
2425;62;9
2450;63;9
2475;62;9
2500;62;9
2525;63;9
2550;63;9
2575;64;9
2600;63;9
2625;66;9
2650;65;9
2675;64;9
2700;62;9
2725;62;9
2750;61;9
2775;60;9
2800;61;9
2825;60;9
2850;60;9
2875;61;9
2900;60;9
2925;60;9
2950;60;9
2975;61;9
3000;63;9
3025;65;9
3050;65;9
3075;65;9
3100;66;9
3125;66;9
3150;66;9
3175;66;9
3200;65;9
3225;67;9
3250;67;9
3275;65;9
3300;64;9
3325;65;9
3350;64;9
3375;63;9
3400;64;9
3425;66;9
3450;68;9
3475;66;9
3500;65;9
3525;63;9
3550;62;9
3575;62;9
3600;63;9
3625;63;9
3650;63;9
3675;64;9
3700;64;9
3725;63;9
3750;63;9
3775;64;9
3800;66;9
3825;64;9
3850;65;9
3875;64;9
3900;65;9
3925;65;9
3950;64;9
3975;65;9
4000;68;9
4025;70;9
4050;69;9
4075;68;9
4100;66;9
4125;66;9
4150;64;9
4175;63;9
4200;64;9
4225;64;9
4250;65;9
4275;64;9
4300;63;9
4325;63;9
4350;65;9
4375;65;9
4400;67;9
4425;68;9
4450;68;9
4475;68;9
4500;68;9
4525;67;9
4550;66;9
4575;68;9
4600;71;9
4625;71;9
4650;72;9
4675;68;9
4700;69;9
4725;68;9
4750;69;9
4775;67;9
4800;65;9
4825;64;9
4850;65;9
4875;66;9
4900;67;9
4925;68;9
4950;68;9
4975;73;9
5000;71;9
0;1;10
25;1;10
50;1;10
75;1;10
100;2;10
125;2;10
150;2;10
175;2;10
200;3;10
225;4;10
250;4;10
275;5;10
300;4;10
325;6;10
350;5;10
375;10;10
400;11;10
425;12;10
450;14;10
475;16;10
500;17;10
525;21;10
550;22;10
575;22;10
600;21;10
625;24;10
650;25;10
675;32;10
700;31;10
725;34;10
750;37;10
775;38;10
800;39;10
825;40;10
850;40;10
875;45;10
900;45;10
925;44;10
950;46;10
975;48;10
1000;47;10
1025;48;10
1050;49;10
1075;50;10
1100;51;10
1125;48;10
1150;49;10
1175;49;10
1200;51;10
1225;50;10
1250;50;10
1275;51;10
1300;49;10
1325;50;10
1350;52;10
1375;54;10
1400;53;10
1425;54;10
1450;57;10
1475;59;10
1500;56;10
1525;57;10
1550;57;10
1575;56;10
1600;59;10
1625;58;10
1650;58;10
1675;58;10
1700;58;10
1725;60;10
1750;59;10
1775;59;10
1800;59;10
1825;61;10
1850;58;10
1875;59;10
1900;56;10
1925;56;10
1950;56;10
1975;55;10
2000;55;10
2025;55;10
2050;55;10
2075;56;10
2100;56;10
2125;55;10
2150;53;10
2175;52;10
2200;52;10
2225;54;10
2250;53;10
2275;54;10
2300;55;10
2325;54;10
2350;58;10
2375;58;10
2400;60;10
2425;59;10
2450;61;10
2475;60;10
2500;59;10
2525;61;10
2550;60;10
2575;61;10
2600;61;10
2625;61;10
2650;62;10
2675;61;10
2700;61;10
2725;62;10
2750;63;10
2775;64;10
2800;63;10
2825;64;10
2850;62;10
2875;63;10
2900;60;10
2925;63;10
2950;64;10
2975;64;10
3000;65;10
3025;63;10
3050;63;10
3075;64;10
3100;65;10
3125;65;10
3150;66;10
3175;63;10
3200;62;10
3225;63;10
3250;64;10
3275;65;10
3300;63;10
3325;63;10
3350;63;10
3375;61;10
3400;60;10
3425;60;10
3450;60;10
3475;59;10
3500;60;10
3525;63;10
3550;66;10
3575;66;10
3600;65;10
3625;67;10
3650;70;10
3675;72;10
3700;71;10
3725;71;10
3750;69;10
3775;72;10
3800;68;10
3825;67;10
3850;67;10
3875;70;10
3900;69;10
3925;66;10
3950;66;10
3975;65;10
4000;66;10
4025;61;10
4050;61;10
4075;60;10
4100;59;10
4125;58;10
4150;57;10
4175;57;10
4200;54;10
4225;54;10
4250;53;10
4275;54;10
4300;54;10
4325;53;10
4350;54;10
4375;56;10
4400;55;10
4425;58;10
4450;57;10
4475;57;10
4500;55;10
4525;55;10
4550;58;10
4575;59;10
4600;66;10
4625;68;10
4650;67;10
4675;67;10
4700;67;10
4725;69;10
4750;68;10
4775;69;10
4800;67;10
4825;65;10
4850;66;10
4875;65;10
4900;65;10
4925;65;10
4950;64;10
4975;63;10
5000;61;10
0;1;11
25;1;11
50;1;11
75;1;11
100;1;11
125;1;11
150;1;11
175;1;11
200;2;11
225;2;11
250;4;11
275;4;11
300;5;11
325;4;11
350;3;11
375;4;11
400;4;11
425;5;11
450;6;11
475;7;11
500;8;11
525;9;11
550;12;11
575;13;11
600;13;11
625;15;11
650;20;11
675;21;11
700;26;11
725;29;11
750;29;11
775;30;11
800;29;11
825;30;11
850;29;11
875;31;11
900;33;11
925;33;11
950;34;11
975;34;11
1000;35;11
1025;36;11
1050;36;11
1075;37;11
1100;38;11
1125;39;11
1150;40;11
1175;39;11
1200;40;11
1225;42;11
1250;43;11
1275;47;11
1300;47;11
1325;45;11
1350;49;11
1375;47;11
1400;49;11
1425;52;11
1450;52;11
1475;53;11
1500;53;11
1525;51;11
1550;52;11
1575;51;11
1600;50;11
1625;49;11
1650;48;11
1675;49;11
1700;51;11
1725;55;11
1750;55;11
1775;56;11
1800;56;11
1825;58;11
1850;57;11
1875;59;11
1900;61;11
1925;61;11
1950;64;11
1975;63;11
2000;65;11
2025;66;11
2050;63;11
2075;63;11
2100;63;11
2125;62;11
2150;64;11
2175;64;11
2200;65;11
2225;65;11
2250;63;11
2275;63;11
2300;63;11
2325;63;11
2350;64;11
2375;64;11
2400;65;11
2425;65;11
2450;64;11
2475;65;11
2500;65;11
2525;67;11
2550;66;11
2575;67;11
2600;67;11
2625;72;11
2650;74;11
2675;73;11
2700;76;11
2725;77;11
2750;78;11
2775;75;11
2800;74;11
2825;72;11
2850;74;11
2875;73;11
2900;74;11
2925;74;11
2950;76;11
2975;76;11
3000;73;11
3025;71;11
3050;68;11
3075;69;11
3100;67;11
3125;66;11
3150;65;11
3175;65;11
3200;65;11
3225;63;11
3250;60;11
3275;60;11
3300;59;11
3325;58;11
3350;58;11
3375;58;11
3400;58;11
3425;58;11
3450;57;11
3475;56;11
3500;55;11
3525;54;11
3550;54;11
3575;55;11
3600;55;11
3625;58;11
3650;56;11
3675;55;11
3700;57;11
3725;57;11
3750;56;11
3775;56;11
3800;57;11
3825;58;11
3850;56;11
3875;56;11
3900;55;11
3925;55;11
3950;56;11
3975;54;11
4000;54;11
4025;58;11
4050;57;11
4075;60;11
4100;59;11
4125;59;11
4150;63;11
4175;66;11
4200;66;11
4225;67;11
4250;65;11
4275;65;11
4300;64;11
4325;63;11
4350;65;11
4375;64;11
4400;65;11
4425;65;11
4450;65;11
4475;65;11
4500;65;11
4525;67;11
4550;67;11
4575;63;11
4600;61;11
4625;62;11
4650;64;11
4675;65;11
4700;65;11
4725;65;11
4750;64;11
4775;66;11
4800;66;11
4825;66;11
4850;65;11
4875;66;11
4900;66;11
4925;64;11
4950;64;11
4975;64;11
5000;66;11
0;1;12
25;1;12
50;1;12
75;1;12
100;1;12
125;1;12
150;1;12
175;1;12
200;1;12
225;3;12
250;2;12
275;2;12
300;2;12
325;5;12
350;6;12
375;5;12
400;8;12
425;9;12
450;15;12
475;17;12
500;17;12
525;22;12
550;22;12
575;25;12
600;27;12
625;30;12
650;28;12
675;33;12
700;33;12
725;36;12
750;37;12
775;37;12
800;39;12
825;40;12
850;40;12
875;41;12
900;41;12
925;44;12
950;44;12
975;48;12
1000;48;12
1025;47;12
1050;51;12
1075;52;12
1100;52;12
1125;53;12
1150;53;12
1175;53;12
1200;53;12
1225;56;12
1250;58;12
1275;59;12
1300;58;12
1325;57;12
1350;56;12
1375;57;12
1400;56;12
1425;56;12
1450;52;12
1475;55;12
1500;57;12
1525;60;12
1550;59;12
1575;60;12
1600;63;12
1625;61;12
1650;60;12
1675;58;12
1700;56;12
1725;59;12
1750;57;12
1775;58;12
1800;56;12
1825;57;12
1850;60;12
1875;61;12
1900;61;12
1925;63;12
1950;60;12
1975;62;12
2000;62;12
2025;60;12
2050;59;12
2075;60;12
2100;61;12
2125;62;12
2150;66;12
2175;65;12
2200;65;12
2225;63;12
2250;63;12
2275;63;12
2300;67;12
2325;66;12
2350;67;12
2375;66;12
2400;65;12
2425;64;12
2450;63;12
2475;60;12
2500;61;12
2525;57;12
2550;57;12
2575;57;12
2600;56;12
2625;56;12
2650;57;12
2675;54;12
2700;53;12
2725;53;12
2750;52;12
2775;53;12
2800;56;12
2825;57;12
2850;58;12
2875;57;12
2900;55;12
2925;57;12
2950;57;12
2975;57;12
3000;59;12
3025;60;12
3050;61;12
3075;61;12
3100;64;12
3125;64;12
3150;64;12
3175;60;12
3200;59;12
3225;59;12
3250;59;12
3275;61;12
3300;61;12
3325;62;12
3350;62;12
3375;62;12
3400;62;12
3425;63;12
3450;61;12
3475;60;12
3500;64;12
3525;64;12
3550;63;12
3575;62;12
3600;61;12
3625;60;12
3650;61;12
3675;61;12
3700;63;12
3725;62;12
3750;61;12
3775;59;12
3800;60;12
3825;61;12
3850;61;12
3875;63;12
3900;61;12
3925;61;12
3950;60;12
3975;62;12
4000;61;12
4025;61;12
4050;62;12
4075;63;12
4100;61;12
4125;64;12
4150;65;12
4175;66;12
4200;66;12
4225;64;12
4250;62;12
4275;61;12
4300;61;12
4325;62;12
4350;63;12
4375;63;12
4400;63;12
4425;61;12
4450;63;12
4475;62;12
4500;63;12
4525;62;12
4550;62;12
4575;61;12
4600;62;12
4625;63;12
4650;64;12
4675;65;12
4700;63;12
4725;63;12
4750;61;12
4775;69;12
4800;70;12
4825;70;12
4850;70;12
4875;68;12
4900;68;12
4925;68;12
4950;70;12
4975;71;12
5000;72;12
0;1;13
25;1;13
50;1;13
75;1;13
100;1;13
125;1;13
150;1;13
175;1;13
200;1;13
225;2;13
250;2;13
275;2;13
300;3;13
325;7;13
350;7;13
375;8;13
400;10;13
425;10;13
450;14;13
475;16;13
500;15;13
525;21;13
550;23;13
575;23;13
600;26;13
625;28;13
650;28;13
675;31;13
700;31;13
725;31;13
750;33;13
775;32;13
800;34;13
825;35;13
850;36;13
875;37;13
900;36;13
925;40;13
950;41;13
975;43;13
1000;42;13
1025;42;13
1050;42;13
1075;44;13
1100;45;13
1125;46;13
1150;47;13
1175;48;13
1200;48;13
1225;49;13
1250;49;13
1275;49;13
1300;49;13
1325;49;13
1350;52;13
1375;50;13
1400;52;13
1425;53;13
1450;52;13
1475;53;13
1500;55;13
1525;56;13
1550;58;13
1575;57;13
1600;56;13
1625;56;13
1650;56;13
1675;56;13
1700;59;13
1725;58;13
1750;58;13
1775;59;13
1800;59;13
1825;58;13
1850;57;13
1875;57;13
1900;56;13
1925;57;13
1950;57;13
1975;58;13
2000;59;13
2025;60;13
2050;59;13
2075;59;13
2100;59;13
2125;61;13
2150;60;13
2175;58;13
2200;58;13
2225;59;13
2250;58;13
2275;62;13
2300;63;13
2325;64;13
2350;63;13
2375;63;13
2400;64;13
2425;66;13
2450;63;13
2475;62;13
2500;62;13
2525;64;13
2550;63;13
2575;64;13
2600;65;13
2625;66;13
2650;63;13
2675;62;13
2700;63;13
2725;62;13
2750;62;13
2775;62;13
2800;62;13
2825;63;13
2850;64;13
2875;62;13
2900;66;13
2925;68;13
2950;68;13
2975;66;13
3000;65;13
3025;64;13
3050;63;13
3075;64;13
3100;64;13
3125;64;13
3150;63;13
3175;64;13
3200;63;13
3225;64;13
3250;68;13
3275;65;13
3300;66;13
3325;67;13
3350;67;13
3375;67;13
3400;68;13
3425;68;13
3450;69;13
3475;67;13
3500;66;13
3525;63;13
3550;66;13
3575;65;13
3600;67;13
3625;69;13
3650;70;13
3675;69;13
3700;69;13
3725;70;13
3750;69;13
3775;70;13
3800;68;13
3825;67;13
3850;64;13
3875;62;13
3900;65;13
3925;65;13
3950;63;13
3975;62;13
4000;64;13
4025;63;13
4050;62;13
4075;63;13
4100;61;13
4125;65;13
4150;68;13
4175;69;13
4200;67;13
4225;71;13
4250;69;13
4275;67;13
4300;65;13
4325;65;13
4350;65;13
4375;64;13
4400;63;13
4425;64;13
4450;67;13
4475;65;13
4500;64;13
4525;63;13
4550;60;13
4575;59;13
4600;60;13
4625;59;13
4650;57;13
4675;59;13
4700;58;13
4725;58;13
4750;61;13
4775;61;13
4800;61;13
4825;61;13
4850;61;13
4875;62;13
4900;62;13
4925;61;13
4950;62;13
4975;63;13
5000;64;13
0;1;14
25;1;14
50;1;14
75;1;14
100;1;14
125;1;14
150;1;14
175;1;14
200;1;14
225;2;14
250;4;14
275;4;14
300;7;14
325;7;14
350;9;14
375;8;14
400;10;14
425;10;14
450;10;14
475;13;14
500;14;14
525;17;14
550;16;14
575;18;14
600;17;14
625;20;14
650;20;14
675;19;14
700;21;14
725;21;14
750;23;14
775;23;14
800;24;14
825;27;14
850;28;14
875;32;14
900;35;14
925;37;14
950;38;14
975;39;14
1000;39;14
1025;41;14
1050;43;14
1075;42;14
1100;43;14
1125;42;14
1150;45;14
1175;46;14
1200;50;14
1225;49;14
1250;49;14
1275;48;14
1300;50;14
1325;50;14
1350;51;14
1375;52;14
1400;55;14
1425;55;14
1450;55;14
1475;57;14
1500;55;14
1525;54;14
1550;55;14
1575;54;14
1600;55;14
1625;57;14
1650;59;14
1675;59;14
1700;57;14
1725;56;14
1750;56;14
1775;56;14
1800;56;14
1825;55;14
1850;54;14
1875;57;14
1900;57;14
1925;57;14
1950;57;14
1975;59;14
2000;59;14
2025;60;14
2050;62;14
2075;61;14
2100;60;14
2125;59;14
2150;61;14
2175;62;14
2200;60;14
2225;60;14
2250;59;14
2275;61;14
2300;62;14
2325;60;14
2350;59;14
2375;57;14
2400;59;14
2425;59;14
2450;60;14
2475;58;14
2500;58;14
2525;57;14
2550;58;14
2575;57;14
2600;58;14
2625;60;14
2650;58;14
2675;58;14
2700;58;14
2725;60;14
2750;61;14
2775;62;14
2800;61;14
2825;62;14
2850;62;14
2875;61;14
2900;63;14
2925;62;14
2950;63;14
2975;63;14
3000;62;14
3025;62;14
3050;62;14
3075;64;14
3100;63;14
3125;61;14
3150;62;14
3175;62;14
3200;65;14
3225;67;14
3250;68;14
3275;67;14
3300;64;14
3325;63;14
3350;61;14
3375;61;14
3400;60;14
3425;60;14
3450;60;14
3475;60;14
3500;61;14
3525;61;14
3550;61;14
3575;60;14
3600;61;14
3625;62;14
3650;63;14
3675;63;14
3700;63;14
3725;64;14
3750;64;14
3775;63;14
3800;62;14
3825;64;14
3850;64;14
3875;63;14
3900;62;14
3925;60;14
3950;60;14
3975;59;14
4000;56;14
4025;55;14
4050;56;14
4075;56;14
4100;56;14
4125;56;14
4150;55;14
4175;54;14
4200;54;14
4225;55;14
4250;56;14
4275;58;14
4300;57;14
4325;58;14
4350;58;14
4375;57;14
4400;57;14
4425;58;14
4450;57;14
4475;57;14
4500;58;14
4525;59;14
4550;59;14
4575;60;14
4600;62;14
4625;62;14
4650;63;14
4675;64;14
4700;66;14
4725;67;14
4750;66;14
4775;65;14
4800;66;14
4825;63;14
4850;62;14
4875;61;14
4900;61;14
4925;62;14
4950;66;14
4975;62;14
5000;60;14
0;1;15
25;1;15
50;1;15
75;1;15
100;1;15
125;1;15
150;1;15
175;1;15
200;1;15
225;2;15
250;3;15
275;3;15
300;6;15
325;7;15
350;8;15
375;10;15
400;11;15
425;14;15
450;14;15
475;17;15
500;19;15
525;19;15
550;23;15
575;26;15
600;28;15
625;28;15
650;31;15
675;31;15
700;31;15
725;35;15
750;35;15
775;41;15
800;40;15
825;40;15
850;40;15
875;41;15
900;43;15
925;43;15
950;47;15
975;49;15
1000;50;15
1025;49;15
1050;50;15
1075;51;15
1100;50;15
1125;54;15
1150;52;15
1175;52;15
1200;53;15
1225;54;15
1250;55;15
1275;55;15
1300;54;15
1325;55;15
1350;55;15
1375;56;15
1400;57;15
1425;58;15
1450;58;15
1475;57;15
1500;57;15
1525;57;15
1550;58;15
1575;59;15
1600;58;15
1625;57;15
1650;59;15
1675;58;15
1700;57;15
1725;58;15
1750;58;15
1775;59;15
1800;58;15
1825;62;15
1850;63;15
1875;65;15
1900;65;15
1925;64;15
1950;65;15
1975;63;15
2000;62;15
2025;61;15
2050;60;15
2075;58;15
2100;58;15
2125;59;15
2150;59;15
2175;58;15
2200;59;15
2225;60;15
2250;61;15
2275;62;15
2300;62;15
2325;64;15
2350;65;15
2375;64;15
2400;63;15
2425;63;15
2450;61;15
2475;58;15
2500;60;15
2525;60;15
2550;62;15
2575;61;15
2600;63;15
2625;64;15
2650;64;15
2675;64;15
2700;64;15
2725;63;15
2750;65;15
2775;64;15
2800;63;15
2825;64;15
2850;65;15
2875;64;15
2900;63;15
2925;65;15
2950;66;15
2975;69;15
3000;70;15
3025;68;15
3050;66;15
3075;64;15
3100;64;15
3125;65;15
3150;65;15
3175;68;15
3200;67;15
3225;66;15
3250;67;15
3275;66;15
3300;64;15
3325;63;15
3350;63;15
3375;61;15
3400;61;15
3425;62;15
3450;62;15
3475;63;15
3500;63;15
3525;62;15
3550;60;15
3575;62;15
3600;62;15
3625;64;15
3650;65;15
3675;64;15
3700;63;15
3725;66;15
3750;68;15
3775;69;15
3800;65;15
3825;67;15
3850;67;15
3875;64;15
3900;64;15
3925;64;15
3950;65;15
3975;65;15
4000;65;15
4025;67;15
4050;66;15
4075;65;15
4100;66;15
4125;66;15
4150;65;15
4175;65;15
4200;62;15
4225;61;15
4250;59;15
4275;59;15
4300;58;15
4325;60;15
4350;62;15
4375;63;15
4400;63;15
4425;61;15
4450;61;15
4475;58;15
4500;58;15
4525;56;15
4550;59;15
4575;58;15
4600;61;15
4625;60;15
4650;61;15
4675;60;15
4700;58;15
4725;59;15
4750;59;15
4775;60;15
4800;58;15
4825;57;15
4850;57;15
4875;58;15
4900;59;15
4925;59;15
4950;59;15
4975;59;15
5000;59;15
0;1;16
25;1;16
50;1;16
75;1;16
100;1;16
125;1;16
150;1;16
175;1;16
200;1;16
225;1;16
250;1;16
275;1;16
300;3;16
325;3;16
350;4;16
375;7;16
400;7;16
425;9;16
450;13;16
475;14;16
500;14;16
525;18;16
550;17;16
575;20;16
600;20;16
625;22;16
650;23;16
675;23;16
700;25;16
725;24;16
750;26;16
775;26;16
800;26;16
825;28;16
850;31;16
875;32;16
900;33;16
925;35;16
950;39;16
975;40;16
1000;40;16
1025;41;16
1050;44;16
1075;45;16
1100;47;16
1125;47;16
1150;46;16
1175;47;16
1200;46;16
1225;48;16
1250;48;16
1275;48;16
1300;49;16
1325;50;16
1350;49;16
1375;50;16
1400;51;16
1425;51;16
1450;51;16
1475;50;16
1500;48;16
1525;46;16
1550;46;16
1575;47;16
1600;48;16
1625;50;16
1650;52;16
1675;51;16
1700;51;16
1725;53;16
1750;52;16
1775;51;16
1800;49;16
1825;50;16
1850;49;16
1875;50;16
1900;50;16
1925;49;16
1950;51;16
1975;53;16
2000;55;16
2025;56;16
2050;56;16
2075;55;16
2100;54;16
2125;56;16
2150;56;16
2175;56;16
2200;54;16
2225;55;16
2250;55;16
2275;53;16
2300;53;16
2325;53;16
2350;53;16
2375;53;16
2400;54;16
2425;55;16
2450;55;16
2475;55;16
2500;56;16
2525;57;16
2550;57;16
2575;57;16
2600;59;16
2625;60;16
2650;61;16
2675;61;16
2700;60;16
2725;60;16
2750;59;16
2775;60;16
2800;61;16
2825;61;16
2850;58;16
2875;60;16
2900;63;16
2925;66;16
2950;68;16
2975;66;16
3000;65;16
3025;65;16
3050;66;16
3075;69;16
3100;68;16
3125;71;16
3150;70;16
3175;69;16
3200;69;16
3225;69;16
3250;70;16
3275;69;16
3300;68;16
3325;66;16
3350;66;16
3375;69;16
3400;66;16
3425;66;16
3450;65;16
3475;66;16
3500;66;16
3525;65;16
3550;66;16
3575;64;16
3600;64;16
3625;62;16
3650;62;16
3675;61;16
3700;62;16
3725;61;16
3750;61;16
3775;61;16
3800;62;16
3825;63;16
3850;64;16
3875;66;16
3900;66;16
3925;64;16
3950;63;16
3975;62;16
4000;61;16
4025;60;16
4050;58;16
4075;63;16
4100;62;16
4125;60;16
4150;61;16
4175;60;16
4200;61;16
4225;61;16
4250;60;16
4275;63;16
4300;62;16
4325;60;16
4350;60;16
4375;59;16
4400;58;16
4425;59;16
4450;58;16
4475;56;16
4500;57;16
4525;57;16
4550;57;16
4575;57;16
4600;57;16
4625;57;16
4650;55;16
4675;58;16
4700;58;16
4725;60;16
4750;60;16
4775;61;16
4800;61;16
4825;59;16
4850;59;16
4875;58;16
4900;59;16
4925;61;16
4950;59;16
4975;56;16
5000;56;16
0;1;17
25;1;17
50;1;17
75;1;17
100;1;17
125;1;17
150;1;17
175;1;17
200;1;17
225;1;17
250;1;17
275;3;17
300;5;17
325;7;17
350;6;17
375;11;17
400;15;17
425;15;17
450;18;17
475;19;17
500;20;17
525;21;17
550;22;17
575;24;17
600;25;17
625;28;17
650;29;17
675;29;17
700;28;17
725;28;17
750;29;17
775;30;17
800;32;17
825;32;17
850;32;17
875;35;17
900;36;17
925;39;17
950;38;17
975;39;17
1000;43;17
1025;43;17
1050;44;17
1075;45;17
1100;49;17
1125;51;17
1150;51;17
1175;49;17
1200;51;17
1225;53;17
1250;52;17
1275;53;17
1300;54;17
1325;55;17
1350;56;17
1375;60;17
1400;59;17
1425;59;17
1450;59;17
1475;57;17
1500;56;17
1525;54;17
1550;54;17
1575;54;17
1600;55;17
1625;56;17
1650;53;17
1675;52;17
1700;53;17
1725;52;17
1750;53;17
1775;56;17
1800;57;17
1825;57;17
1850;57;17
1875;56;17
1900;57;17
1925;56;17
1950;58;17
1975;63;17
2000;64;17
2025;65;17
2050;65;17
2075;64;17
2100;62;17
2125;61;17
2150;61;17
2175;62;17
2200;62;17
2225;64;17
2250;64;17
2275;63;17
2300;66;17
2325;64;17
2350;66;17
2375;66;17
2400;66;17
2425;66;17
2450;67;17
2475;67;17
2500;67;17
2525;66;17
2550;66;17
2575;66;17
2600;65;17
2625;65;17
2650;65;17
2675;63;17
2700;64;17
2725;65;17
2750;66;17
2775;66;17
2800;66;17
2825;66;17
2850;64;17
2875;65;17
2900;63;17
2925;62;17
2950;61;17
2975;60;17
3000;59;17
3025;61;17
3050;60;17
3075;60;17
3100;61;17
3125;60;17
3150;59;17
3175;59;17
3200;60;17
3225;61;17
3250;61;17
3275;64;17
3300;63;17
3325;65;17
3350;64;17
3375;65;17
3400;64;17
3425;64;17
3450;63;17
3475;65;17
3500;65;17
3525;63;17
3550;62;17
3575;62;17
3600;61;17
3625;64;17
3650;64;17
3675;63;17
3700;64;17
3725;63;17
3750;64;17
3775;64;17
3800;61;17
3825;61;17
3850;61;17
3875;60;17
3900;60;17
3925;60;17
3950;59;17
3975;62;17
4000;62;17
4025;62;17
4050;61;17
4075;65;17
4100;65;17
4125;64;17
4150;66;17
4175;66;17
4200;65;17
4225;67;17
4250;66;17
4275;66;17
4300;64;17
4325;62;17
4350;60;17
4375;60;17
4400;59;17
4425;57;17
4450;58;17
4475;59;17
4500;60;17
4525;61;17
4550;64;17
4575;64;17
4600;65;17
4625;67;17
4650;65;17
4675;64;17
4700;64;17
4725;62;17
4750;60;17
4775;61;17
4800;62;17
4825;61;17
4850;61;17
4875;62;17
4900;62;17
4925;61;17
4950;60;17
4975;62;17
5000;60;17
0;1;18
25;1;18
50;1;18
75;1;18
100;1;18
125;1;18
150;1;18
175;1;18
200;1;18
225;3;18
250;4;18
275;4;18
300;3;18
325;5;18
350;7;18
375;8;18
400;12;18
425;14;18
450;15;18
475;16;18
500;19;18
525;19;18
550;25;18
575;28;18
600;30;18
625;31;18
650;35;18
675;36;18
700;38;18
725;40;18
750;40;18
775;42;18
800;43;18
825;45;18
850;46;18
875;46;18
900;48;18
925;49;18
950;49;18
975;51;18
1000;51;18
1025;51;18
1050;56;18
1075;57;18
1100;56;18
1125;55;18
1150;60;18
1175;60;18
1200;57;18
1225;58;18
1250;59;18
1275;58;18
1300;58;18
1325;58;18
1350;57;18
1375;58;18
1400;60;18
1425;61;18
1450;63;18
1475;65;18
1500;63;18
1525;64;18
1550;66;18
1575;65;18
1600;66;18
1625;65;18
1650;66;18
1675;66;18
1700;67;18
1725;69;18
1750;72;18
1775;71;18
1800;71;18
1825;71;18
1850;69;18
1875;68;18
1900;66;18
1925;66;18
1950;65;18
1975;66;18
2000;66;18
2025;64;18
2050;64;18
2075;64;18
2100;65;18
2125;67;18
2150;71;18
2175;73;18
2200;72;18
2225;75;18
2250;73;18
2275;71;18
2300;71;18
2325;69;18
2350;68;18
2375;68;18
2400;69;18
2425;71;18
2450;70;18
2475;67;18
2500;70;18
2525;69;18
2550;68;18
2575;68;18
2600;66;18
2625;67;18
2650;63;18
2675;64;18
2700;64;18
2725;65;18
2750;67;18
2775;70;18
2800;67;18
2825;68;18
2850;70;18
2875;70;18
2900;71;18
2925;69;18
2950;70;18
2975;71;18
3000;71;18
3025;72;18
3050;70;18
3075;69;18
3100;72;18
3125;72;18
3150;72;18
3175;73;18
3200;70;18
3225;70;18
3250;69;18
3275;68;18
3300;70;18
3325;68;18
3350;67;18
3375;67;18
3400;67;18
3425;66;18
3450;67;18
3475;69;18
3500;67;18
3525;68;18
3550;69;18
3575;69;18
3600;67;18
3625;67;18
3650;67;18
3675;66;18
3700;65;18
3725;65;18
3750;63;18
3775;65;18
3800;66;18
3825;64;18
3850;62;18
3875;62;18
3900;63;18
3925;64;18
3950;65;18
3975;64;18
4000;62;18
4025;62;18
4050;61;18
4075;61;18
4100;61;18
4125;60;18
4150;59;18
4175;59;18
4200;59;18
4225;59;18
4250;63;18
4275;63;18
4300;61;18
4325;63;18
4350;64;18
4375;63;18
4400;64;18
4425;65;18
4450;64;18
4475;63;18
4500;65;18
4525;63;18
4550;62;18
4575;61;18
4600;62;18
4625;63;18
4650;62;18
4675;62;18
4700;63;18
4725;62;18
4750;62;18
4775;63;18
4800;63;18
4825;63;18
4850;63;18
4875;61;18
4900;58;18
4925;59;18
4950;62;18
4975;60;18
5000;59;18
0;1;19
25;1;19
50;1;19
75;1;19
100;1;19
125;1;19
150;1;19
175;1;19
200;1;19
225;1;19
250;1;19
275;3;19
300;2;19
325;3;19
350;5;19
375;6;19
400;11;19
425;13;19
450;15;19
475;16;19
500;20;19
525;20;19
550;20;19
575;23;19
600;24;19
625;25;19
650;30;19
675;29;19
700;31;19
725;33;19
750;32;19
775;32;19
800;34;19
825;36;19
850;38;19
875;35;19
900;37;19
925;40;19
950;40;19
975;44;19
1000;46;19
1025;48;19
1050;49;19
1075;49;19
1100;50;19
1125;50;19
1150;50;19
1175;50;19
1200;51;19
1225;51;19
1250;49;19
1275;48;19
1300;49;19
1325;50;19
1350;48;19
1375;50;19
1400;50;19
1425;49;19
1450;50;19
1475;53;19
1500;53;19
1525;54;19
1550;54;19
1575;55;19
1600;56;19
1625;57;19
1650;56;19
1675;57;19
1700;58;19
1725;63;19
1750;65;19
1775;63;19
1800;63;19
1825;63;19
1850;61;19
1875;61;19
1900;60;19
1925;62;19
1950;60;19
1975;59;19
2000;59;19
2025;59;19
2050;58;19
2075;58;19
2100;59;19
2125;59;19
2150;60;19
2175;62;19
2200;65;19
2225;65;19
2250;65;19
2275;65;19
2300;64;19
2325;64;19
2350;63;19
2375;63;19
2400;61;19
2425;60;19
2450;60;19
2475;60;19
2500;61;19
2525;63;19
2550;63;19
2575;64;19
2600;60;19
2625;61;19
2650;63;19
2675;65;19
2700;64;19
2725;64;19
2750;63;19
2775;62;19
2800;61;19
2825;60;19
2850;57;19
2875;55;19
2900;57;19
2925;59;19
2950;59;19
2975;59;19
3000;57;19
3025;57;19
3050;58;19
3075;57;19
3100;58;19
3125;60;19
3150;60;19
3175;63;19
3200;63;19
3225;64;19
3250;66;19
3275;66;19
3300;68;19
3325;68;19
3350;65;19
3375;65;19
3400;64;19
3425;64;19
3450;64;19
3475;66;19
3500;65;19
3525;65;19
3550;66;19
3575;67;19
3600;67;19
3625;66;19
3650;68;19
3675;70;19
3700;70;19
3725;71;19
3750;69;19
3775;69;19
3800;69;19
3825;69;19
3850;69;19
3875;67;19
3900;66;19
3925;67;19
3950;66;19
3975;66;19
4000;66;19
4025;63;19
4050;63;19
4075;63;19
4100;64;19
4125;65;19
4150;68;19
4175;68;19
4200;66;19
4225;63;19
4250;65;19
4275;65;19
4300;67;19
4325;66;19
4350;69;19
4375;68;19
4400;68;19
4425;68;19
4450;68;19
4475;68;19
4500;67;19
4525;67;19
4550;66;19
4575;64;19
4600;63;19
4625;62;19
4650;64;19
4675;63;19
4700;62;19
4725;60;19
4750;59;19
4775;59;19
4800;60;19
4825;62;19
4850;64;19
4875;64;19
4900;65;19
4925;66;19
4950;69;19
4975;69;19
5000;68;19
